\beamer@endinputifotherversion {3.36pt}
\beamer@sectionintoc {1}{Motivation}{2}{0}{1}
\beamer@sectionintoc {2}{Design}{5}{0}{2}
\beamer@sectionintoc {3}{Treatment effect}{13}{0}{3}
\beamer@sectionintoc {4}{Heterogeneity}{20}{0}{4}
\beamer@sectionintoc {5}{Closing remarks}{24}{0}{5}
\contentsline {section}{}
\beamer@sectionintoc {7}{Extra slides}{29}{1}{6}
