\relax 
\providecommand\hyper@newdestlabel[2]{}
\providecommand\zref@newlabel[2]{}
\providecommand\HyperFirstAtBeginDocument{\AtBeginDocument}
\HyperFirstAtBeginDocument{\ifx\hyper@anchor\@undefined
\global\let\oldcontentsline\contentsline
\gdef\contentsline#1#2#3#4{\oldcontentsline{#1}{#2}{#3}}
\global\let\oldnewlabel\newlabel
\gdef\newlabel#1#2{\newlabelxx{#1}#2}
\gdef\newlabelxx#1#2#3#4#5#6{\oldnewlabel{#1}{{#2}{#3}}}
\AtEndDocument{\ifx\hyper@anchor\@undefined
\let\contentsline\oldcontentsline
\let\newlabel\oldnewlabel
\fi}
\fi}
\global\let\hyper@last\relax 
\gdef\HyperFirstAtBeginDocument#1{#1}
\providecommand\HyField@AuxAddToFields[1]{}
\providecommand\HyField@AuxAddToCoFields[2]{}
\providecommand\AtEndDvi@Check{}
\AtEndDvi@Check
\providecommand \oddpage@label [2]{}
\@writefile{toc}{\beamer@endinputifotherversion {3.36pt}}
\@writefile{nav}{\beamer@endinputifotherversion {3.36pt}}
\@writefile{nav}{\headcommand {\slideentry {0}{0}{1}{1/1}{}{0}}}
\@writefile{nav}{\headcommand {\beamer@framepages {1}{1}}}
\@writefile{toc}{\beamer@sectionintoc {1}{Motivation}{2}{0}{1}}
\@writefile{nav}{\headcommand {\sectionentry {1}{Motivation}{2}{Motivation}{0}}}
\@writefile{nav}{\headcommand {\beamer@sectionpages {1}{1}}}
\@writefile{nav}{\headcommand {\beamer@subsectionpages {1}{1}}}
\@writefile{nav}{\headcommand {\slideentry {1}{0}{1}{2/2}{}{0}}}
\@writefile{nav}{\headcommand {\beamer@framepages {2}{2}}}
\citation{Cohen1982}
\citation{Robinson2005}
\citation{Shenderovich2015}
\citation{Munley2010}
\citation{Li2010}
\citation{Cabezas2011}
\citation{Sacerdote2001}
\citation{Zimmerman2003}
\@writefile{nav}{\headcommand {\slideentry {1}{0}{2}{3/3}{}{0}}}
\@writefile{nav}{\headcommand {\beamer@framepages {3}{3}}}
\@writefile{nav}{\headcommand {\slideentry {1}{0}{3}{4/4}{}{0}}}
\@writefile{nav}{\headcommand {\beamer@framepages {4}{4}}}
\@writefile{toc}{\beamer@sectionintoc {2}{Design}{5}{0}{2}}
\@writefile{nav}{\headcommand {\sectionentry {2}{Design}{5}{Design}{0}}}
\@writefile{nav}{\headcommand {\beamer@sectionpages {2}{4}}}
\@writefile{nav}{\headcommand {\beamer@subsectionpages {2}{4}}}
\@writefile{nav}{\headcommand {\slideentry {2}{0}{1}{5/5}{}{0}}}
\@writefile{nav}{\headcommand {\beamer@framepages {5}{5}}}
\@writefile{nav}{\headcommand {\slideentry {2}{0}{2}{6/6}{}{0}}}
\@writefile{nav}{\headcommand {\beamer@framepages {6}{6}}}
\providecommand*\caption@xref[2]{\@setref\relax\@undefined{#1}}
\newlabel{my-label}{{1}{7}{Treatment Assignment\relax }{Doc-Start}{}}
\@writefile{snm}{\beamer@slide {my-label}{7}}
\@writefile{nav}{\headcommand {\slideentry {2}{0}{3}{7/7}{}{0}}}
\@writefile{nav}{\headcommand {\beamer@framepages {7}{7}}}
\@writefile{nav}{\headcommand {\slideentry {2}{0}{4}{8/8}{}{0}}}
\@writefile{nav}{\headcommand {\beamer@framepages {8}{8}}}
\@writefile{nav}{\headcommand {\slideentry {2}{0}{5}{9/9}{}{0}}}
\@writefile{nav}{\headcommand {\beamer@framepages {9}{9}}}
\@writefile{nav}{\headcommand {\slideentry {2}{0}{6}{10/12}{}{0}}}
\@writefile{nav}{\headcommand {\beamer@framepages {10}{12}}}
\@writefile{toc}{\beamer@sectionintoc {3}{Treatment effect}{13}{0}{3}}
\@writefile{nav}{\headcommand {\sectionentry {3}{Treatment effect}{13}{Treatment effect}{0}}}
\@writefile{nav}{\headcommand {\beamer@sectionpages {5}{12}}}
\@writefile{nav}{\headcommand {\beamer@subsectionpages {5}{12}}}
\@writefile{nav}{\headcommand {\slideentry {3}{0}{1}{13/13}{}{0}}}
\@writefile{nav}{\headcommand {\beamer@framepages {13}{13}}}
\newlabel{fig:timing1}{{1a}{14}{Baseline PU\relax }{Doc-Start}{}}
\@writefile{snm}{\beamer@slide {fig:timing1}{14}}
\newlabel{sub@fig:timing1}{{a}{14}{Baseline PU\relax }{Doc-Start}{}}
\@writefile{snm}{\beamer@slide {sub@fig:timing1}{14}}
\newlabel{fig:timing2}{{1b}{14}{Baseline STD 1\relax }{Doc-Start}{}}
\@writefile{snm}{\beamer@slide {fig:timing2}{14}}
\newlabel{sub@fig:timing2}{{b}{14}{Baseline STD 1\relax }{Doc-Start}{}}
\@writefile{snm}{\beamer@slide {sub@fig:timing2}{14}}
\newlabel{fig:timing3}{{1c}{14}{Endline PU\relax }{Doc-Start}{}}
\@writefile{snm}{\beamer@slide {fig:timing3}{14}}
\newlabel{sub@fig:timing3}{{c}{14}{Endline PU\relax }{Doc-Start}{}}
\@writefile{snm}{\beamer@slide {sub@fig:timing3}{14}}
\newlabel{fig:timing3}{{1d}{14}{Endline STD 1\relax }{Doc-Start}{}}
\@writefile{snm}{\beamer@slide {fig:timing3}{14}}
\newlabel{sub@fig:timing3}{{d}{14}{Endline STD 1\relax }{Doc-Start}{}}
\@writefile{snm}{\beamer@slide {sub@fig:timing3}{14}}
\@writefile{nav}{\headcommand {\slideentry {3}{0}{2}{14/14}{}{0}}}
\@writefile{nav}{\headcommand {\beamer@framepages {14}{14}}}
\newlabel{fig:timing1}{{2a}{15}{Baseline STD 5\relax }{Doc-Start}{}}
\@writefile{snm}{\beamer@slide {fig:timing1}{15}}
\newlabel{sub@fig:timing1}{{a}{15}{Baseline STD 5\relax }{Doc-Start}{}}
\@writefile{snm}{\beamer@slide {sub@fig:timing1}{15}}
\newlabel{fig:timing2}{{2b}{15}{Baseline STD 6\relax }{Doc-Start}{}}
\@writefile{snm}{\beamer@slide {fig:timing2}{15}}
\newlabel{sub@fig:timing2}{{b}{15}{Baseline STD 6\relax }{Doc-Start}{}}
\@writefile{snm}{\beamer@slide {sub@fig:timing2}{15}}
\newlabel{fig:timing3}{{2c}{15}{Endline STD 5\relax }{Doc-Start}{}}
\@writefile{snm}{\beamer@slide {fig:timing3}{15}}
\newlabel{sub@fig:timing3}{{c}{15}{Endline STD 5\relax }{Doc-Start}{}}
\@writefile{snm}{\beamer@slide {sub@fig:timing3}{15}}
\newlabel{fig:timing3}{{2d}{15}{Endline STD 6\relax }{Doc-Start}{}}
\@writefile{snm}{\beamer@slide {fig:timing3}{15}}
\newlabel{sub@fig:timing3}{{d}{15}{Endline STD 6\relax }{Doc-Start}{}}
\@writefile{snm}{\beamer@slide {sub@fig:timing3}{15}}
\@writefile{nav}{\headcommand {\slideentry {3}{0}{3}{15/15}{}{0}}}
\@writefile{nav}{\headcommand {\beamer@framepages {15}{15}}}
\newlabel{balance<1>}{{14}{16}{Treatment effect}{Doc-Start}{}}
\@writefile{snm}{\beamer@slide {balance<1>}{16}}
\newlabel{balance}{{14}{16}{Treatment effect}{Doc-Start}{}}
\@writefile{snm}{\beamer@slide {balance}{16}}
\@writefile{nav}{\headcommand {\slideentry {3}{0}{4}{16/16}{}{0}}}
\@writefile{nav}{\headcommand {\beamer@framepages {16}{16}}}
\@writefile{nav}{\headcommand {\slideentry {3}{0}{5}{17/17}{}{0}}}
\@writefile{nav}{\headcommand {\beamer@framepages {17}{17}}}
\@writefile{nav}{\headcommand {\slideentry {3}{0}{6}{18/18}{}{0}}}
\@writefile{nav}{\headcommand {\beamer@framepages {18}{18}}}
\@writefile{nav}{\headcommand {\slideentry {3}{0}{7}{19/19}{}{0}}}
\@writefile{nav}{\headcommand {\beamer@framepages {19}{19}}}
\@writefile{toc}{\beamer@sectionintoc {4}{Heterogeneity}{20}{0}{4}}
\@writefile{nav}{\headcommand {\sectionentry {4}{Heterogeneity}{20}{Heterogeneity}{0}}}
\@writefile{nav}{\headcommand {\beamer@sectionpages {13}{19}}}
\@writefile{nav}{\headcommand {\beamer@subsectionpages {13}{19}}}
\@writefile{nav}{\headcommand {\slideentry {4}{0}{1}{20/20}{}{0}}}
\@writefile{nav}{\headcommand {\beamer@framepages {20}{20}}}
\@writefile{nav}{\headcommand {\slideentry {4}{0}{2}{21/21}{}{0}}}
\@writefile{nav}{\headcommand {\beamer@framepages {21}{21}}}
\newlabel{treatment_summary<1>}{{20}{22}{Heterogeneity}{Doc-Start}{}}
\@writefile{snm}{\beamer@slide {treatment_summary<1>}{22}}
\newlabel{treatment_summary}{{20}{22}{Heterogeneity}{Doc-Start}{}}
\@writefile{snm}{\beamer@slide {treatment_summary}{22}}
\@writefile{nav}{\headcommand {\slideentry {4}{0}{3}{22/22}{}{0}}}
\@writefile{nav}{\headcommand {\beamer@framepages {22}{22}}}
\newlabel{treat_hetero<1>}{{21}{23}{Heterogeneity}{Doc-Start}{}}
\@writefile{snm}{\beamer@slide {treat_hetero<1>}{23}}
\newlabel{treat_hetero}{{21}{23}{Heterogeneity}{Doc-Start}{}}
\@writefile{snm}{\beamer@slide {treat_hetero}{23}}
\@writefile{nav}{\headcommand {\slideentry {4}{0}{4}{23/23}{}{0}}}
\@writefile{nav}{\headcommand {\beamer@framepages {23}{23}}}
\@writefile{toc}{\beamer@sectionintoc {5}{Closing remarks}{24}{0}{5}}
\@writefile{nav}{\headcommand {\sectionentry {5}{Closing remarks}{24}{Closing remarks}{0}}}
\@writefile{nav}{\headcommand {\beamer@sectionpages {20}{23}}}
\@writefile{nav}{\headcommand {\beamer@subsectionpages {20}{23}}}
\@writefile{nav}{\headcommand {\slideentry {5}{0}{1}{24/24}{}{0}}}
\@writefile{nav}{\headcommand {\beamer@framepages {24}{24}}}
\@writefile{nav}{\headcommand {\slideentry {5}{0}{2}{25/25}{}{0}}}
\@writefile{nav}{\headcommand {\beamer@framepages {25}{25}}}
\@writefile{nav}{\headcommand {\slideentry {5}{0}{3}{26/26}{}{0}}}
\@writefile{nav}{\headcommand {\beamer@framepages {26}{26}}}
\bibstyle{apacite}
\bibdata{CrossAgeBib}
\bibcite{Cabezas2011}{\citeauthoryear {Cabezas, Cuesta,{}\ \BBA{} Gallego}{Cabezas\ \BOthers {.}}{{\APACyear {2011}}}}
\APACbibcite{Cabezas2011}{\citeauthoryear {Cabezas, Cuesta,{}\ \BBA{} Gallego}{Cabezas\ \BOthers {.}}{{\APACyear {2011}}}}
\bibcite{Cohen1982}{\citeauthoryear {Cohen, Kulik,{}\ \BBA{} Kulik}{Cohen\ \BOthers {.}}{{\APACyear {1982}}}}
\APACbibcite{Cohen1982}{\citeauthoryear {Cohen, Kulik,{}\ \BBA{} Kulik}{Cohen\ \BOthers {.}}{{\APACyear {1982}}}}
\bibcite{Li2010}{\citeauthoryear {Li, Han, Rozelle,{}\ \BBA{} Zhang}{Li\ \BOthers {.}}{{\APACyear {2010}}}}
\APACbibcite{Li2010}{\citeauthoryear {Li, Han, Rozelle,{}\ \BBA{} Zhang}{Li\ \BOthers {.}}{{\APACyear {2010}}}}
\bibcite{Munley2010}{\citeauthoryear {Munley, Garvey,{}\ \BBA{} McConnell}{Munley\ \BOthers {.}}{{\APACyear {2010}}}}
\APACbibcite{Munley2010}{\citeauthoryear {Munley, Garvey,{}\ \BBA{} McConnell}{Munley\ \BOthers {.}}{{\APACyear {2010}}}}
\bibcite{Robinson2005}{\citeauthoryear {Robinson, Schofield,{}\ \BBA{} Steers-Wentzell}{Robinson\ \BOthers {.}}{{\APACyear {2005}}}}
\APACbibcite{Robinson2005}{\citeauthoryear {Robinson, Schofield,{}\ \BBA{} Steers-Wentzell}{Robinson\ \BOthers {.}}{{\APACyear {2005}}}}
\bibcite{Sacerdote2001}{\citeauthoryear {Sacerdote}{Sacerdote}{{\APACyear {2001}}}}
\APACbibcite{Sacerdote2001}{\citeauthoryear {Sacerdote}{Sacerdote}{{\APACyear {2001}}}}
\bibcite{Shenderovich2015}{\citeauthoryear {Shenderovich, Thurston,{}\ \BBA{} Miller}{Shenderovich\ \BOthers {.}}{{\APACyear {2015}}}}
\APACbibcite{Shenderovich2015}{\citeauthoryear {Shenderovich, Thurston,{}\ \BBA{} Miller}{Shenderovich\ \BOthers {.}}{{\APACyear {2015}}}}
\bibcite{Zimmerman2003}{\citeauthoryear {Zimmerman}{Zimmerman}{{\APACyear {2003}}}}
\APACbibcite{Zimmerman2003}{\citeauthoryear {Zimmerman}{Zimmerman}{{\APACyear {2003}}}}
\@writefile{nav}{\headcommand {\sectionentry {6}{}{27}{}{0}}}
\@writefile{nav}{\headcommand {\beamer@sectionpages {24}{26}}}
\@writefile{nav}{\headcommand {\beamer@subsectionpages {24}{26}}}
\@writefile{toc}{\contentsline {section}{}}
\@writefile{nav}{\headcommand {\slideentry {6}{0}{0}{27/27}{}{0}}}
\@writefile{nav}{\headcommand {\beamer@framepages {27}{27}}}
\@writefile{nav}{\headcommand {\slideentry {6}{0}{0}{27/28}{}{0}}}
\@writefile{nav}{\headcommand {\beamer@framepages {27}{28}}}
\@writefile{nav}{\headcommand {\partentry {\translate  {Appendix}}{1}}}
\@writefile{nav}{\headcommand {\beamer@partpages {1}{28}}}
\@writefile{nav}{\headcommand {\beamer@sectionpages {24}{28}}}
\@writefile{nav}{\headcommand {\beamer@subsectionpages {24}{28}}}
\@writefile{nav}{\headcommand {\beamer@appendixpages {29}}}
\@writefile{toc}{\beamer@sectionintoc {7}{Extra slides}{29}{1}{6}}
\@writefile{nav}{\headcommand {\sectionentry {7}{Extra slides}{29}{Extra slides}{1}}}
\@writefile{nav}{\headcommand {\beamer@sectionpages {29}{28}}}
\@writefile{nav}{\headcommand {\beamer@subsectionpages {29}{28}}}
\@writefile{nav}{\headcommand {\slideentry {7}{0}{1}{29/29}{}{1}}}
\@writefile{nav}{\headcommand {\beamer@framepages {29}{29}}}
\newlabel{het_lagged<1>}{{28}{30}{Extra slides}{Doc-Start}{}}
\@writefile{snm}{\beamer@slide {het_lagged<1>}{30}}
\newlabel{het_lagged}{{28}{30}{Extra slides}{Doc-Start}{}}
\@writefile{snm}{\beamer@slide {het_lagged}{30}}
\@writefile{nav}{\headcommand {\slideentry {7}{0}{2}{30/30}{}{1}}}
\@writefile{nav}{\headcommand {\beamer@framepages {30}{30}}}
\newlabel{het_TTR<1>}{{29}{31}{Extra slides}{Doc-Start}{}}
\@writefile{snm}{\beamer@slide {het_TTR<1>}{31}}
\newlabel{het_TTR}{{29}{31}{Extra slides}{Doc-Start}{}}
\@writefile{snm}{\beamer@slide {het_TTR}{31}}
\@writefile{nav}{\headcommand {\slideentry {7}{0}{3}{31/31}{}{1}}}
\@writefile{nav}{\headcommand {\beamer@framepages {31}{31}}}
\newlabel{het_gender_tutor<1>}{{30}{32}{Extra slides}{Doc-Start}{}}
\@writefile{snm}{\beamer@slide {het_gender_tutor<1>}{32}}
\newlabel{het_gender_tutor}{{30}{32}{Extra slides}{Doc-Start}{}}
\@writefile{snm}{\beamer@slide {het_gender_tutor}{32}}
\@writefile{nav}{\headcommand {\slideentry {7}{0}{4}{32/32}{}{1}}}
\@writefile{nav}{\headcommand {\beamer@framepages {32}{32}}}
\newlabel{het_male<1>}{{31}{33}{Extra slides}{Doc-Start}{}}
\@writefile{snm}{\beamer@slide {het_male<1>}{33}}
\newlabel{het_male}{{31}{33}{Extra slides}{Doc-Start}{}}
\@writefile{snm}{\beamer@slide {het_male}{33}}
\@writefile{nav}{\headcommand {\slideentry {7}{0}{5}{33/33}{}{1}}}
\@writefile{nav}{\headcommand {\beamer@framepages {33}{33}}}
\newlabel{het_median<1>}{{32}{34}{Extra slides}{Doc-Start}{}}
\@writefile{snm}{\beamer@slide {het_median<1>}{34}}
\newlabel{het_median}{{32}{34}{Extra slides}{Doc-Start}{}}
\@writefile{snm}{\beamer@slide {het_median}{34}}
\@writefile{nav}{\headcommand {\slideentry {7}{0}{6}{34/34}{}{1}}}
\@writefile{nav}{\headcommand {\beamer@framepages {34}{34}}}
\newlabel{het_mean<1>}{{33}{35}{Extra slides}{Doc-Start}{}}
\@writefile{snm}{\beamer@slide {het_mean<1>}{35}}
\newlabel{het_mean}{{33}{35}{Extra slides}{Doc-Start}{}}
\@writefile{snm}{\beamer@slide {het_mean}{35}}
\@writefile{nav}{\headcommand {\slideentry {7}{0}{7}{35/35}{}{1}}}
\@writefile{nav}{\headcommand {\beamer@framepages {35}{35}}}
\newlabel{evol_math_pu<1>}{{34}{36}{Extra slides}{Doc-Start}{}}
\@writefile{snm}{\beamer@slide {evol_math_pu<1>}{36}}
\newlabel{evol_math_pu}{{34}{36}{Extra slides}{Doc-Start}{}}
\@writefile{snm}{\beamer@slide {evol_math_pu}{36}}
\newlabel{fig:effect_pu_read}{{3}{36}{Math\relax }{Doc-Start}{}}
\@writefile{snm}{\beamer@slide {fig:effect_pu_read}{36}}
\@writefile{nav}{\headcommand {\slideentry {7}{0}{8}{36/36}{}{1}}}
\@writefile{nav}{\headcommand {\beamer@framepages {36}{36}}}
\newlabel{evol_read_pu<1>}{{35}{37}{Extra slides}{Doc-Start}{}}
\@writefile{snm}{\beamer@slide {evol_read_pu<1>}{37}}
\newlabel{evol_read_pu}{{35}{37}{Extra slides}{Doc-Start}{}}
\@writefile{snm}{\beamer@slide {evol_read_pu}{37}}
\newlabel{fig:effect_pu_read}{{4}{37}{Read\relax }{Doc-Start}{}}
\@writefile{snm}{\beamer@slide {fig:effect_pu_read}{37}}
\@writefile{nav}{\headcommand {\slideentry {7}{0}{9}{37/37}{}{1}}}
\@writefile{nav}{\headcommand {\beamer@framepages {37}{37}}}
\newlabel{evol_kusoma_pu<1>}{{36}{38}{Extra slides}{Doc-Start}{}}
\@writefile{snm}{\beamer@slide {evol_kusoma_pu<1>}{38}}
\newlabel{evol_kusoma_pu}{{36}{38}{Extra slides}{Doc-Start}{}}
\@writefile{snm}{\beamer@slide {evol_kusoma_pu}{38}}
\newlabel{fig:effect_pu_read}{{5}{38}{Kusoma\relax }{Doc-Start}{}}
\@writefile{snm}{\beamer@slide {fig:effect_pu_read}{38}}
\@writefile{nav}{\headcommand {\slideentry {7}{0}{10}{38/38}{}{1}}}
\@writefile{nav}{\headcommand {\beamer@framepages {38}{38}}}
\newlabel{evol_math_c1<1>}{{37}{39}{Extra slides}{Doc-Start}{}}
\@writefile{snm}{\beamer@slide {evol_math_c1<1>}{39}}
\newlabel{evol_math_c1}{{37}{39}{Extra slides}{Doc-Start}{}}
\@writefile{snm}{\beamer@slide {evol_math_c1}{39}}
\newlabel{fig:effect_c1_math}{{6}{39}{Math\relax }{Doc-Start}{}}
\@writefile{snm}{\beamer@slide {fig:effect_c1_math}{39}}
\@writefile{nav}{\headcommand {\slideentry {7}{0}{11}{39/39}{}{1}}}
\@writefile{nav}{\headcommand {\beamer@framepages {39}{39}}}
\newlabel{evol_read_c1<1>}{{38}{40}{Extra slides}{Doc-Start}{}}
\@writefile{snm}{\beamer@slide {evol_read_c1<1>}{40}}
\newlabel{evol_read_c1}{{38}{40}{Extra slides}{Doc-Start}{}}
\@writefile{snm}{\beamer@slide {evol_read_c1}{40}}
\newlabel{fig:effect_c1_read}{{7}{40}{Read\relax }{Doc-Start}{}}
\@writefile{snm}{\beamer@slide {fig:effect_c1_read}{40}}
\@writefile{nav}{\headcommand {\slideentry {7}{0}{12}{40/40}{}{1}}}
\@writefile{nav}{\headcommand {\beamer@framepages {40}{40}}}
\newlabel{evol_kusoma_c1<1>}{{39}{41}{Extra slides}{Doc-Start}{}}
\@writefile{snm}{\beamer@slide {evol_kusoma_c1<1>}{41}}
\newlabel{evol_kusoma_c1}{{39}{41}{Extra slides}{Doc-Start}{}}
\@writefile{snm}{\beamer@slide {evol_kusoma_c1}{41}}
\newlabel{fig:effect_c1_kusoma}{{8}{41}{Kusoma\relax }{Doc-Start}{}}
\@writefile{snm}{\beamer@slide {fig:effect_c1_kusoma}{41}}
\@writefile{nav}{\headcommand {\slideentry {7}{0}{13}{41/41}{}{1}}}
\@writefile{nav}{\headcommand {\beamer@framepages {41}{41}}}
\newlabel{evol_math_c5c6<1>}{{40}{42}{Extra slides}{Doc-Start}{}}
\@writefile{snm}{\beamer@slide {evol_math_c5c6<1>}{42}}
\newlabel{evol_math_c5c6}{{40}{42}{Extra slides}{Doc-Start}{}}
\@writefile{snm}{\beamer@slide {evol_math_c5c6}{42}}
\newlabel{fig:effect_c5c6_math}{{9}{42}{Math\relax }{Doc-Start}{}}
\@writefile{snm}{\beamer@slide {fig:effect_c5c6_math}{42}}
\@writefile{nav}{\headcommand {\slideentry {7}{0}{14}{42/42}{}{1}}}
\@writefile{nav}{\headcommand {\beamer@framepages {42}{42}}}
\newlabel{evol_lang_c5c6<1>}{{41}{43}{Extra slides}{Doc-Start}{}}
\@writefile{snm}{\beamer@slide {evol_lang_c5c6<1>}{43}}
\newlabel{evol_lang_c5c6}{{41}{43}{Extra slides}{Doc-Start}{}}
\@writefile{snm}{\beamer@slide {evol_lang_c5c6}{43}}
\newlabel{fig:effect_c5c6_read}{{10}{43}{Read\relax }{Doc-Start}{}}
\@writefile{snm}{\beamer@slide {fig:effect_c5c6_read}{43}}
\@writefile{nav}{\headcommand {\slideentry {7}{0}{15}{43/43}{}{1}}}
\@writefile{nav}{\headcommand {\beamer@framepages {43}{43}}}
\newlabel{evol_swahili_c5c6<1>}{{42}{44}{Extra slides}{Doc-Start}{}}
\@writefile{snm}{\beamer@slide {evol_swahili_c5c6<1>}{44}}
\newlabel{evol_swahili_c5c6}{{42}{44}{Extra slides}{Doc-Start}{}}
\@writefile{snm}{\beamer@slide {evol_swahili_c5c6}{44}}
\newlabel{fig:effect_c5c6_kusoma}{{11}{44}{Kusoma\relax }{Doc-Start}{}}
\@writefile{snm}{\beamer@slide {fig:effect_c5c6_kusoma}{44}}
\@writefile{nav}{\headcommand {\slideentry {7}{0}{16}{44/44}{}{1}}}
\@writefile{nav}{\headcommand {\beamer@framepages {44}{44}}}
\newlabel{evol_sci_c5c6<1>}{{43}{45}{Extra slides}{Doc-Start}{}}
\@writefile{snm}{\beamer@slide {evol_sci_c5c6<1>}{45}}
\newlabel{evol_sci_c5c6}{{43}{45}{Extra slides}{Doc-Start}{}}
\@writefile{snm}{\beamer@slide {evol_sci_c5c6}{45}}
\newlabel{fig:evol_sci_c5c6}{{12}{45}{Science\relax }{Doc-Start}{}}
\@writefile{snm}{\beamer@slide {fig:evol_sci_c5c6}{45}}
\@writefile{nav}{\headcommand {\slideentry {7}{0}{17}{45/45}{}{1}}}
\@writefile{nav}{\headcommand {\beamer@framepages {45}{45}}}
\newlabel{evol_ss_c5c6<1>}{{44}{46}{Extra slides}{Doc-Start}{}}
\@writefile{snm}{\beamer@slide {evol_ss_c5c6<1>}{46}}
\newlabel{evol_ss_c5c6}{{44}{46}{Extra slides}{Doc-Start}{}}
\@writefile{snm}{\beamer@slide {evol_ss_c5c6}{46}}
\newlabel{fig:evol_sci_c5c6}{{13}{46}{Social Sciences\relax }{Doc-Start}{}}
\@writefile{snm}{\beamer@slide {fig:evol_sci_c5c6}{46}}
\@writefile{nav}{\headcommand {\slideentry {7}{0}{18}{46/46}{}{1}}}
\@writefile{nav}{\headcommand {\beamer@framepages {46}{46}}}
\newlabel{evol_re_c5c6<1>}{{45}{47}{Extra slides}{Doc-Start}{}}
\@writefile{snm}{\beamer@slide {evol_re_c5c6<1>}{47}}
\newlabel{evol_re_c5c6}{{45}{47}{Extra slides}{Doc-Start}{}}
\@writefile{snm}{\beamer@slide {evol_re_c5c6}{47}}
\newlabel{fig:evol_re_c5c6}{{14}{47}{Religion\relax }{Doc-Start}{}}
\@writefile{snm}{\beamer@slide {fig:evol_re_c5c6}{47}}
\@writefile{nav}{\headcommand {\slideentry {7}{0}{19}{47/47}{}{1}}}
\@writefile{nav}{\headcommand {\beamer@framepages {47}{47}}}
\newlabel{balance_school<1>}{{46}{48}{Extra slides}{Doc-Start}{}}
\@writefile{snm}{\beamer@slide {balance_school<1>}{48}}
\newlabel{balance_school}{{46}{48}{Extra slides}{Doc-Start}{}}
\@writefile{snm}{\beamer@slide {balance_school}{48}}
\@writefile{nav}{\headcommand {\slideentry {7}{0}{20}{48/48}{}{1}}}
\@writefile{nav}{\headcommand {\beamer@framepages {48}{48}}}
\newlabel{Balance_PU<1>}{{47}{49}{Extra slides}{Doc-Start}{}}
\@writefile{snm}{\beamer@slide {Balance_PU<1>}{49}}
\newlabel{Balance_PU}{{47}{49}{Extra slides}{Doc-Start}{}}
\@writefile{snm}{\beamer@slide {Balance_PU}{49}}
\@writefile{nav}{\headcommand {\slideentry {7}{0}{21}{49/49}{}{1}}}
\@writefile{nav}{\headcommand {\beamer@framepages {49}{49}}}
\newlabel{Balance_C1<1>}{{48}{50}{Extra slides}{Doc-Start}{}}
\@writefile{snm}{\beamer@slide {Balance_C1<1>}{50}}
\newlabel{Balance_C1}{{48}{50}{Extra slides}{Doc-Start}{}}
\@writefile{snm}{\beamer@slide {Balance_C1}{50}}
\@writefile{nav}{\headcommand {\slideentry {7}{0}{22}{50/50}{}{1}}}
\@writefile{nav}{\headcommand {\beamer@framepages {50}{50}}}
\newlabel{Balance_C2<1>}{{49}{51}{Extra slides}{Doc-Start}{}}
\@writefile{snm}{\beamer@slide {Balance_C2<1>}{51}}
\newlabel{Balance_C2}{{49}{51}{Extra slides}{Doc-Start}{}}
\@writefile{snm}{\beamer@slide {Balance_C2}{51}}
\@writefile{nav}{\headcommand {\slideentry {7}{0}{23}{51/51}{}{1}}}
\@writefile{nav}{\headcommand {\beamer@framepages {51}{51}}}
\newlabel{Balance_C3<1>}{{50}{52}{Extra slides}{Doc-Start}{}}
\@writefile{snm}{\beamer@slide {Balance_C3<1>}{52}}
\newlabel{Balance_C3}{{50}{52}{Extra slides}{Doc-Start}{}}
\@writefile{snm}{\beamer@slide {Balance_C3}{52}}
\@writefile{nav}{\headcommand {\slideentry {7}{0}{24}{52/52}{}{1}}}
\@writefile{nav}{\headcommand {\beamer@framepages {52}{52}}}
\newlabel{Balance_C4<1>}{{51}{53}{Extra slides}{Doc-Start}{}}
\@writefile{snm}{\beamer@slide {Balance_C4<1>}{53}}
\newlabel{Balance_C4}{{51}{53}{Extra slides}{Doc-Start}{}}
\@writefile{snm}{\beamer@slide {Balance_C4}{53}}
\@writefile{nav}{\headcommand {\slideentry {7}{0}{25}{53/53}{}{1}}}
\@writefile{nav}{\headcommand {\beamer@framepages {53}{53}}}
\newlabel{Balance_C5<1>}{{52}{54}{Extra slides}{Doc-Start}{}}
\@writefile{snm}{\beamer@slide {Balance_C5<1>}{54}}
\newlabel{Balance_C5}{{52}{54}{Extra slides}{Doc-Start}{}}
\@writefile{snm}{\beamer@slide {Balance_C5}{54}}
\@writefile{nav}{\headcommand {\slideentry {7}{0}{26}{54/54}{}{1}}}
\@writefile{nav}{\headcommand {\beamer@framepages {54}{54}}}
\newlabel{Balance_C6<1>}{{53}{55}{Extra slides}{Doc-Start}{}}
\@writefile{snm}{\beamer@slide {Balance_C6<1>}{55}}
\newlabel{Balance_C6}{{53}{55}{Extra slides}{Doc-Start}{}}
\@writefile{snm}{\beamer@slide {Balance_C6}{55}}
\@writefile{nav}{\headcommand {\slideentry {7}{0}{27}{55/55}{}{1}}}
\@writefile{nav}{\headcommand {\beamer@framepages {55}{55}}}
\newlabel{Balance_C7<1>}{{54}{56}{Extra slides}{Doc-Start}{}}
\@writefile{snm}{\beamer@slide {Balance_C7<1>}{56}}
\newlabel{Balance_C7}{{54}{56}{Extra slides}{Doc-Start}{}}
\@writefile{snm}{\beamer@slide {Balance_C7}{56}}
\@writefile{nav}{\headcommand {\slideentry {7}{0}{28}{56/56}{}{1}}}
\@writefile{nav}{\headcommand {\beamer@framepages {56}{56}}}
\newlabel{Balance_C8<1>}{{55}{57}{Extra slides}{Doc-Start}{}}
\@writefile{snm}{\beamer@slide {Balance_C8<1>}{57}}
\newlabel{Balance_C8}{{55}{57}{Extra slides}{Doc-Start}{}}
\@writefile{snm}{\beamer@slide {Balance_C8}{57}}
\@writefile{nav}{\headcommand {\slideentry {7}{0}{29}{57/57}{}{1}}}
\@writefile{nav}{\headcommand {\beamer@framepages {57}{57}}}
\@writefile{nav}{\headcommand {\beamer@partpages {29}{57}}}
\@writefile{nav}{\headcommand {\beamer@subsectionpages {29}{57}}}
\@writefile{nav}{\headcommand {\beamer@sectionpages {29}{57}}}
\@writefile{nav}{\headcommand {\beamer@documentpages {57}}}
\@writefile{nav}{\headcommand {\def \inserttotalframenumber {55}}}
\zref@newlabel{LastPage}{\default{7}\page{57}\abspage{57}}
