\relax 
\providecommand\hyper@newdestlabel[2]{}
\providecommand\HyperFirstAtBeginDocument{\AtBeginDocument}
\HyperFirstAtBeginDocument{\ifx\hyper@anchor\@undefined
\global\let\oldcontentsline\contentsline
\gdef\contentsline#1#2#3#4{\oldcontentsline{#1}{#2}{#3}}
\global\let\oldnewlabel\newlabel
\gdef\newlabel#1#2{\newlabelxx{#1}#2}
\gdef\newlabelxx#1#2#3#4#5#6{\oldnewlabel{#1}{{#2}{#3}}}
\AtEndDocument{\ifx\hyper@anchor\@undefined
\let\contentsline\oldcontentsline
\let\newlabel\oldnewlabel
\fi}
\fi}
\global\let\hyper@last\relax 
\gdef\HyperFirstAtBeginDocument#1{#1}
\providecommand\HyField@AuxAddToFields[1]{}
\providecommand\HyField@AuxAddToCoFields[2]{}
\citation{Economic2015}
\citation{WB2007}
\citation{Filmer2006}
\citation{Jones2014}
\citation{Hanushek2000}
\citation{Hanushek2007}
\citation{Banerjee2007}
\citation{Duflo2011}
\citation{Duflo2015}
\citation{Quintilianus1869}
\citation{Cohen1982}
\citation{Cohen1982}
\citation{Shenderovich2015}
\citation{Todd2003}
\citation{Glewwe2015}
\citation{Sacerdote2001}
\citation{Zimmerman2003}
\citation{Munley2010}
\citation{Shenderovich2015}
\select@language{english}
\@writefile{toc}{\select@language{english}}
\@writefile{lof}{\select@language{english}}
\@writefile{lot}{\select@language{english}}
\@writefile{toc}{\contentsline {section}{\numberline {1}Introduction}{1}{section.1}}
\bibstyle{apacite}
\bibdata{CrossAgeBib}
\bibcite{Banerjee2007}{\citeauthoryear {Banerjee, Cole, Duflo,{}\ \BBA{} Linden}{Banerjee\ \BOthers {.}}{{\APACyear {2007}}}}
\APACbibcite{Banerjee2007}{\citeauthoryear {Banerjee, Cole, Duflo,{}\ \BBA{} Linden}{Banerjee\ \BOthers {.}}{{\APACyear {2007}}}}
\@writefile{toc}{\contentsline {section}{\numberline {2}Experimental Design}{2}{section.2}}
\@writefile{toc}{\contentsline {subsection}{\numberline {2.1}Context}{2}{subsection.2.1}}
\@writefile{toc}{\contentsline {subsection}{\numberline {2.2}Sampling}{2}{subsection.2.2}}
\@writefile{toc}{\contentsline {subsection}{\numberline {2.3}Intervention}{2}{subsection.2.3}}
\@writefile{toc}{\contentsline {subsection}{\numberline {2.4}Data}{2}{subsection.2.4}}
\@writefile{toc}{\contentsline {subsection}{\numberline {2.5}Empirical strategy}{2}{subsection.2.5}}
\bibcite{Cohen1982}{\citeauthoryear {Cohen, Kulik,{}\ \BBA{} Kulik}{Cohen\ \BOthers {.}}{{\APACyear {1982}}}}
\APACbibcite{Cohen1982}{\citeauthoryear {Cohen, Kulik,{}\ \BBA{} Kulik}{Cohen\ \BOthers {.}}{{\APACyear {1982}}}}
\bibcite{Duflo2015}{\citeauthoryear {Duflo, Berry, Mukerji,{}\ \BBA{} Shotland}{Duflo\ \BOthers {.}}{{\APACyear {2015}}}}
\APACbibcite{Duflo2015}{\citeauthoryear {Duflo, Berry, Mukerji,{}\ \BBA{} Shotland}{Duflo\ \BOthers {.}}{{\APACyear {2015}}}}
\bibcite{Duflo2011}{\citeauthoryear {Duflo, Dupas,{}\ \BBA{} Kremer}{Duflo\ \BOthers {.}}{{\APACyear {2011}}}}
\APACbibcite{Duflo2011}{\citeauthoryear {Duflo, Dupas,{}\ \BBA{} Kremer}{Duflo\ \BOthers {.}}{{\APACyear {2011}}}}
\bibcite{Filmer2006}{\citeauthoryear {Filmer, Hasan,{}\ \BBA{} Pritchett}{Filmer\ \BOthers {.}}{{\APACyear {2006}}}}
\APACbibcite{Filmer2006}{\citeauthoryear {Filmer, Hasan,{}\ \BBA{} Pritchett}{Filmer\ \BOthers {.}}{{\APACyear {2006}}}}
\bibcite{Glewwe2015}{\citeauthoryear {Glewwe\ \BBA{} Muralidharan}{Glewwe\ \BBA{} Muralidharan}{{\APACyear {2015}}}}
\APACbibcite{Glewwe2015}{\citeauthoryear {Glewwe\ \BBA{} Muralidharan}{Glewwe\ \BBA{} Muralidharan}{{\APACyear {2015}}}}
\bibcite{WB2007}{\citeauthoryear {{\em  Global Monitoring Report\/}}{{\em  Global Monitoring Report\/}}{{\APACyear {2007}}}}
\APACbibcite{WB2007}{\citeauthoryear {{\em  Global Monitoring Report\/}}{{\em  Global Monitoring Report\/}}{{\APACyear {2007}}}}
\bibcite{Hanushek2000}{\citeauthoryear {Hanushek\ \BBA{} Kimko}{Hanushek\ \BBA{} Kimko}{{\APACyear {2000}}}}
\APACbibcite{Hanushek2000}{\citeauthoryear {Hanushek\ \BBA{} Kimko}{Hanushek\ \BBA{} Kimko}{{\APACyear {2000}}}}
\bibcite{Hanushek2007}{\citeauthoryear {Hanushek\ \BBA{} W{\"o}{\ss }mann}{Hanushek\ \BBA{} W{\"o}{\ss }mann}{{\APACyear {2007}}}}
\APACbibcite{Hanushek2007}{\citeauthoryear {Hanushek\ \BBA{} W{\"o}{\ss }mann}{Hanushek\ \BBA{} W{\"o}{\ss }mann}{{\APACyear {2007}}}}
\bibcite{Jones2014}{\citeauthoryear {Jones, Schipper, Ruto,{}\ \BBA{} Rajani}{Jones\ \BOthers {.}}{{\APACyear {2014}}}}
\APACbibcite{Jones2014}{\citeauthoryear {Jones, Schipper, Ruto,{}\ \BBA{} Rajani}{Jones\ \BOthers {.}}{{\APACyear {2014}}}}
\bibcite{Munley2010}{\citeauthoryear {Munley, Garvey,{}\ \BBA{} McConnell}{Munley\ \BOthers {.}}{{\APACyear {2010}}}}
\APACbibcite{Munley2010}{\citeauthoryear {Munley, Garvey,{}\ \BBA{} McConnell}{Munley\ \BOthers {.}}{{\APACyear {2010}}}}
\bibcite{Quintilianus1869}{\citeauthoryear {Quintilianus\ \BBA{} Halm}{Quintilianus\ \BBA{} Halm}{{\APACyear {1869}}}}
\APACbibcite{Quintilianus1869}{\citeauthoryear {Quintilianus\ \BBA{} Halm}{Quintilianus\ \BBA{} Halm}{{\APACyear {1869}}}}
\bibcite{Sacerdote2001}{\citeauthoryear {Sacerdote}{Sacerdote}{{\APACyear {2001}}}}
\APACbibcite{Sacerdote2001}{\citeauthoryear {Sacerdote}{Sacerdote}{{\APACyear {2001}}}}
\bibcite{Shenderovich2015}{\citeauthoryear {Shenderovich, Thurston,{}\ \BBA{} Miller}{Shenderovich\ \BOthers {.}}{{\APACyear {2015}}}}
\APACbibcite{Shenderovich2015}{\citeauthoryear {Shenderovich, Thurston,{}\ \BBA{} Miller}{Shenderovich\ \BOthers {.}}{{\APACyear {2015}}}}
\bibcite{Todd2003}{\citeauthoryear {Todd\ \BBA{} Wolpin}{Todd\ \BBA{} Wolpin}{{\APACyear {2003}}}}
\APACbibcite{Todd2003}{\citeauthoryear {Todd\ \BBA{} Wolpin}{Todd\ \BBA{} Wolpin}{{\APACyear {2003}}}}
\bibcite{Economic2015}{\citeauthoryear {{United Nations}}{{United Nations}}{{\APACyear {2015}}}}
\APACbibcite{Economic2015}{\citeauthoryear {{United Nations}}{{United Nations}}{{\APACyear {2015}}}}
\bibcite{Zimmerman2003}{\citeauthoryear {Zimmerman}{Zimmerman}{{\APACyear {2003}}}}
\APACbibcite{Zimmerman2003}{\citeauthoryear {Zimmerman}{Zimmerman}{{\APACyear {2003}}}}
\@writefile{toc}{\contentsline {section}{References}{3}{section*.1}}
