This is BibTeX, Version 0.99dThe top-level auxiliary file: Draft_WB_2Pager.aux
The style file: apacite.bst
Database file #1: CrossAgeBib.bib
apacite.bst [2013/07/21 v6.03 APA bibliography style]
Warning--No journal in Glewwe2015
(There was 1 warning)
