\relax 
\providecommand\hyper@newdestlabel[2]{}
\providecommand\HyperFirstAtBeginDocument{\AtBeginDocument}
\HyperFirstAtBeginDocument{\ifx\hyper@anchor\@undefined
\global\let\oldcontentsline\contentsline
\gdef\contentsline#1#2#3#4{\oldcontentsline{#1}{#2}{#3}}
\global\let\oldnewlabel\newlabel
\gdef\newlabel#1#2{\newlabelxx{#1}#2}
\gdef\newlabelxx#1#2#3#4#5#6{\oldnewlabel{#1}{{#2}{#3}}}
\AtEndDocument{\ifx\hyper@anchor\@undefined
\let\contentsline\oldcontentsline
\let\newlabel\oldnewlabel
\fi}
\fi}
\global\let\hyper@last\relax 
\gdef\HyperFirstAtBeginDocument#1{#1}
\providecommand\HyField@AuxAddToFields[1]{}
\providecommand\HyField@AuxAddToCoFields[2]{}
\babel@aux{english}{}
\citation{Economic2015}
\citation{WB2007}
\citation{Filmer2006}
\citation{Jones2014}
\citation{Hanushek2000}
\citation{Hanushek2007}
\citation{Glewwe2016}
\citation{Evans2016}
\citation{3ie2016impact}
\@writefile{toc}{\contentsline {section}{\numberline {1}Introduction}{1}{section.1}\protected@file@percent }
\citation{Todd2003}
\citation{Glewwe2016}
\citation{Evans2016}
\citation{3ie2016impact}
\citation{Sacerdote2001}
\citation{Zimmerman2003}
\citation{Munley2010}
\citation{Cohen1982}
\citation{Shenderovich2015}
\citation{Shenderovich2015}
\citation{Jones2014}
\citation{Bold2013}
\citation{Mbiti2016}
\@writefile{toc}{\contentsline {section}{\numberline {2}Experimental Design}{4}{section.2}\protected@file@percent }
\@writefile{toc}{\contentsline {subsection}{\numberline {2.1}Context}{4}{subsection.2.1}\protected@file@percent }
\@writefile{toc}{\contentsline {subsection}{\numberline {2.2}Intervention}{5}{subsection.2.2}\protected@file@percent }
\newlabel{sec:intervention}{{2.2}{5}{Intervention}{subsection.2.2}{}}
\@writefile{lot}{\contentsline {table}{\numberline {1}{\ignorespaces Tutors and Tutees\relax }}{5}{table.caption.1}\protected@file@percent }
\providecommand*\caption@xref[2]{\@setref\relax\@undefined{#1}}
\newlabel{tab:matching}{{1}{5}{Tutors and Tutees\relax }{table.caption.1}{}}
\@writefile{toc}{\contentsline {subsubsection}{\numberline {2.2.1}Math tutoring}{7}{subsubsection.2.2.1}\protected@file@percent }
\newlabel{sec:math_tutoring}{{2.2.1}{7}{Math tutoring}{subsubsection.2.2.1}{}}
\@writefile{lot}{\contentsline {table}{\numberline {2}{\ignorespaces Math tutoring intervention\relax }}{7}{table.caption.2}\protected@file@percent }
\newlabel{tab:math_tutoring}{{2}{7}{Math tutoring intervention\relax }{table.caption.2}{}}
\citation{Bruhn2009}
\@writefile{toc}{\contentsline {subsubsection}{\numberline {2.2.2}English tutoring}{8}{subsubsection.2.2.2}\protected@file@percent }
\newlabel{sec:English_tutoring}{{2.2.2}{8}{English tutoring}{subsubsection.2.2.2}{}}
\@writefile{lot}{\contentsline {table}{\numberline {3}{\ignorespaces English tutoring intervention\relax }}{8}{table.caption.3}\protected@file@percent }
\newlabel{tab:english_tutoring}{{3}{8}{English tutoring intervention\relax }{table.caption.3}{}}
\@writefile{toc}{\contentsline {subsection}{\numberline {2.3}Sampling}{8}{subsection.2.3}\protected@file@percent }
\@writefile{lof}{\contentsline {figure}{\numberline {1}{\ignorespaces Schools with math and English tutoring\relax }}{9}{figure.caption.4}\protected@file@percent }
\newlabel{fig:map}{{1}{9}{Schools with math and English tutoring\relax }{figure.caption.4}{}}
\@writefile{toc}{\contentsline {subsection}{\numberline {2.4}Data and summary statistics}{9}{subsection.2.4}\protected@file@percent }
\@writefile{lot}{\contentsline {table}{\numberline {4}{\ignorespaces Learning assessments\relax }}{10}{table.caption.5}\protected@file@percent }
\newlabel{tab:exams}{{4}{10}{Learning assessments\relax }{table.caption.5}{}}
\@writefile{lot}{\contentsline {table}{\numberline {5}{\ignorespaces School characteristics in English and math tutoring schools\relax }}{11}{table.caption.7}\protected@file@percent }
\newlabel{tab:balance_school}{{5}{11}{School characteristics in English and math tutoring schools\relax }{table.caption.7}{}}
\@writefile{lot}{\contentsline {table}{\numberline {6}{\ignorespaces Pupil's characteristics\relax }}{12}{table.caption.9}\protected@file@percent }
\newlabel{tab:balance_pupils}{{6}{12}{Pupil's characteristics\relax }{table.caption.9}{}}
\citation{Lee2009}
\@writefile{lot}{\contentsline {table}{\numberline {7}{\ignorespaces Non-missing data\relax }}{13}{table.caption.11}\protected@file@percent }
\newlabel{tab:Evolv_Tested}{{7}{13}{Non-missing data\relax }{table.caption.11}{}}
\@writefile{lot}{\contentsline {table}{\numberline {8}{\ignorespaces Differential missing data rate between treatment and control students\relax }}{14}{table.caption.13}\protected@file@percent }
\newlabel{tab:blance_Tested_withoutT2ET16}{{8}{14}{Differential missing data rate between treatment and control students\relax }{table.caption.13}{}}
\@writefile{toc}{\contentsline {section}{\numberline {3}Results}{14}{section.3}\protected@file@percent }
\newlabel{sec:results}{{3}{14}{Results}{section.3}{}}
\@writefile{toc}{\contentsline {subsection}{\numberline {3.1}Treatment effects}{14}{subsection.3.1}\protected@file@percent }
\@writefile{toc}{\contentsline {subsubsection}{\numberline {3.1.1}Tutees}{15}{subsubsection.3.1.1}\protected@file@percent }
\@writefile{lot}{\contentsline {table}{\numberline {9}{\ignorespaces Effect on tutees' test scores\relax }}{15}{table.caption.15}\protected@file@percent }
\newlabel{tab:main_withoutT2EtT}{{9}{15}{Effect on tutees' test scores\relax }{table.caption.15}{}}
\@writefile{toc}{\contentsline {subsubsection}{\numberline {3.1.2}Tutors}{15}{subsubsection.3.1.2}\protected@file@percent }
\@writefile{toc}{\contentsline {subsection}{\numberline {3.2}Heterogeneity}{16}{subsection.3.2}\protected@file@percent }
\newlabel{sec:het}{{3.2}{16}{Heterogeneity}{subsection.3.2}{}}
\@writefile{toc}{\contentsline {subsubsection}{\numberline {3.2.1}Periods}{16}{subsubsection.3.2.1}\protected@file@percent }
\@writefile{lof}{\contentsline {figure}{\numberline {2}{\ignorespaces Evolution of the treatment effect of math tutoring, relative to English tutoring\relax }}{17}{figure.caption.16}\protected@file@percent }
\newlabel{fig:treat_time}{{2}{17}{Evolution of the treatment effect of math tutoring, relative to English tutoring\relax }{figure.caption.16}{}}
\newlabel{fig:Evol_math_Pupils_control}{{2a}{17}{Math\relax }{figure.caption.16}{}}
\newlabel{sub@fig:Evol_math_Pupils_control}{{a}{17}{Math\relax }{figure.caption.16}{}}
\newlabel{fig:Evol_English_Pupils_control}{{2b}{17}{English\relax }{figure.caption.16}{}}
\newlabel{sub@fig:Evol_English_Pupils_control}{{b}{17}{English\relax }{figure.caption.16}{}}
\@writefile{toc}{\contentsline {subsubsection}{\numberline {3.2.2}Grade}{17}{subsubsection.3.2.2}\protected@file@percent }
\@writefile{lof}{\contentsline {figure}{\numberline {3}{\ignorespaces Treatment effect of math tutoring, relative to English tutoring, by grade\relax }}{18}{figure.caption.17}\protected@file@percent }
\newlabel{fig:treat_grade_pupils_withoutT2ET}{{3}{18}{Treatment effect of math tutoring, relative to English tutoring, by grade\relax }{figure.caption.17}{}}
\newlabel{fig:Grade_math_Pupils_control_withoutT2ET}{{3a}{18}{Math\relax }{figure.caption.17}{}}
\newlabel{sub@fig:Grade_math_Pupils_control_withoutT2ET}{{a}{18}{Math\relax }{figure.caption.17}{}}
\newlabel{fig:Grade_English_Pupils_control_withoutT2ET}{{3b}{18}{English\relax }{figure.caption.17}{}}
\newlabel{sub@fig:Grade_English_Pupils_control_withoutT2ET}{{b}{18}{English\relax }{figure.caption.17}{}}
\@writefile{toc}{\contentsline {subsubsection}{\numberline {3.2.3}Baseline test scores}{18}{subsubsection.3.2.3}\protected@file@percent }
\@writefile{lof}{\contentsline {figure}{\numberline {4}{\ignorespaces Treatment effect of math tutoring, relative to English tutoring\relax }}{19}{figure.caption.18}\protected@file@percent }
\newlabel{fig:treat_baseline_math_withoutT2E}{{4}{19}{Treatment effect of math tutoring, relative to English tutoring\relax }{figure.caption.18}{}}
\@writefile{toc}{\contentsline {subsubsection}{\numberline {3.2.4}Tutee, tutor and school characteristics}{19}{subsubsection.3.2.4}\protected@file@percent }
\@writefile{lot}{\contentsline {table}{\numberline {10}{\ignorespaces Heterogeneity: Math test scores\relax }}{21}{table.caption.20}\protected@file@percent }
\newlabel{tab:het_withoutT2ET}{{10}{21}{Heterogeneity: Math test scores\relax }{table.caption.20}{}}
\citation{duflo2015a}
\citation{muralidharan2013}
\citation{Kremer2013}
\bibstyle{apacite}
\bibdata{CrossAgeBib}
\@writefile{toc}{\contentsline {section}{\numberline {4}Conclusions}{22}{section.4}\protected@file@percent }
\newlabel{sec:conc}{{4}{22}{Conclusions}{section.4}{}}
\bibcite{Bold2013}{\citeauthoryear {Bold, Kimenyi,{}\ \BBA{} Sandefur}{Bold\ \BOthers {.}}{{\APACyear {2013}}}}
\APACbibcite{Bold2013}{\citeauthoryear {Bold, Kimenyi,{}\ \BBA{} Sandefur}{Bold\ \BOthers {.}}{{\APACyear {2013}}}}
\bibcite{Bruhn2009}{\citeauthoryear {Bruhn\ \BBA{} McKenzie}{Bruhn\ \BBA{} McKenzie}{{\APACyear {2009}}}}
\APACbibcite{Bruhn2009}{\citeauthoryear {Bruhn\ \BBA{} McKenzie}{Bruhn\ \BBA{} McKenzie}{{\APACyear {2009}}}}
\bibcite{Cohen1982}{\citeauthoryear {Cohen, Kulik,{}\ \BBA{} Kulik}{Cohen\ \BOthers {.}}{{\APACyear {1982}}}}
\APACbibcite{Cohen1982}{\citeauthoryear {Cohen, Kulik,{}\ \BBA{} Kulik}{Cohen\ \BOthers {.}}{{\APACyear {1982}}}}
\bibcite{duflo2015a}{\citeauthoryear {Duflo, Dupas,{}\ \BBA{} Kremer}{Duflo\ \BOthers {.}}{{\APACyear {2015}}}}
\APACbibcite{duflo2015a}{\citeauthoryear {Duflo, Dupas,{}\ \BBA{} Kremer}{Duflo\ \BOthers {.}}{{\APACyear {2015}}}}
\bibcite{Evans2016}{\citeauthoryear {Evans\ \BBA{} Popova}{Evans\ \BBA{} Popova}{{\APACyear {2016}}}}
\APACbibcite{Evans2016}{\citeauthoryear {Evans\ \BBA{} Popova}{Evans\ \BBA{} Popova}{{\APACyear {2016}}}}
\bibcite{Filmer2006}{\citeauthoryear {Filmer, Hasan,{}\ \BBA{} Pritchett}{Filmer\ \BOthers {.}}{{\APACyear {2006}}}}
\APACbibcite{Filmer2006}{\citeauthoryear {Filmer, Hasan,{}\ \BBA{} Pritchett}{Filmer\ \BOthers {.}}{{\APACyear {2006}}}}
\bibcite{Glewwe2016}{\citeauthoryear {Glewwe\ \BBA{} Muralidharan}{Glewwe\ \BBA{} Muralidharan}{{\APACyear {2016}}}}
\APACbibcite{Glewwe2016}{\citeauthoryear {Glewwe\ \BBA{} Muralidharan}{Glewwe\ \BBA{} Muralidharan}{{\APACyear {2016}}}}
\bibcite{WB2007}{\citeauthoryear {{\em  Global Monitoring Report\/}}{{\em  Global Monitoring Report\/}}{{\APACyear {2007}}}}
\APACbibcite{WB2007}{\citeauthoryear {{\em  Global Monitoring Report\/}}{{\em  Global Monitoring Report\/}}{{\APACyear {2007}}}}
\bibcite{Hanushek2000}{\citeauthoryear {Hanushek\ \BBA{} Kimko}{Hanushek\ \BBA{} Kimko}{{\APACyear {2000}}}}
\APACbibcite{Hanushek2000}{\citeauthoryear {Hanushek\ \BBA{} Kimko}{Hanushek\ \BBA{} Kimko}{{\APACyear {2000}}}}
\bibcite{Hanushek2007}{\citeauthoryear {Hanushek\ \BBA{} W{\"o}{\ss }mann}{Hanushek\ \BBA{} W{\"o}{\ss }mann}{{\APACyear {2007}}}}
\APACbibcite{Hanushek2007}{\citeauthoryear {Hanushek\ \BBA{} W{\"o}{\ss }mann}{Hanushek\ \BBA{} W{\"o}{\ss }mann}{{\APACyear {2007}}}}
\@writefile{toc}{\contentsline {section}{References}{23}{section*.21}\protected@file@percent }
\bibcite{Jones2014}{\citeauthoryear {Jones, Schipper, Ruto,{}\ \BBA{} Rajani}{Jones\ \BOthers {.}}{{\APACyear {2014}}}}
\APACbibcite{Jones2014}{\citeauthoryear {Jones, Schipper, Ruto,{}\ \BBA{} Rajani}{Jones\ \BOthers {.}}{{\APACyear {2014}}}}
\bibcite{Kremer2013}{\citeauthoryear {Kremer, Brannen,{}\ \BBA{} Glennerster}{Kremer\ \BOthers {.}}{{\APACyear {2013}}}}
\APACbibcite{Kremer2013}{\citeauthoryear {Kremer, Brannen,{}\ \BBA{} Glennerster}{Kremer\ \BOthers {.}}{{\APACyear {2013}}}}
\bibcite{Lee2009}{\citeauthoryear {Lee}{Lee}{{\APACyear {2009}}}}
\APACbibcite{Lee2009}{\citeauthoryear {Lee}{Lee}{{\APACyear {2009}}}}
\bibcite{Mbiti2016}{\citeauthoryear {Mbiti}{Mbiti}{{\APACyear {2016}}}}
\APACbibcite{Mbiti2016}{\citeauthoryear {Mbiti}{Mbiti}{{\APACyear {2016}}}}
\bibcite{Munley2010}{\citeauthoryear {Munley, Garvey,{}\ \BBA{} McConnell}{Munley\ \BOthers {.}}{{\APACyear {2010}}}}
\APACbibcite{Munley2010}{\citeauthoryear {Munley, Garvey,{}\ \BBA{} McConnell}{Munley\ \BOthers {.}}{{\APACyear {2010}}}}
\bibcite{muralidharan2013}{\citeauthoryear {Muralidharan\ \BBA{} Sundararaman}{Muralidharan\ \BBA{} Sundararaman}{{\APACyear {2013}}}}
\APACbibcite{muralidharan2013}{\citeauthoryear {Muralidharan\ \BBA{} Sundararaman}{Muralidharan\ \BBA{} Sundararaman}{{\APACyear {2013}}}}
\bibcite{Sacerdote2001}{\citeauthoryear {Sacerdote}{Sacerdote}{{\APACyear {2001}}}}
\APACbibcite{Sacerdote2001}{\citeauthoryear {Sacerdote}{Sacerdote}{{\APACyear {2001}}}}
\bibcite{Shenderovich2015}{\citeauthoryear {Shenderovich, Thurston,{}\ \BBA{} Miller}{Shenderovich\ \BOthers {.}}{{\APACyear {2015}}}}
\APACbibcite{Shenderovich2015}{\citeauthoryear {Shenderovich, Thurston,{}\ \BBA{} Miller}{Shenderovich\ \BOthers {.}}{{\APACyear {2015}}}}
\bibcite{3ie2016impact}{\citeauthoryear {Snilstveit\ \BOthers {.}}{Snilstveit\ \BOthers {.}}{{\APACyear {2016}}}}
\APACbibcite{3ie2016impact}{\citeauthoryear {Snilstveit\ \BOthers {.}}{Snilstveit\ \BOthers {.}}{{\APACyear {2016}}}}
\bibcite{Todd2003}{\citeauthoryear {Todd\ \BBA{} Wolpin}{Todd\ \BBA{} Wolpin}{{\APACyear {2003}}}}
\APACbibcite{Todd2003}{\citeauthoryear {Todd\ \BBA{} Wolpin}{Todd\ \BBA{} Wolpin}{{\APACyear {2003}}}}
\bibcite{Economic2015}{\citeauthoryear {{United Nations}}{{United Nations}}{{\APACyear {2015}}}}
\APACbibcite{Economic2015}{\citeauthoryear {{United Nations}}{{United Nations}}{{\APACyear {2015}}}}
\bibcite{Zimmerman2003}{\citeauthoryear {Zimmerman}{Zimmerman}{{\APACyear {2003}}}}
\APACbibcite{Zimmerman2003}{\citeauthoryear {Zimmerman}{Zimmerman}{{\APACyear {2003}}}}
\@writefile{toc}{\contentsline {section}{\numberline {A}Online Appendix}{A.1}{appendix.A}\protected@file@percent }
\newlabel{sec:online_appendix}{{A}{A.1}{Online Appendix}{appendix.A}{}}
\@writefile{toc}{\contentsline {subsection}{\numberline {A.1}Additional tables and figures}{A.1}{subsection.A.1}\protected@file@percent }
\newlabel{sec:extra_tables}{{A.1}{A.1}{Additional tables and figures}{subsection.A.1}{}}
\@writefile{lot}{\contentsline {table}{\numberline {A.1}{\ignorespaces Pupil and tutor test scores during T1DG16\relax }}{A.1}{table.caption.23}\protected@file@percent }
\newlabel{tab:balance_pupils_T1DG16}{{A.1}{A.1}{Pupil and tutor test scores during T1DG16\relax }{table.caption.23}{}}
\@writefile{lot}{\contentsline {table}{\numberline {A.2}{\ignorespaces Heterogeneity: English test scores\relax }}{A.2}{table.caption.25}\protected@file@percent }
\newlabel{tab:het_eng_withoutT2ET}{{A.2}{A.2}{Heterogeneity: English test scores\relax }{table.caption.25}{}}
\@writefile{lof}{\contentsline {figure}{\numberline {A.1}{\ignorespaces Age distribution across grades\relax }}{A.3}{figure.caption.26}\protected@file@percent }
\newlabel{fig:age}{{A.1}{A.3}{Age distribution across grades\relax }{figure.caption.26}{}}
\@writefile{lof}{\contentsline {figure}{\numberline {A.2}{\ignorespaces Difference in testing rates across English and math tutoring in each period \relax }}{A.4}{figure.caption.27}\protected@file@percent }
\newlabel{fig:testing_rates}{{A.2}{A.4}{Difference in testing rates across English and math tutoring in each period \relax }{figure.caption.27}{}}
\@writefile{lof}{\contentsline {figure}{\numberline {A.3}{\ignorespaces Treatment effect of math tutoring on tutors, relative to English tutoring, on math test scores by ability decile in T3ET15\relax }}{A.5}{figure.caption.28}\protected@file@percent }
\newlabel{fig:HeteroBaseline_tutors_terc_math_T3ET15_withoutT2ET}{{A.3}{A.5}{Treatment effect of math tutoring on tutors, relative to English tutoring, on math test scores by ability decile in T3ET15\relax }{figure.caption.28}{}}
\@writefile{toc}{\contentsline {subsection}{\numberline {A.2}With T2ET16}{A.5}{subsection.A.2}\protected@file@percent }
\newlabel{sec:T2ET16}{{A.2}{A.5}{With T2ET16}{subsection.A.2}{}}
\@writefile{lot}{\contentsline {table}{\numberline {A.3}{\ignorespaces Differential missing data rate between treatment and control students\relax }}{A.6}{table.caption.30}\protected@file@percent }
\newlabel{tab:blance_Tested}{{A.3}{A.6}{Differential missing data rate between treatment and control students\relax }{table.caption.30}{}}
\@writefile{lot}{\contentsline {table}{\numberline {A.4}{\ignorespaces Effect on tutees' test scores\relax }}{A.6}{table.caption.32}\protected@file@percent }
\newlabel{tab:main_tutees}{{A.4}{A.6}{Effect on tutees' test scores\relax }{table.caption.32}{}}
\@writefile{lot}{\contentsline {table}{\numberline {A.5}{\ignorespaces Effect on tutors' test scores\relax }}{A.7}{table.caption.34}\protected@file@percent }
\newlabel{tab:tutors_controls}{{A.5}{A.7}{Effect on tutors' test scores\relax }{table.caption.34}{}}
\@writefile{lof}{\contentsline {figure}{\numberline {A.4}{\ignorespaces Treatment effect of math tutoring, relative to English tutoring, by grade\relax }}{A.7}{figure.caption.35}\protected@file@percent }
\newlabel{fig:treat_grade_pupils}{{A.4}{A.7}{Treatment effect of math tutoring, relative to English tutoring, by grade\relax }{figure.caption.35}{}}
\newlabel{fig:Grade_math_Pupils_control}{{A.4a}{A.7}{Math\relax }{figure.caption.35}{}}
\newlabel{sub@fig:Grade_math_Pupils_control}{{a}{A.7}{Math\relax }{figure.caption.35}{}}
\newlabel{fig:Grade_English_Pupils_control}{{A.4b}{A.7}{English\relax }{figure.caption.35}{}}
\newlabel{sub@fig:Grade_English_Pupils_control}{{b}{A.7}{English\relax }{figure.caption.35}{}}
\@writefile{lot}{\contentsline {table}{\numberline {A.6}{\ignorespaces Heterogeneity\relax }}{A.8}{table.caption.37}\protected@file@percent }
\newlabel{tab:het}{{A.6}{A.8}{Heterogeneity\relax }{table.caption.37}{}}
