\relax 
\providecommand\hyper@newdestlabel[2]{}
\providecommand\HyperFirstAtBeginDocument{\AtBeginDocument}
\HyperFirstAtBeginDocument{\ifx\hyper@anchor\@undefined
\global\let\oldcontentsline\contentsline
\gdef\contentsline#1#2#3#4{\oldcontentsline{#1}{#2}{#3}}
\global\let\oldnewlabel\newlabel
\gdef\newlabel#1#2{\newlabelxx{#1}#2}
\gdef\newlabelxx#1#2#3#4#5#6{\oldnewlabel{#1}{{#2}{#3}}}
\AtEndDocument{\ifx\hyper@anchor\@undefined
\let\contentsline\oldcontentsline
\let\newlabel\oldnewlabel
\fi}
\fi}
\global\let\hyper@last\relax 
\gdef\HyperFirstAtBeginDocument#1{#1}
\providecommand\HyField@AuxAddToFields[1]{}
\providecommand\HyField@AuxAddToCoFields[2]{}
\citation{Banerjee2007}
\citation{Duflo2011}
\citation{Duflo2012}
\citation{Duflo2015}
\citation{Economic2015}
\citation{WB2007}
\citation{Jones2014}
\citation{Hanushek2000}
\citation{Hanushek2007}
\select@language{english}
\@writefile{toc}{\select@language{english}}
\@writefile{lof}{\select@language{english}}
\@writefile{lot}{\select@language{english}}
\@writefile{toc}{\contentsline {section}{\numberline {1}Introduction}{1}{section.1}}
\citation{Quintilianus1869}
\citation{Cohen1982}
\citation{Shenderovich2015}
\citation{Shenderovich2015}
\citation{Cabezas2011}
\citation{Karthik}
\@writefile{toc}{\contentsline {section}{\numberline {2}Experimental Design}{3}{section.2}}
\@writefile{toc}{\contentsline {subsection}{\numberline {2.1}Context}{3}{subsection.2.1}}
\@writefile{toc}{\contentsline {subsection}{\numberline {2.2}Sampling}{3}{subsection.2.2}}
\@writefile{lot}{\contentsline {table}{\numberline {1}{\ignorespaces Treatment Assignment}}{4}{table.1}}
\newlabel{tab:TreatmentAssignment}{{1}{4}{Treatment Assignment}{table.1}{}}
\@writefile{lof}{\contentsline {figure}{\numberline {1}{\ignorespaces Treatment and control schools across Kenya}}{4}{figure.1}}
\newlabel{fig:TreatmentAssignment}{{1}{4}{Treatment and control schools across Kenya}{figure.1}{}}
\@writefile{toc}{\contentsline {subsection}{\numberline {2.3}Intervention}{4}{subsection.2.3}}
\@writefile{toc}{\contentsline {subsection}{\numberline {2.4}Data and summary statistics}{4}{subsection.2.4}}
\@writefile{lot}{\contentsline {table}{\numberline {2}{\ignorespaces Learning assessments}}{5}{table.2}}
\newlabel{tab:exams}{{2}{5}{Learning assessments}{table.2}{}}
\@writefile{lot}{\contentsline {table}{\numberline {3}{\ignorespaces Balance in school characteristics}}{6}{table.3}}
\newlabel{tab:balance_school}{{3}{6}{Balance in school characteristics}{table.3}{}}
\@writefile{lot}{\contentsline {table}{\numberline {4}{\ignorespaces Balance in tutor characteristics: Standard 5 and Standard 6}}{7}{table.4}}
\newlabel{tab:balance_c5c6}{{4}{7}{Balance in tutor characteristics: Standard 5 and Standard 6}{table.4}{}}
\@writefile{lot}{\contentsline {table}{\numberline {5}{\ignorespaces Balance in tutee characteristics: Pre-Unit}}{8}{table.5}}
\newlabel{tab:balance_pu}{{5}{8}{Balance in tutee characteristics: Pre-Unit}{table.5}{}}
\@writefile{lot}{\contentsline {table}{\numberline {6}{\ignorespaces Balance in tutee characteristics: Standard 1}}{9}{table.6}}
\newlabel{tab:balance_c1}{{6}{9}{Balance in tutee characteristics: Standard 1}{table.6}{}}
\@writefile{toc}{\contentsline {section}{\numberline {3}Results}{9}{section.3}}
\newlabel{sec:results}{{3}{9}{Results}{section.3}{}}
\@writefile{toc}{\contentsline {subsection}{\numberline {3.1}Raw data}{9}{subsection.3.1}}
\@writefile{lof}{\contentsline {figure}{\numberline {2}{\ignorespaces Distribution of baseline test scores for Pre-Unit. Both figures show the cummulative distribution (CDF) of test scores. The left figure shows the CDF for baseline testscores (T3ET14). The right figure shows the CDF for T3MT15 test scores.}}{10}{figure.2}}
\newlabel{fig:treat_PU}{{2}{10}{Distribution of baseline test scores for Pre-Unit. Both figures show the cummulative distribution (CDF) of test scores. The left figure shows the CDF for baseline testscores (T3ET14). The right figure shows the CDF for T3MT15 test scores}{figure.2}{}}
\@writefile{lof}{\contentsline {figure}{\numberline {3}{\ignorespaces Distribution of baseline test scores for Standard 1. Both figures show the cummulative distribution (CDF) of test scores. The left figure shows the CDF for baseline testscores (T3ET14). The right figure shows the CDF for endline T3MT15 test score.}}{11}{figure.3}}
\newlabel{fig:treat_c1}{{3}{11}{Distribution of baseline test scores for Standard 1. Both figures show the cummulative distribution (CDF) of test scores. The left figure shows the CDF for baseline testscores (T3ET14). The right figure shows the CDF for endline T3MT15 test score}{figure.3}{}}
\@writefile{lof}{\contentsline {figure}{\numberline {4}{\ignorespaces Distribution of baseline test scores for Standard 5. Both figures show the cummulative distribution (CDF) of test scores. The left figure shows the CDF for baseline testscores (T3ET14). The right figure shows the CDF for T3MT15 test scores.}}{11}{figure.4}}
\newlabel{fig:treat_c5}{{4}{11}{Distribution of baseline test scores for Standard 5. Both figures show the cummulative distribution (CDF) of test scores. The left figure shows the CDF for baseline testscores (T3ET14). The right figure shows the CDF for T3MT15 test scores}{figure.4}{}}
\@writefile{lof}{\contentsline {figure}{\numberline {5}{\ignorespaces Distribution of baseline test scores for Standard 6. Both figures show the cummulative distribution (CDF) of test scores. The left figure shows the CDF for baseline testscores (T3ET14). The right figure shows the CDF for endline T3MT15 test score.}}{12}{figure.5}}
\newlabel{fig:treat_c6}{{5}{12}{Distribution of baseline test scores for Standard 6. Both figures show the cummulative distribution (CDF) of test scores. The left figure shows the CDF for baseline testscores (T3ET14). The right figure shows the CDF for endline T3MT15 test score}{figure.5}{}}
\@writefile{toc}{\contentsline {subsection}{\numberline {3.2}Treatment effects}{12}{subsection.3.2}}
\@writefile{toc}{\contentsline {subsubsection}{\numberline {3.2.1}Tutees}{12}{subsubsection.3.2.1}}
\@writefile{lot}{\contentsline {table}{\numberline {7}{\ignorespaces Effect on tutees' test scores}}{14}{table.7}}
\newlabel{tab:main_tutees}{{7}{14}{Effect on tutees' test scores}{table.7}{}}
\@writefile{toc}{\contentsline {subsubsection}{\numberline {3.2.2}Tutors}{15}{subsubsection.3.2.2}}
\@writefile{lot}{\contentsline {table}{\numberline {8}{\ignorespaces Effect on tutees' test scores}}{15}{table.8}}
\newlabel{tab:tutors_controls}{{8}{15}{Effect on tutees' test scores}{table.8}{}}
\@writefile{toc}{\contentsline {subsection}{\numberline {3.3}Heterogeneity}{15}{subsection.3.3}}
\newlabel{sec:het}{{3.3}{15}{Heterogeneity}{subsection.3.3}{}}
\@writefile{toc}{\contentsline {subsubsection}{\numberline {3.3.1}Periods}{15}{subsubsection.3.3.1}}
\@writefile{lof}{\contentsline {figure}{\numberline {6}{\ignorespaces Distribution of baseline test scores for Standard 6. Both figures show the cummulative distribution (CDF) of test scores. The left figure shows the CDF for baseline testscores (T3ET14). The right figure shows the CDF for endline T3MT15 test score.}}{16}{figure.6}}
\newlabel{fig:treat_time}{{6}{16}{Distribution of baseline test scores for Standard 6. Both figures show the cummulative distribution (CDF) of test scores. The left figure shows the CDF for baseline testscores (T3ET14). The right figure shows the CDF for endline T3MT15 test score}{figure.6}{}}
\@writefile{toc}{\contentsline {subsubsection}{\numberline {3.3.2}Tutee characteristics}{16}{subsubsection.3.3.2}}
\@writefile{lot}{\contentsline {table}{\numberline {9}{\ignorespaces Heterogeneity by tutees' characteristics}}{18}{table.9}}
\newlabel{tab:het_tutees}{{9}{18}{Heterogeneity by tutees' characteristics}{table.9}{}}
\@writefile{toc}{\contentsline {subsubsection}{\numberline {3.3.3}Tutor characteristics}{19}{subsubsection.3.3.3}}
\@writefile{lot}{\contentsline {table}{\numberline {10}{\ignorespaces Heterogeneity by tutors' characteristics}}{20}{table.10}}
\newlabel{tab:het_tutors}{{10}{20}{Heterogeneity by tutors' characteristics}{table.10}{}}
\bibstyle{apacite}
\bibdata{CrossAgeBib}
\bibcite{Banerjee2007}{\citeauthoryear {Banerjee, Cole, Duflo,{}\ \BBA{} Linden}{Banerjee\ \BOthers {.}}{{\APACyear {2007}}}}
\APACbibcite{Banerjee2007}{\citeauthoryear {Banerjee, Cole, Duflo,{}\ \BBA{} Linden}{Banerjee\ \BOthers {.}}{{\APACyear {2007}}}}
\bibcite{Cabezas2011}{\citeauthoryear {Cabezas, Cuesta,{}\ \BBA{} Gallego}{Cabezas\ \BOthers {.}}{{\APACyear {2011}}}}
\APACbibcite{Cabezas2011}{\citeauthoryear {Cabezas, Cuesta,{}\ \BBA{} Gallego}{Cabezas\ \BOthers {.}}{{\APACyear {2011}}}}
\bibcite{Cohen1982}{\citeauthoryear {Cohen, Kulik,{}\ \BBA{} Kulik}{Cohen\ \BOthers {.}}{{\APACyear {1982}}}}
\APACbibcite{Cohen1982}{\citeauthoryear {Cohen, Kulik,{}\ \BBA{} Kulik}{Cohen\ \BOthers {.}}{{\APACyear {1982}}}}
\bibcite{Duflo2012}{\citeauthoryear {A.~Duflo\ \BBA{} Kiessel}{A.~Duflo\ \BBA{} Kiessel}{{\APACyear {2012}}}}
\APACbibcite{Duflo2012}{\citeauthoryear {A.~Duflo\ \BBA{} Kiessel}{A.~Duflo\ \BBA{} Kiessel}{{\APACyear {2012}}}}
\bibcite{Duflo2015}{\citeauthoryear {E.~Duflo, Berry, Mukerji,{}\ \BBA{} Shotland}{E.~Duflo\ \BOthers {.}}{{\APACyear {2015}}}}
\APACbibcite{Duflo2015}{\citeauthoryear {E.~Duflo, Berry, Mukerji,{}\ \BBA{} Shotland}{E.~Duflo\ \BOthers {.}}{{\APACyear {2015}}}}
\bibcite{Duflo2011}{\citeauthoryear {E.~Duflo, Dupas,{}\ \BBA{} Kremer}{E.~Duflo\ \BOthers {.}}{{\APACyear {2011}}}}
\APACbibcite{Duflo2011}{\citeauthoryear {E.~Duflo, Dupas,{}\ \BBA{} Kremer}{E.~Duflo\ \BOthers {.}}{{\APACyear {2011}}}}
\bibcite{WB2007}{\citeauthoryear {{\em  Global Monitoring Report 2007\/}}{{\em  Global Monitoring Report 2007\/}}{{\APACyear {2007}}}}
\APACbibcite{WB2007}{\citeauthoryear {{\em  Global Monitoring Report 2007\/}}{{\em  Global Monitoring Report 2007\/}}{{\APACyear {2007}}}}
\bibcite{Hanushek2000}{\citeauthoryear {Hanushek\ \BBA{} Kimko}{Hanushek\ \BBA{} Kimko}{{\APACyear {2000}}}}
\APACbibcite{Hanushek2000}{\citeauthoryear {Hanushek\ \BBA{} Kimko}{Hanushek\ \BBA{} Kimko}{{\APACyear {2000}}}}
\bibcite{Hanushek2007}{\citeauthoryear {Hanushek\ \BBA{} W{\"o}{\ss }mann}{Hanushek\ \BBA{} W{\"o}{\ss }mann}{{\APACyear {2007}}}}
\APACbibcite{Hanushek2007}{\citeauthoryear {Hanushek\ \BBA{} W{\"o}{\ss }mann}{Hanushek\ \BBA{} W{\"o}{\ss }mann}{{\APACyear {2007}}}}
\bibcite{Jones2014}{\citeauthoryear {Jones, Schipper, Ruto,{}\ \BBA{} Rajani}{Jones\ \BOthers {.}}{{\APACyear {2014}}}}
\APACbibcite{Jones2014}{\citeauthoryear {Jones, Schipper, Ruto,{}\ \BBA{} Rajani}{Jones\ \BOthers {.}}{{\APACyear {2014}}}}
\bibcite{Quintilianus1869}{\citeauthoryear {Quintilianus\ \BBA{} Halm}{Quintilianus\ \BBA{} Halm}{{\APACyear {1869}}}}
\APACbibcite{Quintilianus1869}{\citeauthoryear {Quintilianus\ \BBA{} Halm}{Quintilianus\ \BBA{} Halm}{{\APACyear {1869}}}}
\bibcite{Shenderovich2015}{\citeauthoryear {Shenderovich, Thurston,{}\ \BBA{} Miller}{Shenderovich\ \BOthers {.}}{{\APACyear {2015}}}}
\APACbibcite{Shenderovich2015}{\citeauthoryear {Shenderovich, Thurston,{}\ \BBA{} Miller}{Shenderovich\ \BOthers {.}}{{\APACyear {2015}}}}
\@writefile{toc}{\contentsline {section}{\numberline {4}Conclusions}{21}{section.4}}
\@writefile{toc}{\contentsline {section}{References}{21}{section*.1}}
\bibcite{Economic2015}{\citeauthoryear {{United Nations}}{{United Nations}}{{\APACyear {2015}}}}
\APACbibcite{Economic2015}{\citeauthoryear {{United Nations}}{{United Nations}}{{\APACyear {2015}}}}
\@writefile{toc}{\contentsline {section}{\numberline {A}Extra tables}{22}{appendix.A}}
\newlabel{sec:extra_tables}{{A}{22}{Extra tables}{appendix.A}{}}
\@writefile{lot}{\contentsline {table}{\numberline {11}{\ignorespaces Balance in tutor characteristics: Standard 2}}{22}{table.11}}
\newlabel{tab:balance_c2}{{11}{22}{Balance in tutor characteristics: Standard 2}{table.11}{}}
\@writefile{lot}{\contentsline {table}{\numberline {12}{\ignorespaces Balance in tutor characteristics: Standard 3}}{23}{table.12}}
\newlabel{tab:balance_c3}{{12}{23}{Balance in tutor characteristics: Standard 3}{table.12}{}}
\@writefile{lot}{\contentsline {table}{\numberline {13}{\ignorespaces Balance in tutor characteristics: Standard 4}}{24}{table.13}}
\newlabel{tab:balance_c4}{{13}{24}{Balance in tutor characteristics: Standard 4}{table.13}{}}
\@writefile{lot}{\contentsline {table}{\numberline {14}{\ignorespaces Balance in tutor characteristics: Standard 7}}{25}{table.14}}
\newlabel{tab:balance_c7}{{14}{25}{Balance in tutor characteristics: Standard 7}{table.14}{}}
\@writefile{lot}{\contentsline {table}{\numberline {15}{\ignorespaces Balance in tutor characteristics: Standard 8}}{26}{table.15}}
\newlabel{tab:balance_c8}{{15}{26}{Balance in tutor characteristics: Standard 8}{table.15}{}}
\@writefile{lot}{\contentsline {table}{\numberline {16}{\ignorespaces Effect on tutees' test scores: lagged test scores}}{27}{table.16}}
\newlabel{tab:tutors_lagged}{{16}{27}{Effect on tutees' test scores: lagged test scores}{table.16}{}}
\@writefile{lot}{\contentsline {table}{\numberline {17}{\ignorespaces Effect on tutees' test scores: no controls}}{27}{table.17}}
\newlabel{tab:tutors_plain}{{17}{27}{Effect on tutees' test scores: no controls}{table.17}{}}
\@writefile{toc}{\contentsline {section}{\numberline {B}Extra figures}{28}{appendix.B}}
\newlabel{sec:figures}{{B}{28}{Extra figures}{appendix.B}{}}
\@writefile{lof}{\contentsline {figure}{\numberline {7}{\ignorespaces Age distribution across grades}}{28}{figure.7}}
\newlabel{fig:age}{{7}{28}{Age distribution across grades}{figure.7}{}}
