\relax 
\providecommand\hyper@newdestlabel[2]{}
\providecommand\HyperFirstAtBeginDocument{\AtBeginDocument}
\HyperFirstAtBeginDocument{\ifx\hyper@anchor\@undefined
\global\let\oldcontentsline\contentsline
\gdef\contentsline#1#2#3#4{\oldcontentsline{#1}{#2}{#3}}
\global\let\oldnewlabel\newlabel
\gdef\newlabel#1#2{\newlabelxx{#1}#2}
\gdef\newlabelxx#1#2#3#4#5#6{\oldnewlabel{#1}{{#2}{#3}}}
\AtEndDocument{\ifx\hyper@anchor\@undefined
\let\contentsline\oldcontentsline
\let\newlabel\oldnewlabel
\fi}
\fi}
\global\let\hyper@last\relax 
\gdef\HyperFirstAtBeginDocument#1{#1}
\providecommand\HyField@AuxAddToFields[1]{}
\providecommand\HyField@AuxAddToCoFields[2]{}
\babel@aux{english}{}
\citation{Glewwe2016}
\citation{Evans2016}
\citation{3ie2016impact}
\@writefile{toc}{\contentsline {section}{\numberline {1}Introduction}{1}{section.1}\protected@file@percent }
\citation{Muralidharan2019}
\citation{pritchett2015slow}
\citation{Banerjee2007}
\citation{Muralidharan2019}
\citation{figlio2002school}
\citation{zimmer2003new}
\citation{Duflo2011}
\citation{Banerjee2007}
\citation{Duflo2011}
\citation{muralidharan2013}
\citation{BanerjeeTARL}
\citation{Li2014}
\citation{fafchamps2018peer}
\citation{Cohen1982}
\citation{Shenderovich2015}
\citation{Shenderovich2015}
\citation{WB2015}
\citation{Uwezo}
\citation{Trudell2016}
\citation{Jones2014}
\citation{Bold2013}
\citation{Lucas2012}
\citation{WB_private}
\citation{Mbiti2016}
\@writefile{toc}{\contentsline {section}{\numberline {2}Experimental Design}{4}{section.2}\protected@file@percent }
\@writefile{toc}{\contentsline {subsection}{\numberline {2.1}Context}{4}{subsection.2.1}\protected@file@percent }
\citation{Gray-Lobe2020}
\citation{SecretaryEducation2015}
\@writefile{toc}{\contentsline {subsection}{\numberline {2.2}Intervention}{5}{subsection.2.2}\protected@file@percent }
\newlabel{sec:intervention}{{2.2}{5}{Intervention}{subsection.2.2}{}}
\@writefile{lot}{\contentsline {table}{\numberline {1}{\ignorespaces Tutors and Tutees\relax }}{6}{table.caption.1}\protected@file@percent }
\providecommand*\caption@xref[2]{\@setref\relax\@undefined{#1}}
\newlabel{tab:matching}{{1}{6}{Tutors and Tutees\relax }{table.caption.1}{}}
\@writefile{lot}{\contentsline {table}{\numberline {2}{\ignorespaces Math tutoring intervention\relax }}{8}{table.caption.2}\protected@file@percent }
\newlabel{tab:math_tutoring}{{2}{8}{Math tutoring intervention\relax }{table.caption.2}{}}
\citation{Bruhn2009}
\citation{divagis}
\@writefile{lot}{\contentsline {table}{\numberline {3}{\ignorespaces English tutoring intervention\relax }}{9}{table.caption.3}\protected@file@percent }
\newlabel{tab:english_tutoring}{{3}{9}{English tutoring intervention\relax }{table.caption.3}{}}
\@writefile{toc}{\contentsline {subsection}{\numberline {2.3}Sampling}{9}{subsection.2.3}\protected@file@percent }
\@writefile{lof}{\contentsline {figure}{\numberline {1}{\ignorespaces Geographical distribution of schools with math and English tutoring across Kenya\relax }}{10}{figure.caption.4}\protected@file@percent }
\newlabel{fig:map}{{1}{10}{Geographical distribution of schools with math and English tutoring across Kenya\relax }{figure.caption.4}{}}
\@writefile{toc}{\contentsline {subsection}{\numberline {2.4}Data and summary statistics}{10}{subsection.2.4}\protected@file@percent }
\newlabel{sec:data}{{2.4}{10}{Data and summary statistics}{subsection.2.4}{}}
\citation{van2017}
\citation{romano2005stepwise}
\@writefile{lot}{\contentsline {table}{\numberline {4}{\ignorespaces Learning assessments\relax }}{11}{table.caption.5}\protected@file@percent }
\newlabel{tab:exams}{{4}{11}{Learning assessments\relax }{table.caption.5}{}}
\@writefile{lot}{\contentsline {table}{\numberline {5}{\ignorespaces School characteristics in English and math tutoring schools\relax }}{12}{table.caption.7}\protected@file@percent }
\newlabel{tab:balance_school}{{5}{12}{School characteristics in English and math tutoring schools\relax }{table.caption.7}{}}
\@writefile{lot}{\contentsline {table}{\numberline {6}{\ignorespaces Pupil's characteristics\relax }}{13}{table.caption.9}\protected@file@percent }
\newlabel{tab:balance_pupils}{{6}{13}{Pupil's characteristics\relax }{table.caption.9}{}}
\citation{Lee2009}
\@writefile{lot}{\contentsline {table}{\numberline {7}{\ignorespaces Non-missing data\relax }}{14}{table.caption.11}\protected@file@percent }
\newlabel{tab:Evolv_Tested}{{7}{14}{Non-missing data\relax }{table.caption.11}{}}
\@writefile{lot}{\contentsline {table}{\numberline {8}{\ignorespaces Differential missing data rate between treatment and control students\relax }}{15}{table.caption.13}\protected@file@percent }
\newlabel{tab:blance_Tested_withoutT2ET16}{{8}{15}{Differential missing data rate between treatment and control students\relax }{table.caption.13}{}}
\@writefile{toc}{\contentsline {section}{\numberline {3}Results}{15}{section.3}\protected@file@percent }
\newlabel{sec:results}{{3}{15}{Results}{section.3}{}}
\@writefile{toc}{\contentsline {subsection}{\numberline {3.1}Main treatment effects}{15}{subsection.3.1}\protected@file@percent }
\newlabel{sec:main_treat_formal}{{3.1}{15}{Main treatment effects}{subsection.3.1}{}}
\@writefile{toc}{\contentsline {subsubsection}{\numberline {3.1.1}Tutees}{17}{subsubsection.3.1.1}\protected@file@percent }
\@writefile{lot}{\contentsline {table}{\numberline {9}{\ignorespaces Effect on test scores\relax }}{18}{table.caption.15}\protected@file@percent }
\newlabel{tab:main_withoutT2EtT}{{9}{18}{Effect on test scores\relax }{table.caption.15}{}}
\@writefile{toc}{\contentsline {subsubsection}{\numberline {3.1.2}Tutors}{18}{subsubsection.3.1.2}\protected@file@percent }
\@writefile{toc}{\contentsline {subsection}{\numberline {3.2}Heterogeneity}{18}{subsection.3.2}\protected@file@percent }
\newlabel{sec:het}{{3.2}{18}{Heterogeneity}{subsection.3.2}{}}
\citation{romano2005stepwise}
\citation{romano2005stepwise}
\@writefile{toc}{\contentsline {subsubsection}{\numberline {3.2.1}Periods}{19}{subsubsection.3.2.1}\protected@file@percent }
\citation{romano2005stepwise}
\citation{romano2005stepwise}
\@writefile{lof}{\contentsline {figure}{\numberline {2}{\ignorespaces Evolution of the treatment effect of math tutoring, relative to English tutoring\relax }}{20}{figure.caption.16}\protected@file@percent }
\newlabel{fig:treat_time}{{2}{20}{Evolution of the treatment effect of math tutoring, relative to English tutoring\relax }{figure.caption.16}{}}
\newlabel{fig:Evol_math_Pupils_control}{{2a}{20}{Math\relax }{figure.caption.16}{}}
\newlabel{sub@fig:Evol_math_Pupils_control}{{a}{20}{Math\relax }{figure.caption.16}{}}
\newlabel{fig:Evol_English_Pupils_control}{{2b}{20}{English\relax }{figure.caption.16}{}}
\newlabel{sub@fig:Evol_English_Pupils_control}{{b}{20}{English\relax }{figure.caption.16}{}}
\@writefile{toc}{\contentsline {subsubsection}{\numberline {3.2.2}Grade}{20}{subsubsection.3.2.2}\protected@file@percent }
\@writefile{lof}{\contentsline {figure}{\numberline {3}{\ignorespaces Treatment effect of math tutoring, relative to English tutoring, by grade\relax }}{21}{figure.caption.17}\protected@file@percent }
\newlabel{fig:treat_grade_pupils_withoutT2ET}{{3}{21}{Treatment effect of math tutoring, relative to English tutoring, by grade\relax }{figure.caption.17}{}}
\newlabel{fig:Grade_math_Pupils_control_withoutT2ET}{{3a}{21}{Math\relax }{figure.caption.17}{}}
\newlabel{sub@fig:Grade_math_Pupils_control_withoutT2ET}{{a}{21}{Math\relax }{figure.caption.17}{}}
\newlabel{fig:Grade_English_Pupils_control_withoutT2ET}{{3b}{21}{English\relax }{figure.caption.17}{}}
\newlabel{sub@fig:Grade_English_Pupils_control_withoutT2ET}{{b}{21}{English\relax }{figure.caption.17}{}}
\@writefile{toc}{\contentsline {subsubsection}{\numberline {3.2.3}Baseline test scores}{21}{subsubsection.3.2.3}\protected@file@percent }
\citation{romano2005stepwise}
\citation{benjamini2001control}
\@writefile{lof}{\contentsline {figure}{\numberline {4}{\ignorespaces Treatment effect of math tutoring, relative to English tutoring by baseline ability quintile\relax }}{23}{figure.caption.18}\protected@file@percent }
\newlabel{fig:HeteroBaseline_terc_math_T3ET15_withoutT2ET_quintile}{{4}{23}{Treatment effect of math tutoring, relative to English tutoring by baseline ability quintile\relax }{figure.caption.18}{}}
\@writefile{toc}{\contentsline {subsubsection}{\numberline {3.2.4}Tutee, tutor and school characteristics}{23}{subsubsection.3.2.4}\protected@file@percent }
\citation{benjamini2001control}
\@writefile{lot}{\contentsline {table}{\numberline {10}{\ignorespaces Heterogeneity: Math test scores\relax }}{25}{table.caption.20}\protected@file@percent }
\newlabel{tab:het_withoutT2ET}{{10}{25}{Heterogeneity: Math test scores\relax }{table.caption.20}{}}
\citation{duflo2015a}
\citation{muralidharan2013}
\citation{Kremer2013}
\citation{Muralidharan2019}
\@writefile{toc}{\contentsline {section}{\numberline {4}Conclusions}{26}{section.4}\protected@file@percent }
\newlabel{sec:conc}{{4}{26}{Conclusions}{section.4}{}}
\bibstyle{apacite}
\bibdata{CrossAgeBib}
\bibcite{BanerjeeTARL}{\citeauthoryear {Banerjee\ \BOthers {.}}{Banerjee\ \BOthers {.}}{{\APACyear {2016}}}}
\APACbibcite{BanerjeeTARL}{\citeauthoryear {Banerjee\ \BOthers {.}}{Banerjee\ \BOthers {.}}{{\APACyear {2016}}}}
\bibcite{Banerjee2007}{\citeauthoryear {Banerjee, Cole, Duflo,{}\ \BBA{} Linden}{Banerjee\ \BOthers {.}}{{\APACyear {2007}}}}
\APACbibcite{Banerjee2007}{\citeauthoryear {Banerjee, Cole, Duflo,{}\ \BBA{} Linden}{Banerjee\ \BOthers {.}}{{\APACyear {2007}}}}
\bibcite{benjamini2001control}{\citeauthoryear {Benjamini\ \BBA{} Yekutieli}{Benjamini\ \BBA{} Yekutieli}{{\APACyear {2001}}}}
\APACbibcite{benjamini2001control}{\citeauthoryear {Benjamini\ \BBA{} Yekutieli}{Benjamini\ \BBA{} Yekutieli}{{\APACyear {2001}}}}
\bibcite{Bold2013}{\citeauthoryear {Bold, Kimenyi,{}\ \BBA{} Sandefur}{Bold\ \BOthers {.}}{{\APACyear {2013}}}}
\APACbibcite{Bold2013}{\citeauthoryear {Bold, Kimenyi,{}\ \BBA{} Sandefur}{Bold\ \BOthers {.}}{{\APACyear {2013}}}}
\bibcite{Bruhn2009}{\citeauthoryear {Bruhn\ \BBA{} McKenzie}{Bruhn\ \BBA{} McKenzie}{{\APACyear {2009}}}}
\APACbibcite{Bruhn2009}{\citeauthoryear {Bruhn\ \BBA{} McKenzie}{Bruhn\ \BBA{} McKenzie}{{\APACyear {2009}}}}
\bibcite{Cohen1982}{\citeauthoryear {Cohen, Kulik,{}\ \BBA{} Kulik}{Cohen\ \BOthers {.}}{{\APACyear {1982}}}}
\APACbibcite{Cohen1982}{\citeauthoryear {Cohen, Kulik,{}\ \BBA{} Kulik}{Cohen\ \BOthers {.}}{{\APACyear {1982}}}}
\bibcite{divagis}{\citeauthoryear {{DIVA-GIS}}{{DIVA-GIS}}{{\APACyear {2016}}}}
\APACbibcite{divagis}{\citeauthoryear {{DIVA-GIS}}{{DIVA-GIS}}{{\APACyear {2016}}}}
\bibcite{Duflo2011}{\citeauthoryear {Duflo, Dupas,{}\ \BBA{} Kremer}{Duflo\ \BOthers {.}}{{\APACyear {2011}}}}
\APACbibcite{Duflo2011}{\citeauthoryear {Duflo, Dupas,{}\ \BBA{} Kremer}{Duflo\ \BOthers {.}}{{\APACyear {2011}}}}
\bibcite{duflo2015a}{\citeauthoryear {Duflo, Dupas,{}\ \BBA{} Kremer}{Duflo\ \BOthers {.}}{{\APACyear {2015}}}}
\APACbibcite{duflo2015a}{\citeauthoryear {Duflo, Dupas,{}\ \BBA{} Kremer}{Duflo\ \BOthers {.}}{{\APACyear {2015}}}}
\bibcite{Evans2016}{\citeauthoryear {Evans\ \BBA{} Popova}{Evans\ \BBA{} Popova}{{\APACyear {2016}}}}
\APACbibcite{Evans2016}{\citeauthoryear {Evans\ \BBA{} Popova}{Evans\ \BBA{} Popova}{{\APACyear {2016}}}}
\@writefile{toc}{\contentsline {section}{References}{27}{section*.21}\protected@file@percent }
\bibcite{fafchamps2018peer}{\citeauthoryear {Fafchamps\ \BBA{} Mo}{Fafchamps\ \BBA{} Mo}{{\APACyear {2018}}}}
\APACbibcite{fafchamps2018peer}{\citeauthoryear {Fafchamps\ \BBA{} Mo}{Fafchamps\ \BBA{} Mo}{{\APACyear {2018}}}}
\bibcite{figlio2002school}{\citeauthoryear {Figlio\ \BBA{} Page}{Figlio\ \BBA{} Page}{{\APACyear {2002}}}}
\APACbibcite{figlio2002school}{\citeauthoryear {Figlio\ \BBA{} Page}{Figlio\ \BBA{} Page}{{\APACyear {2002}}}}
\bibcite{Glewwe2016}{\citeauthoryear {Glewwe\ \BBA{} Muralidharan}{Glewwe\ \BBA{} Muralidharan}{{\APACyear {2016}}}}
\APACbibcite{Glewwe2016}{\citeauthoryear {Glewwe\ \BBA{} Muralidharan}{Glewwe\ \BBA{} Muralidharan}{{\APACyear {2016}}}}
\bibcite{Gray-Lobe2020}{\citeauthoryear {Gray-Lobe, Keats, Kremer, Mbiti,{}\ \BBA{} Ozier}{Gray-Lobe\ \BOthers {.}}{{\APACyear {2020}}}}
\APACbibcite{Gray-Lobe2020}{\citeauthoryear {Gray-Lobe, Keats, Kremer, Mbiti,{}\ \BBA{} Ozier}{Gray-Lobe\ \BOthers {.}}{{\APACyear {2020}}}}
\bibcite{Jones2014}{\citeauthoryear {Jones, Schipper, Ruto,{}\ \BBA{} Rajani}{Jones\ \BOthers {.}}{{\APACyear {2014}}}}
\APACbibcite{Jones2014}{\citeauthoryear {Jones, Schipper, Ruto,{}\ \BBA{} Rajani}{Jones\ \BOthers {.}}{{\APACyear {2014}}}}
\bibcite{Kremer2013}{\citeauthoryear {Kremer, Brannen,{}\ \BBA{} Glennerster}{Kremer\ \BOthers {.}}{{\APACyear {2013}}}}
\APACbibcite{Kremer2013}{\citeauthoryear {Kremer, Brannen,{}\ \BBA{} Glennerster}{Kremer\ \BOthers {.}}{{\APACyear {2013}}}}
\bibcite{Lee2009}{\citeauthoryear {Lee}{Lee}{{\APACyear {2009}}}}
\APACbibcite{Lee2009}{\citeauthoryear {Lee}{Lee}{{\APACyear {2009}}}}
\bibcite{Li2014}{\citeauthoryear {Li, Han, Zhang,{}\ \BBA{} Rozelle}{Li\ \BOthers {.}}{{\APACyear {2014}}}}
\APACbibcite{Li2014}{\citeauthoryear {Li, Han, Zhang,{}\ \BBA{} Rozelle}{Li\ \BOthers {.}}{{\APACyear {2014}}}}
\bibcite{Lucas2012}{\citeauthoryear {Lucas\ \BBA{} Mbiti}{Lucas\ \BBA{} Mbiti}{{\APACyear {2012}}}}
\APACbibcite{Lucas2012}{\citeauthoryear {Lucas\ \BBA{} Mbiti}{Lucas\ \BBA{} Mbiti}{{\APACyear {2012}}}}
\bibcite{Mbiti2016}{\citeauthoryear {Mbiti}{Mbiti}{{\APACyear {2016}}}}
\APACbibcite{Mbiti2016}{\citeauthoryear {Mbiti}{Mbiti}{{\APACyear {2016}}}}
\bibcite{Muralidharan2019}{\citeauthoryear {Muralidharan, Singh,{}\ \BBA{} Ganimian}{Muralidharan\ \BOthers {.}}{{\APACyear {2019}}}}
\APACbibcite{Muralidharan2019}{\citeauthoryear {Muralidharan, Singh,{}\ \BBA{} Ganimian}{Muralidharan\ \BOthers {.}}{{\APACyear {2019}}}}
\bibcite{muralidharan2013}{\citeauthoryear {Muralidharan\ \BBA{} Sundararaman}{Muralidharan\ \BBA{} Sundararaman}{{\APACyear {2013}}}}
\APACbibcite{muralidharan2013}{\citeauthoryear {Muralidharan\ \BBA{} Sundararaman}{Muralidharan\ \BBA{} Sundararaman}{{\APACyear {2013}}}}
\bibcite{pritchett2015slow}{\citeauthoryear {Pritchett\ \BBA{} Beatty}{Pritchett\ \BBA{} Beatty}{{\APACyear {2015}}}}
\APACbibcite{pritchett2015slow}{\citeauthoryear {Pritchett\ \BBA{} Beatty}{Pritchett\ \BBA{} Beatty}{{\APACyear {2015}}}}
\bibcite{romano2005stepwise}{\citeauthoryear {Romano\ \BBA{} Wolf}{Romano\ \BBA{} Wolf}{{\APACyear {2005}}}}
\APACbibcite{romano2005stepwise}{\citeauthoryear {Romano\ \BBA{} Wolf}{Romano\ \BBA{} Wolf}{{\APACyear {2005}}}}
\bibcite{SecretaryEducation2015}{\citeauthoryear {{Secretary for Education, Science and Technology}}{{Secretary for Education, Science and Technology}}{{\APACyear {2015}}}}
\APACbibcite{SecretaryEducation2015}{\citeauthoryear {{Secretary for Education, Science and Technology}}{{Secretary for Education, Science and Technology}}{{\APACyear {2015}}}}
\bibcite{Shenderovich2015}{\citeauthoryear {Shenderovich, Thurston,{}\ \BBA{} Miller}{Shenderovich\ \BOthers {.}}{{\APACyear {2015}}}}
\APACbibcite{Shenderovich2015}{\citeauthoryear {Shenderovich, Thurston,{}\ \BBA{} Miller}{Shenderovich\ \BOthers {.}}{{\APACyear {2015}}}}
\bibcite{3ie2016impact}{\citeauthoryear {Snilstveit\ \BOthers {.}}{Snilstveit\ \BOthers {.}}{{\APACyear {2016}}}}
\APACbibcite{3ie2016impact}{\citeauthoryear {Snilstveit\ \BOthers {.}}{Snilstveit\ \BOthers {.}}{{\APACyear {2016}}}}
\bibcite{Trudell2016}{\citeauthoryear {Trudell}{Trudell}{{\APACyear {2016}}}}
\APACbibcite{Trudell2016}{\citeauthoryear {Trudell}{Trudell}{{\APACyear {2016}}}}
\bibcite{Uwezo}{\citeauthoryear {Uwezo}{Uwezo}{{\APACyear {2015}}}}
\APACbibcite{Uwezo}{\citeauthoryear {Uwezo}{Uwezo}{{\APACyear {2015}}}}
\bibcite{van2017}{\citeauthoryear {van~der Linden}{van~der Linden}{{\APACyear {2017}}}}
\APACbibcite{van2017}{\citeauthoryear {van~der Linden}{van~der Linden}{{\APACyear {2017}}}}
\bibcite{WB2015}{\citeauthoryear {{World Bank}}{{World Bank}}{{\APACyear {2015}}{\APACexlab {{\BCnt {1}}}}}}
\APACbibcite{WB2015}{\citeauthoryear {{World Bank}}{{World Bank}}{{\APACyear {2015}}{\APACexlab {{\BCnt {1}}}}}}
\bibcite{WB_private}{\citeauthoryear {{World Bank}}{{World Bank}}{{\APACyear {2015}}{\APACexlab {{\BCnt {2}}}}}}
\APACbibcite{WB_private}{\citeauthoryear {{World Bank}}{{World Bank}}{{\APACyear {2015}}{\APACexlab {{\BCnt {2}}}}}}
\bibcite{zimmer2003new}{\citeauthoryear {Zimmer}{Zimmer}{{\APACyear {2003}}}}
\APACbibcite{zimmer2003new}{\citeauthoryear {Zimmer}{Zimmer}{{\APACyear {2003}}}}
\@writefile{toc}{\contentsline {section}{\numberline {A}Additional tables and figures}{A.1}{appendix.A}\protected@file@percent }
\newlabel{sec:extra_tables}{{A}{A.1}{Additional tables and figures}{appendix.A}{}}
\@writefile{lot}{\contentsline {table}{\numberline {A.1}{\ignorespaces Test content\relax }}{A.1}{table.caption.23}\protected@file@percent }
\newlabel{tab:test_contet}{{A.1}{A.1}{Test content\relax }{table.caption.23}{}}
\@writefile{lot}{\contentsline {table}{\numberline {A.2}{\ignorespaces Pupil and tutor test scores during T1DG16\relax }}{A.2}{table.caption.25}\protected@file@percent }
\newlabel{tab:balance_pupils_T1DG16}{{A.2}{A.2}{Pupil and tutor test scores during T1DG16\relax }{table.caption.25}{}}
\@writefile{lot}{\contentsline {table}{\numberline {A.3}{\ignorespaces Differential attrition by student characteristics\relax }}{A.3}{table.caption.27}\protected@file@percent }
\newlabel{tab:Balance_missing_male_age}{{A.3}{A.3}{Differential attrition by student characteristics\relax }{table.caption.27}{}}
\@writefile{lot}{\contentsline {table}{\numberline {A.4}{\ignorespaces Effect on tutees' test math scores: Robustness to different controls\relax }}{A.4}{table.caption.29}\protected@file@percent }
\newlabel{tab:Specification_Pupils_Robust}{{A.4}{A.4}{Effect on tutees' test math scores: Robustness to different controls\relax }{table.caption.29}{}}
\@writefile{lot}{\contentsline {table}{\numberline {A.5}{\ignorespaces Heterogeneity: English test scores\relax }}{A.5}{table.caption.31}\protected@file@percent }
\newlabel{tab:het_eng_withoutT2ET}{{A.5}{A.5}{Heterogeneity: English test scores\relax }{table.caption.31}{}}
\@writefile{lof}{\contentsline {figure}{\numberline {A.1}{\ignorespaces Age distribution across grades\relax }}{A.6}{figure.caption.32}\protected@file@percent }
\newlabel{fig:age}{{A.1}{A.6}{Age distribution across grades\relax }{figure.caption.32}{}}
\citation{romano2005stepwise}
\@writefile{lof}{\contentsline {figure}{\numberline {A.2}{\ignorespaces Difference in testing rates across English and math tutoring in each period \relax }}{A.7}{figure.caption.33}\protected@file@percent }
\newlabel{fig:testing_rates}{{A.2}{A.7}{Difference in testing rates across English and math tutoring in each period \relax }{figure.caption.33}{}}
\@writefile{lof}{\contentsline {figure}{\numberline {A.3}{\ignorespaces Treatment effect of math tutoring, relative to English tutoring\relax }}{A.8}{figure.caption.34}\protected@file@percent }
\newlabel{fig:treat_baseline_math_withoutT2E}{{A.3}{A.8}{Treatment effect of math tutoring, relative to English tutoring\relax }{figure.caption.34}{}}
\@writefile{lot}{\contentsline {table}{\numberline {A.6}{\ignorespaces Heterogeneity by baseline ability of tutors and tutees\relax }}{A.9}{table.caption.36}\protected@file@percent }
\newlabel{tab:het_triple_interact_withoutT2ET}{{A.6}{A.9}{Heterogeneity by baseline ability of tutors and tutees\relax }{table.caption.36}{}}
\citation{romano2005stepwise}
\@writefile{lof}{\contentsline {figure}{\numberline {A.4}{\ignorespaces Treatment effect of math tutoring, relative to English tutoringby baseline ability tercile\relax }}{A.10}{figure.caption.37}\protected@file@percent }
\newlabel{fig:HeteroBaseline_terc_math_T3ET15_withoutT2ET_tercile}{{A.4}{A.10}{Treatment effect of math tutoring, relative to English tutoringby baseline ability tercile\relax }{figure.caption.37}{}}
\@writefile{lof}{\contentsline {figure}{\numberline {A.5}{\ignorespaces Treatment effect of math tutoring, relative to English tutoring by baseline ability\relax }}{A.11}{figure.caption.38}\protected@file@percent }
\newlabel{fig:HeteroBaseline_quadratic_v2}{{A.5}{A.11}{Treatment effect of math tutoring, relative to English tutoring by baseline ability\relax }{figure.caption.38}{}}
\@writefile{lof}{\contentsline {figure}{\numberline {A.6}{\ignorespaces Treatment effect of math tutoring on tutors, relative to English tutoring, on math test scores by ability decile in T3ET15\relax }}{B.1}{figure.caption.39}\protected@file@percent }
\newlabel{fig:HeteroBaseline_tutors_terc_math_T3ET15_withoutT2ET}{{A.6}{B.1}{Treatment effect of math tutoring on tutors, relative to English tutoring, on math test scores by ability decile in T3ET15\relax }{figure.caption.39}{}}
\@writefile{toc}{\contentsline {section}{\numberline {B}Estimates including T2ET16}{B.1}{appendix.B}\protected@file@percent }
\newlabel{sec:T2ET16}{{B}{B.1}{Estimates including T2ET16}{appendix.B}{}}
\@writefile{lot}{\contentsline {table}{\numberline {B.1}{\ignorespaces Differential missing data rate between treatment and control students\relax }}{B.2}{table.caption.41}\protected@file@percent }
\newlabel{tab:blance_Tested}{{B.1}{B.2}{Differential missing data rate between treatment and control students\relax }{table.caption.41}{}}
\@writefile{lot}{\contentsline {table}{\numberline {B.2}{\ignorespaces Effect on tutees' test scores\relax }}{B.2}{table.caption.43}\protected@file@percent }
\newlabel{tab:main_tutees}{{B.2}{B.2}{Effect on tutees' test scores\relax }{table.caption.43}{}}
\@writefile{lot}{\contentsline {table}{\numberline {B.3}{\ignorespaces Effect on tutees' test scores: Interpolating to input missing outcome data\relax }}{B.3}{table.caption.45}\protected@file@percent }
\newlabel{tab:main_tutees_interpolate}{{B.3}{B.3}{Effect on tutees' test scores: Interpolating to input missing outcome data\relax }{table.caption.45}{}}
\@writefile{lot}{\contentsline {table}{\numberline {B.4}{\ignorespaces Effect on tutors' test scores\relax }}{B.3}{table.caption.47}\protected@file@percent }
\newlabel{tab:tutors_controls}{{B.4}{B.3}{Effect on tutors' test scores\relax }{table.caption.47}{}}
\citation{romano2005stepwise}
\citation{romano2005stepwise}
\@writefile{lot}{\contentsline {table}{\numberline {B.5}{\ignorespaces Effect on tutors' test scores: Interpolating to input missing outcome data\relax }}{B.4}{table.caption.49}\protected@file@percent }
\newlabel{tab:tutors_controls_interpolate}{{B.5}{B.4}{Effect on tutors' test scores: Interpolating to input missing outcome data\relax }{table.caption.49}{}}
\@writefile{lof}{\contentsline {figure}{\numberline {B.1}{\ignorespaces Treatment effect of math tutoring, relative to English tutoring, by grade\relax }}{B.4}{figure.caption.50}\protected@file@percent }
\newlabel{fig:treat_grade_pupils}{{B.1}{B.4}{Treatment effect of math tutoring, relative to English tutoring, by grade\relax }{figure.caption.50}{}}
\newlabel{fig:Grade_math_Pupils_control}{{B.1a}{B.4}{Math\relax }{figure.caption.50}{}}
\newlabel{sub@fig:Grade_math_Pupils_control}{{a}{B.4}{Math\relax }{figure.caption.50}{}}
\newlabel{fig:Grade_English_Pupils_control}{{B.1b}{B.4}{English\relax }{figure.caption.50}{}}
\newlabel{sub@fig:Grade_English_Pupils_control}{{b}{B.4}{English\relax }{figure.caption.50}{}}
\@writefile{lot}{\contentsline {table}{\numberline {B.6}{\ignorespaces Heterogeneity\relax }}{B.5}{table.caption.52}\protected@file@percent }
\newlabel{tab:het}{{B.6}{B.5}{Heterogeneity\relax }{table.caption.52}{}}
