\relax 
\providecommand\hyper@newdestlabel[2]{}
\providecommand\zref@newlabel[2]{}
\providecommand\HyperFirstAtBeginDocument{\AtBeginDocument}
\HyperFirstAtBeginDocument{\ifx\hyper@anchor\@undefined
\global\let\oldcontentsline\contentsline
\gdef\contentsline#1#2#3#4{\oldcontentsline{#1}{#2}{#3}}
\global\let\oldnewlabel\newlabel
\gdef\newlabel#1#2{\newlabelxx{#1}#2}
\gdef\newlabelxx#1#2#3#4#5#6{\oldnewlabel{#1}{{#2}{#3}}}
\AtEndDocument{\ifx\hyper@anchor\@undefined
\let\contentsline\oldcontentsline
\let\newlabel\oldnewlabel
\fi}
\fi}
\global\let\hyper@last\relax 
\gdef\HyperFirstAtBeginDocument#1{#1}
\providecommand\HyField@AuxAddToFields[1]{}
\providecommand\HyField@AuxAddToCoFields[2]{}
\providecommand\AtEndDvi@Check{}
\AtEndDvi@Check
\providecommand \oddpage@label [2]{}
\@writefile{toc}{\beamer@endinputifotherversion {3.36pt}}
\@writefile{nav}{\beamer@endinputifotherversion {3.36pt}}
\@writefile{nav}{\headcommand {\slideentry {0}{0}{1}{1/1}{}{0}}}
\@writefile{nav}{\headcommand {\beamer@framepages {1}{1}}}
\citation{Hanushek2000}
\citation{Hanushek2007}
\citation{Kremer2013}
\citation{McEwan2015}
\citation{Ganimian2016}
\citation{3ie2016impact}
\citation{Banerjee2007}
\citation{Duflo2011}
\citation{Duflo2015}
\@writefile{toc}{\beamer@sectionintoc {1}{Motivation}{2}{0}{1}}
\@writefile{nav}{\headcommand {\sectionentry {1}{Motivation}{2}{Motivation}{0}}}
\@writefile{nav}{\headcommand {\beamer@sectionpages {1}{1}}}
\@writefile{nav}{\headcommand {\beamer@subsectionpages {1}{1}}}
\citation{Hanushek2000}
\citation{Hanushek2007}
\citation{Kremer2013}
\citation{McEwan2015}
\citation{Ganimian2016}
\citation{3ie2016impact}
\citation{Banerjee2007}
\citation{Duflo2011}
\citation{Duflo2015}
\citation{Hanushek2000}
\citation{Hanushek2007}
\citation{Kremer2013}
\citation{McEwan2015}
\citation{Ganimian2016}
\citation{3ie2016impact}
\citation{Banerjee2007}
\citation{Duflo2011}
\citation{Duflo2015}
\citation{Hanushek2000}
\citation{Hanushek2007}
\citation{Kremer2013}
\citation{McEwan2015}
\citation{Ganimian2016}
\citation{3ie2016impact}
\citation{Banerjee2007}
\citation{Duflo2011}
\citation{Duflo2015}
\citation{Hanushek2000}
\citation{Hanushek2007}
\citation{Kremer2013}
\citation{McEwan2015}
\citation{Ganimian2016}
\citation{3ie2016impact}
\citation{Banerjee2007}
\citation{Duflo2011}
\citation{Duflo2015}
\citation{Hanushek2000}
\citation{Hanushek2007}
\citation{Kremer2013}
\citation{McEwan2015}
\citation{Ganimian2016}
\citation{3ie2016impact}
\citation{Banerjee2007}
\citation{Duflo2011}
\citation{Duflo2015}
\citation{Hanushek2000}
\citation{Hanushek2007}
\citation{Kremer2013}
\citation{McEwan2015}
\citation{Ganimian2016}
\citation{3ie2016impact}
\citation{Banerjee2007}
\citation{Duflo2011}
\citation{Duflo2015}
\citation{Hanushek2000}
\citation{Hanushek2007}
\citation{Kremer2013}
\citation{McEwan2015}
\citation{Ganimian2016}
\citation{3ie2016impact}
\citation{Banerjee2007}
\citation{Duflo2011}
\citation{Duflo2015}
\@writefile{nav}{\headcommand {\slideentry {1}{0}{1}{2/9}{}{0}}}
\@writefile{nav}{\headcommand {\beamer@framepages {2}{9}}}
\@writefile{nav}{\headcommand {\slideentry {1}{0}{2}{10/10}{}{0}}}
\@writefile{nav}{\headcommand {\beamer@framepages {10}{10}}}
\citation{Banerjee2007}
\citation{Duflo2011}
\citation{Duflo2015}
\citation{Cohen1982}
\citation{Robinson2005}
\citation{Shenderovich2015}
\citation{Munley2010}
\citation{Li2010}
\citation{Cabezas2011}
\citation{Sacerdote2001}
\citation{Zimmerman2003}
\@writefile{nav}{\headcommand {\slideentry {1}{0}{3}{11/11}{}{0}}}
\@writefile{nav}{\headcommand {\beamer@framepages {11}{11}}}
\@writefile{toc}{\beamer@sectionintoc {2}{Design}{12}{0}{2}}
\@writefile{nav}{\headcommand {\sectionentry {2}{Design}{12}{Design}{0}}}
\@writefile{nav}{\headcommand {\beamer@sectionpages {2}{11}}}
\@writefile{nav}{\headcommand {\beamer@subsectionpages {2}{11}}}
\@writefile{nav}{\headcommand {\slideentry {2}{0}{1}{12/12}{}{0}}}
\@writefile{nav}{\headcommand {\beamer@framepages {12}{12}}}
\@writefile{nav}{\headcommand {\slideentry {2}{0}{2}{13/13}{}{0}}}
\@writefile{nav}{\headcommand {\beamer@framepages {13}{13}}}
\@writefile{nav}{\headcommand {\slideentry {2}{0}{3}{14/14}{}{0}}}
\@writefile{nav}{\headcommand {\beamer@framepages {14}{14}}}
\providecommand*\caption@xref[2]{\@setref\relax\@undefined{#1}}
\newlabel{tab:matching}{{1}{15}{Tutors and Tutees\relax }{Doc-Start}{}}
\@writefile{snm}{\beamer@slide {tab:matching}{15}}
\@writefile{nav}{\headcommand {\slideentry {2}{0}{4}{15/16}{}{0}}}
\@writefile{nav}{\headcommand {\beamer@framepages {15}{16}}}
\@writefile{nav}{\headcommand {\slideentry {2}{0}{5}{17/17}{}{0}}}
\@writefile{nav}{\headcommand {\beamer@framepages {17}{17}}}
\@writefile{nav}{\headcommand {\slideentry {2}{0}{6}{18/18}{}{0}}}
\@writefile{nav}{\headcommand {\beamer@framepages {18}{18}}}
\@writefile{nav}{\headcommand {\slideentry {2}{0}{7}{19/21}{}{0}}}
\@writefile{nav}{\headcommand {\beamer@framepages {19}{21}}}
\newlabel{tab:balance_school}{{2}{22}{Balance in school characteristics\relax }{Doc-Start}{}}
\@writefile{snm}{\beamer@slide {tab:balance_school}{22}}
\@writefile{nav}{\headcommand {\slideentry {2}{0}{8}{22/22}{}{0}}}
\@writefile{nav}{\headcommand {\beamer@framepages {22}{22}}}
\newlabel{tab:balance_pupils}{{3}{23}{Balance in pupil's characteristics: ECE, Standard 1 and Standard 2\relax }{Doc-Start}{}}
\@writefile{snm}{\beamer@slide {tab:balance_pupils}{23}}
\@writefile{nav}{\headcommand {\slideentry {2}{0}{9}{23/23}{}{0}}}
\@writefile{nav}{\headcommand {\beamer@framepages {23}{23}}}
\newlabel{tab:balance_tutors}{{4}{24}{Balance in pupil's characteristics: Standard 3 - Standard 7\relax }{Doc-Start}{}}
\@writefile{snm}{\beamer@slide {tab:balance_tutors}{24}}
\@writefile{nav}{\headcommand {\slideentry {2}{0}{10}{24/24}{}{0}}}
\@writefile{nav}{\headcommand {\beamer@framepages {24}{24}}}
\@writefile{toc}{\beamer@sectionintoc {3}{Results}{25}{0}{3}}
\@writefile{nav}{\headcommand {\sectionentry {3}{Results}{25}{Results}{0}}}
\@writefile{nav}{\headcommand {\beamer@sectionpages {12}{24}}}
\@writefile{nav}{\headcommand {\beamer@subsectionpages {12}{24}}}
\@writefile{nav}{\headcommand {\slideentry {3}{0}{1}{25/25}{}{0}}}
\@writefile{nav}{\headcommand {\beamer@framepages {25}{25}}}
\newlabel{tab:effect_pupils}{{5}{26}{Effect on pupils\relax }{Doc-Start}{}}
\@writefile{snm}{\beamer@slide {tab:effect_pupils}{26}}
\@writefile{nav}{\headcommand {\slideentry {3}{0}{2}{26/26}{}{0}}}
\@writefile{nav}{\headcommand {\beamer@framepages {26}{26}}}
\newlabel{tab:effect_tutors}{{6}{27}{Effect on tutors\relax }{Doc-Start}{}}
\@writefile{snm}{\beamer@slide {tab:effect_tutors}{27}}
\@writefile{nav}{\headcommand {\slideentry {3}{0}{3}{27/27}{}{0}}}
\@writefile{nav}{\headcommand {\beamer@framepages {27}{27}}}
\@writefile{toc}{\beamer@sectionintoc {4}{Heterogeneity}{28}{0}{4}}
\@writefile{nav}{\headcommand {\sectionentry {4}{Heterogeneity}{28}{Heterogeneity}{0}}}
\@writefile{nav}{\headcommand {\beamer@sectionpages {25}{27}}}
\@writefile{nav}{\headcommand {\beamer@subsectionpages {25}{27}}}
\@writefile{nav}{\headcommand {\slideentry {4}{0}{1}{28/28}{}{0}}}
\@writefile{nav}{\headcommand {\beamer@framepages {28}{28}}}
\@writefile{nav}{\headcommand {\slideentry {4}{0}{2}{29/29}{}{0}}}
\@writefile{nav}{\headcommand {\beamer@framepages {29}{29}}}
\@writefile{nav}{\headcommand {\slideentry {4}{0}{3}{30/30}{}{0}}}
\@writefile{nav}{\headcommand {\beamer@framepages {30}{30}}}
\@writefile{nav}{\headcommand {\slideentry {4}{0}{4}{31/31}{}{0}}}
\@writefile{nav}{\headcommand {\beamer@framepages {31}{31}}}
\@writefile{nav}{\headcommand {\slideentry {4}{0}{5}{32/32}{}{0}}}
\@writefile{nav}{\headcommand {\beamer@framepages {32}{32}}}
\newlabel{tab:tercile}{{7}{33}{Tercile\relax }{Doc-Start}{}}
\@writefile{snm}{\beamer@slide {tab:tercile}{33}}
\@writefile{nav}{\headcommand {\slideentry {4}{0}{6}{33/33}{}{0}}}
\@writefile{nav}{\headcommand {\beamer@framepages {33}{33}}}
\newlabel{tab:tercile_iwthin}{{8}{34}{Within classroom tercile\relax }{Doc-Start}{}}
\@writefile{snm}{\beamer@slide {tab:tercile_iwthin}{34}}
\@writefile{nav}{\headcommand {\slideentry {4}{0}{7}{34/34}{}{0}}}
\@writefile{nav}{\headcommand {\beamer@framepages {34}{34}}}
\newlabel{treat_hetero<1>}{{25}{35}{Heterogeneity}{Doc-Start}{}}
\@writefile{snm}{\beamer@slide {treat_hetero<1>}{35}}
\newlabel{treat_hetero}{{25}{35}{Heterogeneity}{Doc-Start}{}}
\@writefile{snm}{\beamer@slide {treat_hetero}{35}}
\@writefile{nav}{\headcommand {\slideentry {4}{0}{8}{35/35}{}{0}}}
\@writefile{nav}{\headcommand {\beamer@framepages {35}{35}}}
\@writefile{toc}{\beamer@sectionintoc {5}{Attrition}{36}{0}{5}}
\@writefile{nav}{\headcommand {\sectionentry {5}{Attrition}{36}{Attrition}{0}}}
\@writefile{nav}{\headcommand {\beamer@sectionpages {28}{35}}}
\@writefile{nav}{\headcommand {\beamer@subsectionpages {28}{35}}}
\@writefile{nav}{\headcommand {\slideentry {5}{0}{1}{36/36}{}{0}}}
\@writefile{nav}{\headcommand {\beamer@framepages {36}{36}}}
\newlabel{attrition<1>}{{27}{37}{Attrition}{Doc-Start}{}}
\@writefile{snm}{\beamer@slide {attrition<1>}{37}}
\newlabel{attrition}{{27}{37}{Attrition}{Doc-Start}{}}
\@writefile{snm}{\beamer@slide {attrition}{37}}
\newlabel{tab:attrition}{{9}{37}{Tested\relax }{Doc-Start}{}}
\@writefile{snm}{\beamer@slide {tab:attrition}{37}}
\@writefile{nav}{\headcommand {\slideentry {5}{0}{2}{37/37}{}{0}}}
\@writefile{nav}{\headcommand {\beamer@framepages {37}{37}}}
\newlabel{attrition_graph<1>}{{28}{38}{Attrition}{Doc-Start}{}}
\@writefile{snm}{\beamer@slide {attrition_graph<1>}{38}}
\newlabel{attrition_graph}{{28}{38}{Attrition}{Doc-Start}{}}
\@writefile{snm}{\beamer@slide {attrition_graph}{38}}
\@writefile{nav}{\headcommand {\slideentry {5}{0}{3}{38/38}{}{0}}}
\@writefile{nav}{\headcommand {\beamer@framepages {38}{38}}}
\newlabel{attrition_graph<1>}{{29}{39}{Attrition}{Doc-Start}{}}
\@writefile{snm}{\beamer@slide {attrition_graph<1>}{39}}
\newlabel{attrition_graph}{{29}{39}{Attrition}{Doc-Start}{}}
\@writefile{snm}{\beamer@slide {attrition_graph}{39}}
\@writefile{nav}{\headcommand {\slideentry {5}{0}{4}{39/39}{}{0}}}
\@writefile{nav}{\headcommand {\beamer@framepages {39}{39}}}
\newlabel{results_noattr<1>}{{30}{40}{Attrition}{Doc-Start}{}}
\@writefile{snm}{\beamer@slide {results_noattr<1>}{40}}
\newlabel{results_noattr}{{30}{40}{Attrition}{Doc-Start}{}}
\@writefile{snm}{\beamer@slide {results_noattr}{40}}
\newlabel{tab:attrition}{{10}{40}{Effect on pupils without T2ET16\relax }{Doc-Start}{}}
\@writefile{snm}{\beamer@slide {tab:attrition}{40}}
\@writefile{nav}{\headcommand {\slideentry {5}{0}{5}{40/40}{}{0}}}
\@writefile{nav}{\headcommand {\beamer@framepages {40}{40}}}
\@writefile{toc}{\beamer@sectionintoc {6}{Closing remarks}{41}{0}{6}}
\@writefile{nav}{\headcommand {\sectionentry {6}{Closing remarks}{41}{Closing remarks}{0}}}
\@writefile{nav}{\headcommand {\beamer@sectionpages {36}{40}}}
\@writefile{nav}{\headcommand {\beamer@subsectionpages {36}{40}}}
\@writefile{nav}{\headcommand {\slideentry {6}{0}{1}{41/41}{}{0}}}
\@writefile{nav}{\headcommand {\beamer@framepages {41}{41}}}
\@writefile{nav}{\headcommand {\slideentry {6}{0}{2}{42/42}{}{0}}}
\@writefile{nav}{\headcommand {\beamer@framepages {42}{42}}}
\@writefile{nav}{\headcommand {\slideentry {6}{0}{3}{43/43}{}{0}}}
\@writefile{nav}{\headcommand {\beamer@framepages {43}{43}}}
\bibstyle{apacite}
\bibdata{CrossAgeBib}
\bibcite{Banerjee2007}{\citeauthoryear {Banerjee, Cole, Duflo,{}\ \BBA{} Linden}{Banerjee\ \BOthers {.}}{{\APACyear {2007}}}}
\APACbibcite{Banerjee2007}{\citeauthoryear {Banerjee, Cole, Duflo,{}\ \BBA{} Linden}{Banerjee\ \BOthers {.}}{{\APACyear {2007}}}}
\bibcite{Cabezas2011}{\citeauthoryear {Cabezas, Cuesta,{}\ \BBA{} Gallego}{Cabezas\ \BOthers {.}}{{\APACyear {2011}}}}
\APACbibcite{Cabezas2011}{\citeauthoryear {Cabezas, Cuesta,{}\ \BBA{} Gallego}{Cabezas\ \BOthers {.}}{{\APACyear {2011}}}}
\bibcite{Cohen1982}{\citeauthoryear {Cohen, Kulik,{}\ \BBA{} Kulik}{Cohen\ \BOthers {.}}{{\APACyear {1982}}}}
\APACbibcite{Cohen1982}{\citeauthoryear {Cohen, Kulik,{}\ \BBA{} Kulik}{Cohen\ \BOthers {.}}{{\APACyear {1982}}}}
\bibcite{Duflo2015}{\citeauthoryear {Duflo, Berry, Mukerji,{}\ \BBA{} Shotland}{Duflo\ \BOthers {.}}{{\APACyear {2015}}}}
\APACbibcite{Duflo2015}{\citeauthoryear {Duflo, Berry, Mukerji,{}\ \BBA{} Shotland}{Duflo\ \BOthers {.}}{{\APACyear {2015}}}}
\bibcite{Duflo2011}{\citeauthoryear {Duflo, Dupas,{}\ \BBA{} Kremer}{Duflo\ \BOthers {.}}{{\APACyear {2011}}}}
\APACbibcite{Duflo2011}{\citeauthoryear {Duflo, Dupas,{}\ \BBA{} Kremer}{Duflo\ \BOthers {.}}{{\APACyear {2011}}}}
\bibcite{Ganimian2016}{\citeauthoryear {Ganimian\ \BBA{} Murnane}{Ganimian\ \BBA{} Murnane}{{\APACyear {2016}}}}
\APACbibcite{Ganimian2016}{\citeauthoryear {Ganimian\ \BBA{} Murnane}{Ganimian\ \BBA{} Murnane}{{\APACyear {2016}}}}
\bibcite{Hanushek2000}{\citeauthoryear {Hanushek\ \BBA{} Kimko}{Hanushek\ \BBA{} Kimko}{{\APACyear {2000}}}}
\APACbibcite{Hanushek2000}{\citeauthoryear {Hanushek\ \BBA{} Kimko}{Hanushek\ \BBA{} Kimko}{{\APACyear {2000}}}}
\bibcite{Hanushek2007}{\citeauthoryear {Hanushek\ \BBA{} W{\"o}{\ss }mann}{Hanushek\ \BBA{} W{\"o}{\ss }mann}{{\APACyear {2007}}}}
\APACbibcite{Hanushek2007}{\citeauthoryear {Hanushek\ \BBA{} W{\"o}{\ss }mann}{Hanushek\ \BBA{} W{\"o}{\ss }mann}{{\APACyear {2007}}}}
\bibcite{Kremer2013}{\citeauthoryear {Kremer, Brannen,{}\ \BBA{} Glennerster}{Kremer\ \BOthers {.}}{{\APACyear {2013}}}}
\APACbibcite{Kremer2013}{\citeauthoryear {Kremer, Brannen,{}\ \BBA{} Glennerster}{Kremer\ \BOthers {.}}{{\APACyear {2013}}}}
\bibcite{Li2010}{\citeauthoryear {Li, Han, Rozelle,{}\ \BBA{} Zhang}{Li\ \BOthers {.}}{{\APACyear {2010}}}}
\APACbibcite{Li2010}{\citeauthoryear {Li, Han, Rozelle,{}\ \BBA{} Zhang}{Li\ \BOthers {.}}{{\APACyear {2010}}}}
\bibcite{McEwan2015}{\citeauthoryear {McEwan}{McEwan}{{\APACyear {2015}}}}
\APACbibcite{McEwan2015}{\citeauthoryear {McEwan}{McEwan}{{\APACyear {2015}}}}
\bibcite{Munley2010}{\citeauthoryear {Munley, Garvey,{}\ \BBA{} McConnell}{Munley\ \BOthers {.}}{{\APACyear {2010}}}}
\APACbibcite{Munley2010}{\citeauthoryear {Munley, Garvey,{}\ \BBA{} McConnell}{Munley\ \BOthers {.}}{{\APACyear {2010}}}}
\bibcite{Robinson2005}{\citeauthoryear {Robinson, Schofield,{}\ \BBA{} Steers-Wentzell}{Robinson\ \BOthers {.}}{{\APACyear {2005}}}}
\APACbibcite{Robinson2005}{\citeauthoryear {Robinson, Schofield,{}\ \BBA{} Steers-Wentzell}{Robinson\ \BOthers {.}}{{\APACyear {2005}}}}
\bibcite{Sacerdote2001}{\citeauthoryear {Sacerdote}{Sacerdote}{{\APACyear {2001}}}}
\APACbibcite{Sacerdote2001}{\citeauthoryear {Sacerdote}{Sacerdote}{{\APACyear {2001}}}}
\bibcite{Shenderovich2015}{\citeauthoryear {Shenderovich, Thurston,{}\ \BBA{} Miller}{Shenderovich\ \BOthers {.}}{{\APACyear {2015}}}}
\APACbibcite{Shenderovich2015}{\citeauthoryear {Shenderovich, Thurston,{}\ \BBA{} Miller}{Shenderovich\ \BOthers {.}}{{\APACyear {2015}}}}
\bibcite{3ie2016impact}{\citeauthoryear {Snilstveit\ \BOthers {.}}{Snilstveit\ \BOthers {.}}{{\APACyear {2016}}}}
\APACbibcite{3ie2016impact}{\citeauthoryear {Snilstveit\ \BOthers {.}}{Snilstveit\ \BOthers {.}}{{\APACyear {2016}}}}
\bibcite{Zimmerman2003}{\citeauthoryear {Zimmerman}{Zimmerman}{{\APACyear {2003}}}}
\APACbibcite{Zimmerman2003}{\citeauthoryear {Zimmerman}{Zimmerman}{{\APACyear {2003}}}}
\@writefile{nav}{\headcommand {\sectionentry {7}{}{44}{}{0}}}
\@writefile{nav}{\headcommand {\beamer@sectionpages {41}{43}}}
\@writefile{nav}{\headcommand {\beamer@subsectionpages {41}{43}}}
\@writefile{toc}{\contentsline {section}{}}
\@writefile{nav}{\headcommand {\slideentry {7}{0}{0}{44/44}{}{0}}}
\@writefile{nav}{\headcommand {\beamer@framepages {44}{44}}}
\@writefile{nav}{\headcommand {\slideentry {7}{0}{0}{44/45}{}{0}}}
\@writefile{nav}{\headcommand {\beamer@framepages {44}{45}}}
\@writefile{nav}{\headcommand {\slideentry {7}{0}{0}{44/46}{}{0}}}
\@writefile{nav}{\headcommand {\beamer@framepages {44}{46}}}
\@writefile{nav}{\headcommand {\slideentry {7}{0}{0}{44/47}{}{0}}}
\@writefile{nav}{\headcommand {\beamer@framepages {44}{47}}}
\@writefile{nav}{\headcommand {\slideentry {7}{0}{0}{44/48}{}{0}}}
\@writefile{nav}{\headcommand {\beamer@framepages {44}{48}}}
\@writefile{nav}{\headcommand {\partentry {\translate  {Appendix}}{1}}}
\@writefile{nav}{\headcommand {\beamer@partpages {1}{48}}}
\@writefile{nav}{\headcommand {\beamer@sectionpages {41}{48}}}
\@writefile{nav}{\headcommand {\beamer@subsectionpages {41}{48}}}
\@writefile{nav}{\headcommand {\beamer@appendixpages {49}}}
\@writefile{toc}{\beamer@sectionintoc {8}{Extra slides}{49}{1}{7}}
\@writefile{nav}{\headcommand {\sectionentry {8}{Extra slides}{49}{Extra slides}{1}}}
\@writefile{nav}{\headcommand {\beamer@sectionpages {49}{48}}}
\@writefile{nav}{\headcommand {\beamer@subsectionpages {49}{48}}}
\@writefile{nav}{\headcommand {\slideentry {8}{0}{1}{49/49}{}{1}}}
\@writefile{nav}{\headcommand {\beamer@framepages {49}{49}}}
\newlabel{mean_tutor1<1>}{{40}{50}{Extra slides}{Doc-Start}{}}
\@writefile{snm}{\beamer@slide {mean_tutor1<1>}{50}}
\newlabel{mean_tutor1}{{40}{50}{Extra slides}{Doc-Start}{}}
\@writefile{snm}{\beamer@slide {mean_tutor1}{50}}
\newlabel{tab:mean_tutor1}{{11}{50}{\relax }{Doc-Start}{}}
\@writefile{snm}{\beamer@slide {tab:mean_tutor1}{50}}
\@writefile{nav}{\headcommand {\slideentry {8}{0}{2}{50/50}{}{1}}}
\@writefile{nav}{\headcommand {\beamer@framepages {50}{50}}}
\newlabel{median_tutor1<1>}{{41}{51}{Extra slides}{Doc-Start}{}}
\@writefile{snm}{\beamer@slide {median_tutor1<1>}{51}}
\newlabel{median_tutor1}{{41}{51}{Extra slides}{Doc-Start}{}}
\@writefile{snm}{\beamer@slide {median_tutor1}{51}}
\newlabel{tab:median_tutor1}{{12}{51}{\relax }{Doc-Start}{}}
\@writefile{snm}{\beamer@slide {tab:median_tutor1}{51}}
\@writefile{nav}{\headcommand {\slideentry {8}{0}{3}{51/51}{}{1}}}
\@writefile{nav}{\headcommand {\beamer@framepages {51}{51}}}
\newlabel{sd_tutor1<1>}{{42}{52}{Extra slides}{Doc-Start}{}}
\@writefile{snm}{\beamer@slide {sd_tutor1<1>}{52}}
\newlabel{sd_tutor1}{{42}{52}{Extra slides}{Doc-Start}{}}
\@writefile{snm}{\beamer@slide {sd_tutor1}{52}}
\newlabel{tab:sd_tutor1}{{13}{52}{\relax }{Doc-Start}{}}
\@writefile{snm}{\beamer@slide {tab:sd_tutor1}{52}}
\@writefile{nav}{\headcommand {\slideentry {8}{0}{4}{52/52}{}{1}}}
\@writefile{nav}{\headcommand {\beamer@framepages {52}{52}}}
\newlabel{het_gender_tutor<1>}{{43}{53}{Extra slides}{Doc-Start}{}}
\@writefile{snm}{\beamer@slide {het_gender_tutor<1>}{53}}
\newlabel{het_gender_tutor}{{43}{53}{Extra slides}{Doc-Start}{}}
\@writefile{snm}{\beamer@slide {het_gender_tutor}{53}}
\newlabel{tab:het_gender_tutor}{{14}{53}{\relax }{Doc-Start}{}}
\@writefile{snm}{\beamer@slide {tab:het_gender_tutor}{53}}
\@writefile{nav}{\headcommand {\slideentry {8}{0}{5}{53/53}{}{1}}}
\@writefile{nav}{\headcommand {\beamer@framepages {53}{53}}}
\newlabel{het_age_tutor<1>}{{44}{54}{Extra slides}{Doc-Start}{}}
\@writefile{snm}{\beamer@slide {het_age_tutor<1>}{54}}
\newlabel{het_age_tutor}{{44}{54}{Extra slides}{Doc-Start}{}}
\@writefile{snm}{\beamer@slide {het_age_tutor}{54}}
\newlabel{tab:het_age_tutor}{{15}{54}{\relax }{Doc-Start}{}}
\@writefile{snm}{\beamer@slide {tab:het_age_tutor}{54}}
\@writefile{nav}{\headcommand {\slideentry {8}{0}{6}{54/54}{}{1}}}
\@writefile{nav}{\headcommand {\beamer@framepages {54}{54}}}
\newlabel{het_age_pupil<1>}{{45}{55}{Extra slides}{Doc-Start}{}}
\@writefile{snm}{\beamer@slide {het_age_pupil<1>}{55}}
\newlabel{het_age_pupil}{{45}{55}{Extra slides}{Doc-Start}{}}
\@writefile{snm}{\beamer@slide {het_age_pupil}{55}}
\newlabel{tab:het_age_pupil}{{16}{55}{\relax }{Doc-Start}{}}
\@writefile{snm}{\beamer@slide {tab:het_age_pupil}{55}}
\@writefile{nav}{\headcommand {\slideentry {8}{0}{7}{55/55}{}{1}}}
\@writefile{nav}{\headcommand {\beamer@framepages {55}{55}}}
\newlabel{het_gender_pupil<1>}{{46}{56}{Extra slides}{Doc-Start}{}}
\@writefile{snm}{\beamer@slide {het_gender_pupil<1>}{56}}
\newlabel{het_gender_pupil}{{46}{56}{Extra slides}{Doc-Start}{}}
\@writefile{snm}{\beamer@slide {het_gender_pupil}{56}}
\newlabel{tab:het_age_pupil}{{17}{56}{\relax }{Doc-Start}{}}
\@writefile{snm}{\beamer@slide {tab:het_age_pupil}{56}}
\@writefile{nav}{\headcommand {\slideentry {8}{0}{8}{56/56}{}{1}}}
\@writefile{nav}{\headcommand {\beamer@framepages {56}{56}}}
\newlabel{het_ageBridge_pupil<1>}{{47}{57}{Extra slides}{Doc-Start}{}}
\@writefile{snm}{\beamer@slide {het_ageBridge_pupil<1>}{57}}
\newlabel{het_ageBridge_pupil}{{47}{57}{Extra slides}{Doc-Start}{}}
\@writefile{snm}{\beamer@slide {het_ageBridge_pupil}{57}}
\newlabel{tab:het_ageBridge_pupil}{{18}{57}{\relax }{Doc-Start}{}}
\@writefile{snm}{\beamer@slide {tab:het_ageBridge_pupil}{57}}
\@writefile{nav}{\headcommand {\slideentry {8}{0}{9}{57/57}{}{1}}}
\@writefile{nav}{\headcommand {\beamer@framepages {57}{57}}}
\newlabel{het_enrollment<1>}{{48}{58}{Extra slides}{Doc-Start}{}}
\@writefile{snm}{\beamer@slide {het_enrollment<1>}{58}}
\newlabel{het_enrollment}{{48}{58}{Extra slides}{Doc-Start}{}}
\@writefile{snm}{\beamer@slide {het_enrollment}{58}}
\newlabel{tab:het_enrollment}{{19}{58}{\relax }{Doc-Start}{}}
\@writefile{snm}{\beamer@slide {tab:het_enrollment}{58}}
\@writefile{nav}{\headcommand {\slideentry {8}{0}{10}{58/58}{}{1}}}
\@writefile{nav}{\headcommand {\beamer@framepages {58}{58}}}
\newlabel{het_PTR<1>}{{49}{59}{Extra slides}{Doc-Start}{}}
\@writefile{snm}{\beamer@slide {het_PTR<1>}{59}}
\newlabel{het_PTR}{{49}{59}{Extra slides}{Doc-Start}{}}
\@writefile{snm}{\beamer@slide {het_PTR}{59}}
\newlabel{tab:het_PTR}{{20}{59}{\relax }{Doc-Start}{}}
\@writefile{snm}{\beamer@slide {tab:het_PTR}{59}}
\@writefile{nav}{\headcommand {\slideentry {8}{0}{11}{59/59}{}{1}}}
\@writefile{nav}{\headcommand {\beamer@framepages {59}{59}}}
\newlabel{het_TTR<1>}{{50}{60}{Extra slides}{Doc-Start}{}}
\@writefile{snm}{\beamer@slide {het_TTR<1>}{60}}
\newlabel{het_TTR}{{50}{60}{Extra slides}{Doc-Start}{}}
\@writefile{snm}{\beamer@slide {het_TTR}{60}}
\newlabel{tab:het_TTR}{{21}{60}{\relax }{Doc-Start}{}}
\@writefile{snm}{\beamer@slide {tab:het_TTR}{60}}
\@writefile{nav}{\headcommand {\slideentry {8}{0}{12}{60/60}{}{1}}}
\@writefile{nav}{\headcommand {\beamer@framepages {60}{60}}}
\@writefile{nav}{\headcommand {\beamer@partpages {49}{60}}}
\@writefile{nav}{\headcommand {\beamer@subsectionpages {49}{60}}}
\@writefile{nav}{\headcommand {\beamer@sectionpages {49}{60}}}
\@writefile{nav}{\headcommand {\beamer@documentpages {60}}}
\@writefile{nav}{\headcommand {\def \inserttotalframenumber {50}}}
\zref@newlabel{LastPage}{\default{8}\page{60}\abspage{60}}
