\beamer@endinputifotherversion {3.36pt}
\beamer@sectionintoc {1}{Motivation}{2}{0}{1}
\beamer@sectionintoc {2}{Design}{12}{0}{2}
\beamer@sectionintoc {3}{Results}{25}{0}{3}
\beamer@sectionintoc {4}{Heterogeneity}{28}{0}{4}
\beamer@sectionintoc {5}{Attrition}{36}{0}{5}
\beamer@sectionintoc {6}{Closing remarks}{41}{0}{6}
\contentsline {section}{}
\beamer@sectionintoc {8}{Extra slides}{49}{1}{7}
