\beamer@endinputifotherversion {3.36pt}
\beamer@sectionintoc {1}{Motivation}{2}{0}{1}
\beamer@sectionintoc {2}{Design}{15}{0}{2}
\beamer@sectionintoc {3}{Results}{26}{0}{3}
\beamer@sectionintoc {4}{Heterogeneity}{29}{0}{4}
\beamer@sectionintoc {5}{Closing remarks}{33}{0}{5}
\contentsline {section}{}
\beamer@sectionintoc {7}{Extra slides}{39}{1}{6}
