\relax 
\providecommand\hyper@newdestlabel[2]{}
\providecommand\zref@newlabel[2]{}
\providecommand\HyperFirstAtBeginDocument{\AtBeginDocument}
\HyperFirstAtBeginDocument{\ifx\hyper@anchor\@undefined
\global\let\oldcontentsline\contentsline
\gdef\contentsline#1#2#3#4{\oldcontentsline{#1}{#2}{#3}}
\global\let\oldnewlabel\newlabel
\gdef\newlabel#1#2{\newlabelxx{#1}#2}
\gdef\newlabelxx#1#2#3#4#5#6{\oldnewlabel{#1}{{#2}{#3}}}
\AtEndDocument{\ifx\hyper@anchor\@undefined
\let\contentsline\oldcontentsline
\let\newlabel\oldnewlabel
\fi}
\fi}
\global\let\hyper@last\relax 
\gdef\HyperFirstAtBeginDocument#1{#1}
\providecommand\HyField@AuxAddToFields[1]{}
\providecommand\HyField@AuxAddToCoFields[2]{}
\providecommand\AtEndDvi@Check{}
\AtEndDvi@Check
\providecommand \oddpage@label [2]{}
\@writefile{toc}{\beamer@endinputifotherversion {3.36pt}}
\@writefile{nav}{\beamer@endinputifotherversion {3.36pt}}
\@writefile{nav}{\headcommand {\slideentry {0}{0}{1}{1/1}{}{0}}}
\@writefile{nav}{\headcommand {\beamer@framepages {1}{1}}}
\citation{Hanushek2000}
\citation{Hanushek2007}
\citation{Kremer2013}
\citation{McEwan2015}
\citation{Ganimian2016}
\citation{3ie2016impact}
\citation{Banerjee2007}
\citation{Duflo2011}
\citation{Duflo2015}
\@writefile{toc}{\beamer@sectionintoc {1}{Motivation}{2}{0}{1}}
\@writefile{nav}{\headcommand {\sectionentry {1}{Motivation}{2}{Motivation}{0}}}
\@writefile{nav}{\headcommand {\beamer@sectionpages {1}{1}}}
\@writefile{nav}{\headcommand {\beamer@subsectionpages {1}{1}}}
\citation{Hanushek2000}
\citation{Hanushek2007}
\citation{Kremer2013}
\citation{McEwan2015}
\citation{Ganimian2016}
\citation{3ie2016impact}
\citation{Banerjee2007}
\citation{Duflo2011}
\citation{Duflo2015}
\citation{Hanushek2000}
\citation{Hanushek2007}
\citation{Kremer2013}
\citation{McEwan2015}
\citation{Ganimian2016}
\citation{3ie2016impact}
\citation{Banerjee2007}
\citation{Duflo2011}
\citation{Duflo2015}
\citation{Hanushek2000}
\citation{Hanushek2007}
\citation{Kremer2013}
\citation{McEwan2015}
\citation{Ganimian2016}
\citation{3ie2016impact}
\citation{Banerjee2007}
\citation{Duflo2011}
\citation{Duflo2015}
\citation{Hanushek2000}
\citation{Hanushek2007}
\citation{Kremer2013}
\citation{McEwan2015}
\citation{Ganimian2016}
\citation{3ie2016impact}
\citation{Banerjee2007}
\citation{Duflo2011}
\citation{Duflo2015}
\citation{Hanushek2000}
\citation{Hanushek2007}
\citation{Kremer2013}
\citation{McEwan2015}
\citation{Ganimian2016}
\citation{3ie2016impact}
\citation{Banerjee2007}
\citation{Duflo2011}
\citation{Duflo2015}
\citation{Hanushek2000}
\citation{Hanushek2007}
\citation{Kremer2013}
\citation{McEwan2015}
\citation{Ganimian2016}
\citation{3ie2016impact}
\citation{Banerjee2007}
\citation{Duflo2011}
\citation{Duflo2015}
\citation{Hanushek2000}
\citation{Hanushek2007}
\citation{Kremer2013}
\citation{McEwan2015}
\citation{Ganimian2016}
\citation{3ie2016impact}
\citation{Banerjee2007}
\citation{Duflo2011}
\citation{Duflo2015}
\@writefile{nav}{\headcommand {\slideentry {1}{0}{1}{2/9}{}{0}}}
\@writefile{nav}{\headcommand {\beamer@framepages {2}{9}}}
\@writefile{nav}{\headcommand {\slideentry {1}{0}{2}{10/14}{}{0}}}
\@writefile{nav}{\headcommand {\beamer@framepages {10}{14}}}
\@writefile{toc}{\beamer@sectionintoc {2}{Design}{15}{0}{2}}
\@writefile{nav}{\headcommand {\sectionentry {2}{Design}{15}{Design}{0}}}
\@writefile{nav}{\headcommand {\beamer@sectionpages {2}{14}}}
\@writefile{nav}{\headcommand {\beamer@subsectionpages {2}{14}}}
\@writefile{nav}{\headcommand {\slideentry {2}{0}{1}{15/15}{}{0}}}
\@writefile{nav}{\headcommand {\beamer@framepages {15}{15}}}
\@writefile{nav}{\headcommand {\slideentry {2}{0}{2}{16/16}{}{0}}}
\@writefile{nav}{\headcommand {\beamer@framepages {16}{16}}}
\@writefile{nav}{\headcommand {\slideentry {2}{0}{3}{17/17}{}{0}}}
\@writefile{nav}{\headcommand {\beamer@framepages {17}{17}}}
\newlabel{intervention<1>}{{7}{18}{Design}{Doc-Start}{}}
\@writefile{snm}{\beamer@slide {intervention<1>}{18}}
\newlabel{intervention}{{7}{18}{Design}{Doc-Start}{}}
\@writefile{snm}{\beamer@slide {intervention}{18}}
\newlabel{intervention<2>}{{7}{19}{Design}{Doc-Start}{}}
\@writefile{snm}{\beamer@slide {intervention<2>}{19}}
\newlabel{intervention<3>}{{7}{20}{Design}{Doc-Start}{}}
\@writefile{snm}{\beamer@slide {intervention<3>}{20}}
\newlabel{intervention<4>}{{7}{21}{Design}{Doc-Start}{}}
\@writefile{snm}{\beamer@slide {intervention<4>}{21}}
\@writefile{nav}{\headcommand {\slideentry {2}{0}{4}{18/21}{}{0}}}
\@writefile{nav}{\headcommand {\beamer@framepages {18}{21}}}
\@writefile{nav}{\headcommand {\slideentry {2}{0}{5}{22/22}{}{0}}}
\@writefile{nav}{\headcommand {\beamer@framepages {22}{22}}}
\@writefile{nav}{\headcommand {\slideentry {2}{0}{6}{23/24}{}{0}}}
\@writefile{nav}{\headcommand {\beamer@framepages {23}{24}}}
\newlabel{balance<1>}{{10}{25}{Design}{Doc-Start}{}}
\@writefile{snm}{\beamer@slide {balance<1>}{25}}
\newlabel{balance}{{10}{25}{Design}{Doc-Start}{}}
\@writefile{snm}{\beamer@slide {balance}{25}}
\@writefile{nav}{\headcommand {\slideentry {2}{0}{7}{25/25}{}{0}}}
\@writefile{nav}{\headcommand {\beamer@framepages {25}{25}}}
\@writefile{toc}{\beamer@sectionintoc {3}{Results}{26}{0}{3}}
\@writefile{nav}{\headcommand {\sectionentry {3}{Results}{26}{Results}{0}}}
\@writefile{nav}{\headcommand {\beamer@sectionpages {15}{25}}}
\@writefile{nav}{\headcommand {\beamer@subsectionpages {15}{25}}}
\@writefile{nav}{\headcommand {\slideentry {3}{0}{1}{26/26}{}{0}}}
\@writefile{nav}{\headcommand {\beamer@framepages {26}{26}}}
\providecommand*\caption@xref[2]{\@setref\relax\@undefined{#1}}
\newlabel{tab:effect_pupils}{{1}{27}{Effect on pupils\relax }{Doc-Start}{}}
\@writefile{snm}{\beamer@slide {tab:effect_pupils}{27}}
\@writefile{nav}{\headcommand {\slideentry {3}{0}{2}{27/27}{}{0}}}
\@writefile{nav}{\headcommand {\beamer@framepages {27}{27}}}
\newlabel{tab:effect_tutors}{{2}{28}{Effect on tutors\relax }{Doc-Start}{}}
\@writefile{snm}{\beamer@slide {tab:effect_tutors}{28}}
\@writefile{nav}{\headcommand {\slideentry {3}{0}{3}{28/28}{}{0}}}
\@writefile{nav}{\headcommand {\beamer@framepages {28}{28}}}
\@writefile{toc}{\beamer@sectionintoc {4}{Heterogeneity}{29}{0}{4}}
\@writefile{nav}{\headcommand {\sectionentry {4}{Heterogeneity}{29}{Heterogeneity}{0}}}
\@writefile{nav}{\headcommand {\beamer@sectionpages {26}{28}}}
\@writefile{nav}{\headcommand {\beamer@subsectionpages {26}{28}}}
\@writefile{nav}{\headcommand {\slideentry {4}{0}{1}{29/29}{}{0}}}
\@writefile{nav}{\headcommand {\beamer@framepages {29}{29}}}
\@writefile{nav}{\headcommand {\slideentry {4}{0}{2}{30/30}{}{0}}}
\@writefile{nav}{\headcommand {\beamer@framepages {30}{30}}}
\newlabel{fig:treat_baseline_math_withoutT2E}{{1}{31}{Bars represent 90\% and 95\% confidence intervals (thick lines and thin lines, respectively).\relax }{Doc-Start}{}}
\@writefile{snm}{\beamer@slide {fig:treat_baseline_math_withoutT2E}{31}}
\@writefile{nav}{\headcommand {\slideentry {4}{0}{3}{31/31}{}{0}}}
\@writefile{nav}{\headcommand {\beamer@framepages {31}{31}}}
\newlabel{hetero<1>}{{17}{32}{Heterogeneity}{Doc-Start}{}}
\@writefile{snm}{\beamer@slide {hetero<1>}{32}}
\newlabel{hetero}{{17}{32}{Heterogeneity}{Doc-Start}{}}
\@writefile{snm}{\beamer@slide {hetero}{32}}
\@writefile{nav}{\headcommand {\slideentry {4}{0}{4}{32/32}{}{0}}}
\@writefile{nav}{\headcommand {\beamer@framepages {32}{32}}}
\@writefile{toc}{\beamer@sectionintoc {5}{Closing remarks}{33}{0}{5}}
\@writefile{nav}{\headcommand {\sectionentry {5}{Closing remarks}{33}{Closing remarks}{0}}}
\@writefile{nav}{\headcommand {\beamer@sectionpages {29}{32}}}
\@writefile{nav}{\headcommand {\beamer@subsectionpages {29}{32}}}
\@writefile{nav}{\headcommand {\slideentry {5}{0}{1}{33/33}{}{0}}}
\@writefile{nav}{\headcommand {\beamer@framepages {33}{33}}}
\@writefile{nav}{\headcommand {\slideentry {5}{0}{2}{34/34}{}{0}}}
\@writefile{nav}{\headcommand {\beamer@framepages {34}{34}}}
\@writefile{nav}{\headcommand {\slideentry {5}{0}{3}{35/35}{}{0}}}
\@writefile{nav}{\headcommand {\beamer@framepages {35}{35}}}
\bibstyle{apacite}
\bibdata{CrossAgeBib}
\bibcite{Banerjee2007}{\citeauthoryear {Banerjee, Cole, Duflo,{}\ \BBA{} Linden}{Banerjee\ \BOthers {.}}{{\APACyear {2007}}}}
\APACbibcite{Banerjee2007}{\citeauthoryear {Banerjee, Cole, Duflo,{}\ \BBA{} Linden}{Banerjee\ \BOthers {.}}{{\APACyear {2007}}}}
\bibcite{Duflo2015}{\citeauthoryear {Duflo, Berry, Mukerji,{}\ \BBA{} Shotland}{Duflo\ \BOthers {.}}{{\APACyear {2015}}}}
\APACbibcite{Duflo2015}{\citeauthoryear {Duflo, Berry, Mukerji,{}\ \BBA{} Shotland}{Duflo\ \BOthers {.}}{{\APACyear {2015}}}}
\bibcite{Duflo2011}{\citeauthoryear {Duflo, Dupas,{}\ \BBA{} Kremer}{Duflo\ \BOthers {.}}{{\APACyear {2011}}}}
\APACbibcite{Duflo2011}{\citeauthoryear {Duflo, Dupas,{}\ \BBA{} Kremer}{Duflo\ \BOthers {.}}{{\APACyear {2011}}}}
\bibcite{Ganimian2016}{\citeauthoryear {Ganimian\ \BBA{} Murnane}{Ganimian\ \BBA{} Murnane}{{\APACyear {2016}}}}
\APACbibcite{Ganimian2016}{\citeauthoryear {Ganimian\ \BBA{} Murnane}{Ganimian\ \BBA{} Murnane}{{\APACyear {2016}}}}
\bibcite{Hanushek2000}{\citeauthoryear {Hanushek\ \BBA{} Kimko}{Hanushek\ \BBA{} Kimko}{{\APACyear {2000}}}}
\APACbibcite{Hanushek2000}{\citeauthoryear {Hanushek\ \BBA{} Kimko}{Hanushek\ \BBA{} Kimko}{{\APACyear {2000}}}}
\bibcite{Hanushek2007}{\citeauthoryear {Hanushek\ \BBA{} W{\"o}{\ss }mann}{Hanushek\ \BBA{} W{\"o}{\ss }mann}{{\APACyear {2007}}}}
\APACbibcite{Hanushek2007}{\citeauthoryear {Hanushek\ \BBA{} W{\"o}{\ss }mann}{Hanushek\ \BBA{} W{\"o}{\ss }mann}{{\APACyear {2007}}}}
\bibcite{Kremer2013}{\citeauthoryear {Kremer, Brannen,{}\ \BBA{} Glennerster}{Kremer\ \BOthers {.}}{{\APACyear {2013}}}}
\APACbibcite{Kremer2013}{\citeauthoryear {Kremer, Brannen,{}\ \BBA{} Glennerster}{Kremer\ \BOthers {.}}{{\APACyear {2013}}}}
\bibcite{McEwan2015}{\citeauthoryear {McEwan}{McEwan}{{\APACyear {2015}}}}
\APACbibcite{McEwan2015}{\citeauthoryear {McEwan}{McEwan}{{\APACyear {2015}}}}
\bibcite{3ie2016impact}{\citeauthoryear {Snilstveit\ \BOthers {.}}{Snilstveit\ \BOthers {.}}{{\APACyear {2016}}}}
\APACbibcite{3ie2016impact}{\citeauthoryear {Snilstveit\ \BOthers {.}}{Snilstveit\ \BOthers {.}}{{\APACyear {2016}}}}
\@writefile{nav}{\headcommand {\sectionentry {6}{}{36}{}{0}}}
\@writefile{nav}{\headcommand {\beamer@sectionpages {33}{35}}}
\@writefile{nav}{\headcommand {\beamer@subsectionpages {33}{35}}}
\@writefile{toc}{\contentsline {section}{}}
\@writefile{nav}{\headcommand {\slideentry {6}{0}{0}{36/36}{}{0}}}
\@writefile{nav}{\headcommand {\beamer@framepages {36}{36}}}
\@writefile{nav}{\headcommand {\slideentry {6}{0}{0}{36/37}{}{0}}}
\@writefile{nav}{\headcommand {\beamer@framepages {36}{37}}}
\@writefile{nav}{\headcommand {\slideentry {6}{0}{0}{36/38}{}{0}}}
\@writefile{nav}{\headcommand {\beamer@framepages {36}{38}}}
\@writefile{nav}{\headcommand {\partentry {\translate  {Appendix}}{1}}}
\@writefile{nav}{\headcommand {\beamer@partpages {1}{38}}}
\@writefile{nav}{\headcommand {\beamer@sectionpages {33}{38}}}
\@writefile{nav}{\headcommand {\beamer@subsectionpages {33}{38}}}
\@writefile{nav}{\headcommand {\beamer@appendixpages {39}}}
\@writefile{toc}{\beamer@sectionintoc {7}{Extra slides}{39}{1}{6}}
\@writefile{nav}{\headcommand {\sectionentry {7}{Extra slides}{39}{Extra slides}{1}}}
\@writefile{nav}{\headcommand {\beamer@sectionpages {39}{38}}}
\@writefile{nav}{\headcommand {\beamer@subsectionpages {39}{38}}}
\@writefile{nav}{\headcommand {\slideentry {7}{0}{1}{39/39}{}{1}}}
\@writefile{nav}{\headcommand {\beamer@framepages {39}{39}}}
\newlabel{age<1>}{{25}{40}{Extra slides}{Doc-Start}{}}
\@writefile{snm}{\beamer@slide {age<1>}{40}}
\newlabel{age}{{25}{40}{Extra slides}{Doc-Start}{}}
\@writefile{snm}{\beamer@slide {age}{40}}
\newlabel{fig:age}{{2}{40}{Age distribution across grades\relax }{Doc-Start}{}}
\@writefile{snm}{\beamer@slide {fig:age}{40}}
\@writefile{nav}{\headcommand {\slideentry {7}{0}{2}{40/40}{}{1}}}
\@writefile{nav}{\headcommand {\beamer@framepages {40}{40}}}
\newlabel{math_tutoring<1>}{{26}{41}{Extra slides}{Doc-Start}{}}
\@writefile{snm}{\beamer@slide {math_tutoring<1>}{41}}
\newlabel{math_tutoring}{{26}{41}{Extra slides}{Doc-Start}{}}
\@writefile{snm}{\beamer@slide {math_tutoring}{41}}
\@writefile{nav}{\headcommand {\slideentry {7}{0}{3}{41/41}{}{1}}}
\@writefile{nav}{\headcommand {\beamer@framepages {41}{41}}}
\newlabel{english_tutoring<1>}{{27}{42}{Extra slides}{Doc-Start}{}}
\@writefile{snm}{\beamer@slide {english_tutoring<1>}{42}}
\newlabel{english_tutoring}{{27}{42}{Extra slides}{Doc-Start}{}}
\@writefile{snm}{\beamer@slide {english_tutoring}{42}}
\@writefile{nav}{\headcommand {\slideentry {7}{0}{4}{42/42}{}{1}}}
\@writefile{nav}{\headcommand {\beamer@framepages {42}{42}}}
\newlabel{grade<1>}{{28}{43}{Extra slides}{Doc-Start}{}}
\@writefile{snm}{\beamer@slide {grade<1>}{43}}
\newlabel{grade}{{28}{43}{Extra slides}{Doc-Start}{}}
\@writefile{snm}{\beamer@slide {grade}{43}}
\@writefile{nav}{\headcommand {\slideentry {7}{0}{5}{43/43}{}{1}}}
\@writefile{nav}{\headcommand {\beamer@framepages {43}{43}}}
\newlabel{pupils<1>}{{29}{44}{Extra slides}{Doc-Start}{}}
\@writefile{snm}{\beamer@slide {pupils<1>}{44}}
\newlabel{pupils}{{29}{44}{Extra slides}{Doc-Start}{}}
\@writefile{snm}{\beamer@slide {pupils}{44}}
\newlabel{tab:het_tutees_withoutT2ET}{{3}{44}{Heterogeneity by tutees' characteristics\relax }{Doc-Start}{}}
\@writefile{snm}{\beamer@slide {tab:het_tutees_withoutT2ET}{44}}
\@writefile{nav}{\headcommand {\slideentry {7}{0}{6}{44/44}{}{1}}}
\@writefile{nav}{\headcommand {\beamer@framepages {44}{44}}}
\newlabel{tutors<1>}{{30}{45}{Extra slides}{Doc-Start}{}}
\@writefile{snm}{\beamer@slide {tutors<1>}{45}}
\newlabel{tutors}{{30}{45}{Extra slides}{Doc-Start}{}}
\@writefile{snm}{\beamer@slide {tutors}{45}}
\newlabel{tab:het_tutors_withoutT2ET}{{4}{45}{Heterogeneity by tutors' characteristics\relax }{Doc-Start}{}}
\@writefile{snm}{\beamer@slide {tab:het_tutors_withoutT2ET}{45}}
\@writefile{nav}{\headcommand {\slideentry {7}{0}{7}{45/45}{}{1}}}
\@writefile{nav}{\headcommand {\beamer@framepages {45}{45}}}
\newlabel{school<1>}{{31}{46}{Extra slides}{Doc-Start}{}}
\@writefile{snm}{\beamer@slide {school<1>}{46}}
\newlabel{school}{{31}{46}{Extra slides}{Doc-Start}{}}
\@writefile{snm}{\beamer@slide {school}{46}}
\newlabel{tab:het_school_withoutT2ET}{{5}{46}{Heterogeneity by school characteristics\relax }{Doc-Start}{}}
\@writefile{snm}{\beamer@slide {tab:het_school_withoutT2ET}{46}}
\@writefile{nav}{\headcommand {\slideentry {7}{0}{8}{46/46}{}{1}}}
\@writefile{nav}{\headcommand {\beamer@framepages {46}{46}}}
\newlabel{attrition<1>}{{32}{47}{Extra slides}{Doc-Start}{}}
\@writefile{snm}{\beamer@slide {attrition<1>}{47}}
\newlabel{attrition}{{32}{47}{Extra slides}{Doc-Start}{}}
\@writefile{snm}{\beamer@slide {attrition}{47}}
\newlabel{tab:attrition}{{6}{47}{Tested\relax }{Doc-Start}{}}
\@writefile{snm}{\beamer@slide {tab:attrition}{47}}
\@writefile{nav}{\headcommand {\slideentry {7}{0}{9}{47/47}{}{1}}}
\@writefile{nav}{\headcommand {\beamer@framepages {47}{47}}}
\newlabel{attrition2<1>}{{33}{48}{Extra slides}{Doc-Start}{}}
\@writefile{snm}{\beamer@slide {attrition2<1>}{48}}
\newlabel{attrition2}{{33}{48}{Extra slides}{Doc-Start}{}}
\@writefile{snm}{\beamer@slide {attrition2}{48}}
\newlabel{tab:Evolv_Tested}{{7}{48}{Missing data\relax }{Doc-Start}{}}
\@writefile{snm}{\beamer@slide {tab:Evolv_Tested}{48}}
\@writefile{nav}{\headcommand {\slideentry {7}{0}{10}{48/48}{}{1}}}
\@writefile{nav}{\headcommand {\beamer@framepages {48}{48}}}
\newlabel{attrition3<1>}{{34}{49}{Extra slides}{Doc-Start}{}}
\@writefile{snm}{\beamer@slide {attrition3<1>}{49}}
\newlabel{attrition3}{{34}{49}{Extra slides}{Doc-Start}{}}
\@writefile{snm}{\beamer@slide {attrition3}{49}}
\newlabel{fig:testing_rates}{{3}{49}{Difference in testing rates across English and math tutoring in each period. Bars show 95\% confidence intervals.\relax }{Doc-Start}{}}
\@writefile{snm}{\beamer@slide {fig:testing_rates}{49}}
\@writefile{nav}{\headcommand {\slideentry {7}{0}{11}{49/49}{}{1}}}
\@writefile{nav}{\headcommand {\beamer@framepages {49}{49}}}
\newlabel{balance_school<1>}{{35}{50}{Extra slides}{Doc-Start}{}}
\@writefile{snm}{\beamer@slide {balance_school<1>}{50}}
\newlabel{balance_school}{{35}{50}{Extra slides}{Doc-Start}{}}
\@writefile{snm}{\beamer@slide {balance_school}{50}}
\newlabel{tab:balance_school}{{8}{50}{Balance in school characteristics\relax }{Doc-Start}{}}
\@writefile{snm}{\beamer@slide {tab:balance_school}{50}}
\@writefile{nav}{\headcommand {\slideentry {7}{0}{12}{50/50}{}{1}}}
\@writefile{nav}{\headcommand {\beamer@framepages {50}{50}}}
\newlabel{balance_pupils<1>}{{36}{51}{Extra slides}{Doc-Start}{}}
\@writefile{snm}{\beamer@slide {balance_pupils<1>}{51}}
\newlabel{balance_pupils}{{36}{51}{Extra slides}{Doc-Start}{}}
\@writefile{snm}{\beamer@slide {balance_pupils}{51}}
\newlabel{tab:balance_pupils}{{9}{51}{Balance in pupil's characteristics: ECE, Standard 1 and Standard 2\relax }{Doc-Start}{}}
\@writefile{snm}{\beamer@slide {tab:balance_pupils}{51}}
\@writefile{nav}{\headcommand {\slideentry {7}{0}{13}{51/51}{}{1}}}
\@writefile{nav}{\headcommand {\beamer@framepages {51}{51}}}
\newlabel{balance_tutors<1>}{{37}{52}{Extra slides}{Doc-Start}{}}
\@writefile{snm}{\beamer@slide {balance_tutors<1>}{52}}
\newlabel{balance_tutors}{{37}{52}{Extra slides}{Doc-Start}{}}
\@writefile{snm}{\beamer@slide {balance_tutors}{52}}
\newlabel{tab:balance_tutors}{{10}{52}{Balance in pupil's characteristics: Standard 3 - Standard 7\relax }{Doc-Start}{}}
\@writefile{snm}{\beamer@slide {tab:balance_tutors}{52}}
\@writefile{nav}{\headcommand {\slideentry {7}{0}{14}{52/52}{}{1}}}
\@writefile{nav}{\headcommand {\beamer@framepages {52}{52}}}
\@writefile{nav}{\headcommand {\beamer@partpages {39}{52}}}
\@writefile{nav}{\headcommand {\beamer@subsectionpages {39}{52}}}
\@writefile{nav}{\headcommand {\beamer@sectionpages {39}{52}}}
\@writefile{nav}{\headcommand {\beamer@documentpages {52}}}
\@writefile{nav}{\headcommand {\def \inserttotalframenumber {37}}}
\zref@newlabel{LastPage}{\default{7}\page{52}\abspage{52}}
