This is BibTeX, Version 0.99dThe top-level auxiliary file: PowerCalcYr2.aux
I found no \citation commands---while reading file PowerCalcYr2.aux
I found no \bibdata command---while reading file PowerCalcYr2.aux
I found no \bibstyle command---while reading file PowerCalcYr2.aux
(There were 3 error messages)
