\relax 
\providecommand\hyper@newdestlabel[2]{}
\providecommand{\transparent@use}[1]{}
\providecommand\HyperFirstAtBeginDocument{\AtBeginDocument}
\HyperFirstAtBeginDocument{\ifx\hyper@anchor\@undefined
\global\let\oldcontentsline\contentsline
\gdef\contentsline#1#2#3#4{\oldcontentsline{#1}{#2}{#3}}
\global\let\oldnewlabel\newlabel
\gdef\newlabel#1#2{\newlabelxx{#1}#2}
\gdef\newlabelxx#1#2#3#4#5#6{\oldnewlabel{#1}{{#2}{#3}}}
\AtEndDocument{\ifx\hyper@anchor\@undefined
\let\contentsline\oldcontentsline
\let\newlabel\oldnewlabel
\fi}
\fi}
\global\let\hyper@last\relax 
\gdef\HyperFirstAtBeginDocument#1{#1}
\providecommand\HyField@AuxAddToFields[1]{}
\providecommand\HyField@AuxAddToCoFields[2]{}
\select@language{english}
\@writefile{toc}{\select@language{english}}
\@writefile{lof}{\select@language{english}}
\@writefile{lot}{\select@language{english}}
\@writefile{toc}{\contentsline {section}{\numberline {1}Regression analysis and power calculations}{1}{section.1}}
\@writefile{lot}{\contentsline {table}{\numberline {1}{\ignorespaces Add caption}}{3}{table.1}}
\newlabel{tab:addlabel}{{1}{3}{Add caption}{table.1}{}}
\@writefile{lot}{\contentsline {table}{\numberline {2}{\ignorespaces Add caption}}{3}{table.2}}
\newlabel{tab:addlabel}{{2}{3}{Add caption}{table.2}{}}
\@writefile{lot}{\contentsline {table}{\numberline {3}{\ignorespaces Add caption}}{4}{table.3}}
\newlabel{tab:addlabel}{{3}{4}{Add caption}{table.3}{}}
\@writefile{lot}{\contentsline {table}{\numberline {4}{\ignorespaces Add caption}}{7}{table.4}}
\newlabel{tab:addlabel}{{4}{7}{Add caption}{table.4}{}}
\@writefile{lot}{\contentsline {table}{\numberline {5}{\ignorespaces Add caption}}{7}{table.5}}
\newlabel{tab:addlabel}{{5}{7}{Add caption}{table.5}{}}
