\relax 
\providecommand\hyper@newdestlabel[2]{}
\providecommand\HyperFirstAtBeginDocument{\AtBeginDocument}
\HyperFirstAtBeginDocument{\ifx\hyper@anchor\@undefined
\global\let\oldcontentsline\contentsline
\gdef\contentsline#1#2#3#4{\oldcontentsline{#1}{#2}{#3}}
\global\let\oldnewlabel\newlabel
\gdef\newlabel#1#2{\newlabelxx{#1}#2}
\gdef\newlabelxx#1#2#3#4#5#6{\oldnewlabel{#1}{{#2}{#3}}}
\AtEndDocument{\ifx\hyper@anchor\@undefined
\let\contentsline\oldcontentsline
\let\newlabel\oldnewlabel
\fi}
\fi}
\global\let\hyper@last\relax 
\gdef\HyperFirstAtBeginDocument#1{#1}
\providecommand\HyField@AuxAddToFields[1]{}
\providecommand\HyField@AuxAddToCoFields[2]{}
\select@language{english}
\@writefile{toc}{\select@language{english}}
\@writefile{lof}{\select@language{english}}
\@writefile{lot}{\select@language{english}}
\@writefile{toc}{\contentsline {section}{\numberline {1}Introduction}{1}{section.1}}
\@writefile{toc}{\contentsline {section}{\numberline {2}Experimental Design}{1}{section.2}}
\@writefile{toc}{\contentsline {subsection}{\numberline {2.1}Context}{1}{subsection.2.1}}
\@writefile{toc}{\contentsline {subsection}{\numberline {2.2}Intervention}{1}{subsection.2.2}}
\@writefile{toc}{\contentsline {subsection}{\numberline {2.3}Sampling}{2}{subsection.2.3}}
\@writefile{lot}{\contentsline {table}{\numberline {1}{\ignorespaces Sample Balance across treatments }}{3}{table.1}}
\newlabel{tab:balance}{{1}{3}{Sample Balance across treatments}{table.1}{}}
\bibstyle{apacite}
\bibdata{}
\@writefile{lot}{\contentsline {table}{\numberline {2}{\ignorespaces Sample Balance across treatments }}{4}{table.2}}
\newlabel{tab:balance2}{{2}{4}{Sample Balance across treatments}{table.2}{}}
\@writefile{toc}{\contentsline {section}{\numberline {3}Data}{5}{section.3}}
\@writefile{toc}{\contentsline {section}{References}{6}{section*.1}}
\@writefile{toc}{\contentsline {section}{\numberline {A}Extra tables}{6}{appendix.A}}
\@writefile{lot}{\contentsline {table}{\numberline {3}{\ignorespaces Sample Balance across treatments }}{6}{table.3}}
\newlabel{tab:balance3}{{3}{6}{Sample Balance across treatments}{table.3}{}}
