This is BibTeX, Version 0.99dThe top-level auxiliary file: Preliminary.aux
The style file: apacite.bst
I couldn't open database file .bib
---line 31 of file Preliminary.aux
 : \bibdata{
 :          }
I'm skipping whatever remains of this command
I found no \citation commands---while reading file Preliminary.aux
I found no database files---while reading file Preliminary.aux
apacite.bst [2012/02/25 v6.01 APA bibliography style]
(There were 3 error messages)
