\relax 
\providecommand\hyper@newdestlabel[2]{}
\providecommand\zref@newlabel[2]{}
\providecommand\HyperFirstAtBeginDocument{\AtBeginDocument}
\HyperFirstAtBeginDocument{\ifx\hyper@anchor\@undefined
\global\let\oldcontentsline\contentsline
\gdef\contentsline#1#2#3#4{\oldcontentsline{#1}{#2}{#3}}
\global\let\oldnewlabel\newlabel
\gdef\newlabel#1#2{\newlabelxx{#1}#2}
\gdef\newlabelxx#1#2#3#4#5#6{\oldnewlabel{#1}{{#2}{#3}}}
\AtEndDocument{\ifx\hyper@anchor\@undefined
\let\contentsline\oldcontentsline
\let\newlabel\oldnewlabel
\fi}
\fi}
\global\let\hyper@last\relax 
\gdef\HyperFirstAtBeginDocument#1{#1}
\providecommand\HyField@AuxAddToFields[1]{}
\providecommand\HyField@AuxAddToCoFields[2]{}
\providecommand\AtEndDvi@Check{}
\AtEndDvi@Check
\providecommand \oddpage@label [2]{}
\@writefile{toc}{\beamer@endinputifotherversion {3.36pt}}
\@writefile{nav}{\beamer@endinputifotherversion {3.36pt}}
\@writefile{nav}{\headcommand {\slideentry {0}{0}{1}{1/1}{}{0}}}
\@writefile{nav}{\headcommand {\beamer@framepages {1}{1}}}
\@writefile{nav}{\headcommand {\slideentry {0}{0}{2}{2/2}{}{0}}}
\@writefile{nav}{\headcommand {\beamer@framepages {2}{2}}}
\@writefile{toc}{\beamer@sectionintoc {1}{Design}{3}{0}{1}}
\@writefile{nav}{\headcommand {\sectionentry {1}{Design}{3}{Design}{0}}}
\@writefile{nav}{\headcommand {\beamer@sectionpages {1}{2}}}
\@writefile{nav}{\headcommand {\beamer@subsectionpages {1}{2}}}
\@writefile{nav}{\headcommand {\slideentry {1}{0}{1}{3/3}{}{0}}}
\@writefile{nav}{\headcommand {\beamer@framepages {3}{3}}}
\@writefile{nav}{\headcommand {\slideentry {1}{0}{2}{4/4}{}{0}}}
\@writefile{nav}{\headcommand {\beamer@framepages {4}{4}}}
\providecommand*\caption@xref[2]{\@setref\relax\@undefined{#1}}
\newlabel{my-label}{{1}{5}{Treatment Assignment\relax }{Doc-Start}{}}
\@writefile{snm}{\beamer@slide {my-label}{5}}
\@writefile{nav}{\headcommand {\slideentry {1}{0}{3}{5/5}{}{0}}}
\@writefile{nav}{\headcommand {\beamer@framepages {5}{5}}}
\@writefile{nav}{\headcommand {\slideentry {1}{0}{4}{6/6}{}{0}}}
\@writefile{nav}{\headcommand {\beamer@framepages {6}{6}}}
\@writefile{nav}{\headcommand {\slideentry {1}{0}{5}{7/9}{}{0}}}
\@writefile{nav}{\headcommand {\beamer@framepages {7}{9}}}
\@writefile{toc}{\beamer@sectionintoc {2}{Treatment effect}{10}{0}{2}}
\@writefile{nav}{\headcommand {\sectionentry {2}{Treatment effect}{10}{Treatment effect}{0}}}
\@writefile{nav}{\headcommand {\beamer@sectionpages {3}{9}}}
\@writefile{nav}{\headcommand {\beamer@subsectionpages {3}{9}}}
\@writefile{nav}{\headcommand {\slideentry {2}{0}{1}{10/10}{}{0}}}
\@writefile{nav}{\headcommand {\beamer@framepages {10}{10}}}
\newlabel{fig:timing1}{{1a}{11}{T3ET15 NU\relax }{Doc-Start}{}}
\@writefile{snm}{\beamer@slide {fig:timing1}{11}}
\newlabel{sub@fig:timing1}{{a}{11}{T3ET15 NU\relax }{Doc-Start}{}}
\@writefile{snm}{\beamer@slide {sub@fig:timing1}{11}}
\newlabel{fig:timing2}{{1b}{11}{T3ET15 PU\relax }{Doc-Start}{}}
\@writefile{snm}{\beamer@slide {fig:timing2}{11}}
\newlabel{sub@fig:timing2}{{b}{11}{T3ET15 PU\relax }{Doc-Start}{}}
\@writefile{snm}{\beamer@slide {sub@fig:timing2}{11}}
\newlabel{fig:timing3}{{1c}{11}{T3ET15 STD 1\relax }{Doc-Start}{}}
\@writefile{snm}{\beamer@slide {fig:timing3}{11}}
\newlabel{sub@fig:timing3}{{c}{11}{T3ET15 STD 1\relax }{Doc-Start}{}}
\@writefile{snm}{\beamer@slide {sub@fig:timing3}{11}}
\newlabel{fig:timing3}{{1d}{11}{T3ET15 STD 2\relax }{Doc-Start}{}}
\@writefile{snm}{\beamer@slide {fig:timing3}{11}}
\newlabel{sub@fig:timing3}{{d}{11}{T3ET15 STD 2\relax }{Doc-Start}{}}
\@writefile{snm}{\beamer@slide {sub@fig:timing3}{11}}
\@writefile{nav}{\headcommand {\slideentry {2}{0}{2}{11/11}{}{0}}}
\@writefile{nav}{\headcommand {\beamer@framepages {11}{11}}}
\newlabel{fig:timing1}{{2a}{12}{T1MT16 NU\relax }{Doc-Start}{}}
\@writefile{snm}{\beamer@slide {fig:timing1}{12}}
\newlabel{sub@fig:timing1}{{a}{12}{T1MT16 NU\relax }{Doc-Start}{}}
\@writefile{snm}{\beamer@slide {sub@fig:timing1}{12}}
\newlabel{fig:timing2}{{2b}{12}{T1MT16 PU\relax }{Doc-Start}{}}
\@writefile{snm}{\beamer@slide {fig:timing2}{12}}
\newlabel{sub@fig:timing2}{{b}{12}{T1MT16 PU\relax }{Doc-Start}{}}
\@writefile{snm}{\beamer@slide {sub@fig:timing2}{12}}
\newlabel{fig:timing3}{{2c}{12}{T1MT16 STD 1\relax }{Doc-Start}{}}
\@writefile{snm}{\beamer@slide {fig:timing3}{12}}
\newlabel{sub@fig:timing3}{{c}{12}{T1MT16 STD 1\relax }{Doc-Start}{}}
\@writefile{snm}{\beamer@slide {sub@fig:timing3}{12}}
\newlabel{fig:timing3}{{2d}{12}{T1MT16 STD 2\relax }{Doc-Start}{}}
\@writefile{snm}{\beamer@slide {fig:timing3}{12}}
\newlabel{sub@fig:timing3}{{d}{12}{T1MT16 STD 2\relax }{Doc-Start}{}}
\@writefile{snm}{\beamer@slide {sub@fig:timing3}{12}}
\@writefile{nav}{\headcommand {\slideentry {2}{0}{3}{12/12}{}{0}}}
\@writefile{nav}{\headcommand {\beamer@framepages {12}{12}}}
\newlabel{fig:timing1}{{3a}{13}{T1ET16 NU\relax }{Doc-Start}{}}
\@writefile{snm}{\beamer@slide {fig:timing1}{13}}
\newlabel{sub@fig:timing1}{{a}{13}{T1ET16 NU\relax }{Doc-Start}{}}
\@writefile{snm}{\beamer@slide {sub@fig:timing1}{13}}
\newlabel{fig:timing2}{{3b}{13}{T1ET16 PU\relax }{Doc-Start}{}}
\@writefile{snm}{\beamer@slide {fig:timing2}{13}}
\newlabel{sub@fig:timing2}{{b}{13}{T1ET16 PU\relax }{Doc-Start}{}}
\@writefile{snm}{\beamer@slide {sub@fig:timing2}{13}}
\newlabel{fig:timing3}{{3c}{13}{T1ET16 STD 1\relax }{Doc-Start}{}}
\@writefile{snm}{\beamer@slide {fig:timing3}{13}}
\newlabel{sub@fig:timing3}{{c}{13}{T1ET16 STD 1\relax }{Doc-Start}{}}
\@writefile{snm}{\beamer@slide {sub@fig:timing3}{13}}
\newlabel{fig:timing3}{{3d}{13}{T1ET16 STD 2\relax }{Doc-Start}{}}
\@writefile{snm}{\beamer@slide {fig:timing3}{13}}
\newlabel{sub@fig:timing3}{{d}{13}{T1ET16 STD 2\relax }{Doc-Start}{}}
\@writefile{snm}{\beamer@slide {sub@fig:timing3}{13}}
\@writefile{nav}{\headcommand {\slideentry {2}{0}{4}{13/13}{}{0}}}
\@writefile{nav}{\headcommand {\beamer@framepages {13}{13}}}
\newlabel{fig:timing1}{{4a}{14}{T3ET15 STD 4\relax }{Doc-Start}{}}
\@writefile{snm}{\beamer@slide {fig:timing1}{14}}
\newlabel{sub@fig:timing1}{{a}{14}{T3ET15 STD 4\relax }{Doc-Start}{}}
\@writefile{snm}{\beamer@slide {sub@fig:timing1}{14}}
\newlabel{fig:timing2}{{4b}{14}{T3ET15 STD 5\relax }{Doc-Start}{}}
\@writefile{snm}{\beamer@slide {fig:timing2}{14}}
\newlabel{sub@fig:timing2}{{b}{14}{T3ET15 STD 5\relax }{Doc-Start}{}}
\@writefile{snm}{\beamer@slide {sub@fig:timing2}{14}}
\newlabel{fig:timing3}{{4c}{14}{T3ET15 STD 6\relax }{Doc-Start}{}}
\@writefile{snm}{\beamer@slide {fig:timing3}{14}}
\newlabel{sub@fig:timing3}{{c}{14}{T3ET15 STD 6\relax }{Doc-Start}{}}
\@writefile{snm}{\beamer@slide {sub@fig:timing3}{14}}
\newlabel{fig:timing3}{{4d}{14}{T3ET15 STD 7\relax }{Doc-Start}{}}
\@writefile{snm}{\beamer@slide {fig:timing3}{14}}
\newlabel{sub@fig:timing3}{{d}{14}{T3ET15 STD 7\relax }{Doc-Start}{}}
\@writefile{snm}{\beamer@slide {sub@fig:timing3}{14}}
\@writefile{nav}{\headcommand {\slideentry {2}{0}{5}{14/14}{}{0}}}
\@writefile{nav}{\headcommand {\beamer@framepages {14}{14}}}
\newlabel{fig:timing1}{{5a}{15}{T1MT16 STD 4\relax }{Doc-Start}{}}
\@writefile{snm}{\beamer@slide {fig:timing1}{15}}
\newlabel{sub@fig:timing1}{{a}{15}{T1MT16 STD 4\relax }{Doc-Start}{}}
\@writefile{snm}{\beamer@slide {sub@fig:timing1}{15}}
\newlabel{fig:timing2}{{5b}{15}{T1MT16 STD 5\relax }{Doc-Start}{}}
\@writefile{snm}{\beamer@slide {fig:timing2}{15}}
\newlabel{sub@fig:timing2}{{b}{15}{T1MT16 STD 5\relax }{Doc-Start}{}}
\@writefile{snm}{\beamer@slide {sub@fig:timing2}{15}}
\newlabel{fig:timing3}{{5c}{15}{T1MT16 STD 6\relax }{Doc-Start}{}}
\@writefile{snm}{\beamer@slide {fig:timing3}{15}}
\newlabel{sub@fig:timing3}{{c}{15}{T1MT16 STD 6\relax }{Doc-Start}{}}
\@writefile{snm}{\beamer@slide {sub@fig:timing3}{15}}
\newlabel{fig:timing3}{{5d}{15}{T1MT16 STD 7\relax }{Doc-Start}{}}
\@writefile{snm}{\beamer@slide {fig:timing3}{15}}
\newlabel{sub@fig:timing3}{{d}{15}{T1MT16 STD 7\relax }{Doc-Start}{}}
\@writefile{snm}{\beamer@slide {sub@fig:timing3}{15}}
\@writefile{nav}{\headcommand {\slideentry {2}{0}{6}{15/15}{}{0}}}
\@writefile{nav}{\headcommand {\beamer@framepages {15}{15}}}
\newlabel{fig:timing1}{{6a}{16}{T1ET16 STD 4\relax }{Doc-Start}{}}
\@writefile{snm}{\beamer@slide {fig:timing1}{16}}
\newlabel{sub@fig:timing1}{{a}{16}{T1ET16 STD 4\relax }{Doc-Start}{}}
\@writefile{snm}{\beamer@slide {sub@fig:timing1}{16}}
\newlabel{fig:timing2}{{6b}{16}{T1ET16 STD 5\relax }{Doc-Start}{}}
\@writefile{snm}{\beamer@slide {fig:timing2}{16}}
\newlabel{sub@fig:timing2}{{b}{16}{T1ET16 STD 5\relax }{Doc-Start}{}}
\@writefile{snm}{\beamer@slide {sub@fig:timing2}{16}}
\newlabel{fig:timing3}{{6c}{16}{T1ET16 STD 6\relax }{Doc-Start}{}}
\@writefile{snm}{\beamer@slide {fig:timing3}{16}}
\newlabel{sub@fig:timing3}{{c}{16}{T1ET16 STD 6\relax }{Doc-Start}{}}
\@writefile{snm}{\beamer@slide {sub@fig:timing3}{16}}
\newlabel{fig:timing3}{{6d}{16}{T1ET16 STD 7\relax }{Doc-Start}{}}
\@writefile{snm}{\beamer@slide {fig:timing3}{16}}
\newlabel{sub@fig:timing3}{{d}{16}{T1ET16 STD 7\relax }{Doc-Start}{}}
\@writefile{snm}{\beamer@slide {sub@fig:timing3}{16}}
\@writefile{nav}{\headcommand {\slideentry {2}{0}{7}{16/16}{}{0}}}
\@writefile{nav}{\headcommand {\beamer@framepages {16}{16}}}
\newlabel{balance<1>}{{15}{17}{Treatment effect}{Doc-Start}{}}
\@writefile{snm}{\beamer@slide {balance<1>}{17}}
\newlabel{balance}{{15}{17}{Treatment effect}{Doc-Start}{}}
\@writefile{snm}{\beamer@slide {balance}{17}}
\@writefile{nav}{\headcommand {\slideentry {2}{0}{8}{17/17}{}{0}}}
\@writefile{nav}{\headcommand {\beamer@framepages {17}{17}}}
\@writefile{nav}{\headcommand {\slideentry {2}{0}{9}{18/18}{}{0}}}
\@writefile{nav}{\headcommand {\beamer@framepages {18}{18}}}
\@writefile{nav}{\headcommand {\slideentry {2}{0}{10}{19/19}{}{0}}}
\@writefile{nav}{\headcommand {\beamer@framepages {19}{19}}}
\@writefile{nav}{\headcommand {\slideentry {2}{0}{11}{20/20}{}{0}}}
\@writefile{nav}{\headcommand {\beamer@framepages {20}{20}}}
\@writefile{nav}{\headcommand {\slideentry {2}{0}{12}{21/21}{}{0}}}
\@writefile{nav}{\headcommand {\beamer@framepages {21}{21}}}
\@writefile{nav}{\headcommand {\slideentry {2}{0}{13}{22/22}{}{0}}}
\@writefile{nav}{\headcommand {\beamer@framepages {22}{22}}}
\@writefile{nav}{\headcommand {\slideentry {2}{0}{14}{23/23}{}{0}}}
\@writefile{nav}{\headcommand {\beamer@framepages {23}{23}}}
\@writefile{nav}{\headcommand {\slideentry {2}{0}{15}{24/24}{}{0}}}
\@writefile{nav}{\headcommand {\beamer@framepages {24}{24}}}
\@writefile{nav}{\headcommand {\slideentry {2}{0}{16}{25/25}{}{0}}}
\@writefile{nav}{\headcommand {\beamer@framepages {25}{25}}}
\@writefile{nav}{\headcommand {\slideentry {2}{0}{17}{26/26}{}{0}}}
\@writefile{nav}{\headcommand {\beamer@framepages {26}{26}}}
\@writefile{nav}{\headcommand {\slideentry {2}{0}{18}{27/27}{}{0}}}
\@writefile{nav}{\headcommand {\beamer@framepages {27}{27}}}
\@writefile{nav}{\headcommand {\slideentry {2}{0}{19}{28/28}{}{0}}}
\@writefile{nav}{\headcommand {\beamer@framepages {28}{28}}}
\@writefile{nav}{\headcommand {\slideentry {2}{0}{20}{29/29}{}{0}}}
\@writefile{nav}{\headcommand {\beamer@framepages {29}{29}}}
\@writefile{toc}{\beamer@sectionintoc {3}{Heterogeneity by grade}{30}{0}{3}}
\@writefile{nav}{\headcommand {\sectionentry {3}{Heterogeneity by grade}{30}{Heterogeneity by grade}{0}}}
\@writefile{nav}{\headcommand {\beamer@sectionpages {10}{29}}}
\@writefile{nav}{\headcommand {\beamer@subsectionpages {10}{29}}}
\@writefile{nav}{\headcommand {\slideentry {3}{0}{1}{30/30}{}{0}}}
\@writefile{nav}{\headcommand {\beamer@framepages {30}{30}}}
\@writefile{nav}{\headcommand {\slideentry {3}{0}{2}{31/31}{}{0}}}
\@writefile{nav}{\headcommand {\beamer@framepages {31}{31}}}
\@writefile{nav}{\headcommand {\slideentry {3}{0}{3}{32/32}{}{0}}}
\@writefile{nav}{\headcommand {\beamer@framepages {32}{32}}}
\@writefile{nav}{\headcommand {\slideentry {3}{0}{4}{33/33}{}{0}}}
\@writefile{nav}{\headcommand {\beamer@framepages {33}{33}}}
\@writefile{nav}{\headcommand {\slideentry {3}{0}{5}{34/34}{}{0}}}
\@writefile{nav}{\headcommand {\beamer@framepages {34}{34}}}
\@writefile{nav}{\headcommand {\slideentry {3}{0}{6}{35/35}{}{0}}}
\@writefile{nav}{\headcommand {\beamer@framepages {35}{35}}}
\@writefile{nav}{\headcommand {\slideentry {3}{0}{7}{36/36}{}{0}}}
\@writefile{nav}{\headcommand {\beamer@framepages {36}{36}}}
\@writefile{toc}{\beamer@sectionintoc {4}{Heterogeneity by term}{37}{0}{4}}
\@writefile{nav}{\headcommand {\sectionentry {4}{Heterogeneity by term}{37}{Heterogeneity by term}{0}}}
\@writefile{nav}{\headcommand {\beamer@sectionpages {30}{36}}}
\@writefile{nav}{\headcommand {\beamer@subsectionpages {30}{36}}}
\@writefile{nav}{\headcommand {\slideentry {4}{0}{1}{37/37}{}{0}}}
\@writefile{nav}{\headcommand {\beamer@framepages {37}{37}}}
\@writefile{nav}{\headcommand {\slideentry {4}{0}{2}{38/38}{}{0}}}
\@writefile{nav}{\headcommand {\beamer@framepages {38}{38}}}
\@writefile{nav}{\headcommand {\slideentry {4}{0}{3}{39/39}{}{0}}}
\@writefile{nav}{\headcommand {\beamer@framepages {39}{39}}}
\@writefile{nav}{\headcommand {\slideentry {4}{0}{4}{40/40}{}{0}}}
\@writefile{nav}{\headcommand {\beamer@framepages {40}{40}}}
\@writefile{nav}{\headcommand {\slideentry {4}{0}{5}{41/41}{}{0}}}
\@writefile{nav}{\headcommand {\beamer@framepages {41}{41}}}
\@writefile{nav}{\headcommand {\slideentry {4}{0}{6}{42/42}{}{0}}}
\@writefile{nav}{\headcommand {\beamer@framepages {42}{42}}}
\@writefile{nav}{\headcommand {\slideentry {4}{0}{7}{43/43}{}{0}}}
\@writefile{nav}{\headcommand {\beamer@framepages {43}{43}}}
\@writefile{toc}{\beamer@sectionintoc {5}{Closing remarks}{44}{0}{5}}
\@writefile{nav}{\headcommand {\sectionentry {5}{Closing remarks}{44}{Closing remarks}{0}}}
\@writefile{nav}{\headcommand {\beamer@sectionpages {37}{43}}}
\@writefile{nav}{\headcommand {\beamer@subsectionpages {37}{43}}}
\@writefile{nav}{\headcommand {\slideentry {5}{0}{1}{44/44}{}{0}}}
\@writefile{nav}{\headcommand {\beamer@framepages {44}{44}}}
\@writefile{nav}{\headcommand {\slideentry {5}{0}{2}{45/45}{}{0}}}
\@writefile{nav}{\headcommand {\beamer@framepages {45}{45}}}
\bibstyle{apacite}
\bibdata{CrossAgeBib}
\@writefile{nav}{\headcommand {\sectionentry {6}{}{46}{}{0}}}
\@writefile{nav}{\headcommand {\beamer@sectionpages {44}{45}}}
\@writefile{nav}{\headcommand {\beamer@subsectionpages {44}{45}}}
\@writefile{toc}{\contentsline {section}{}}
\@writefile{nav}{\headcommand {\slideentry {6}{0}{0}{46/46}{}{0}}}
\@writefile{nav}{\headcommand {\beamer@framepages {46}{46}}}
\@writefile{nav}{\headcommand {\partentry {\translate  {Appendix}}{1}}}
\@writefile{nav}{\headcommand {\beamer@partpages {1}{46}}}
\@writefile{nav}{\headcommand {\beamer@sectionpages {44}{46}}}
\@writefile{nav}{\headcommand {\beamer@subsectionpages {44}{46}}}
\@writefile{nav}{\headcommand {\beamer@appendixpages {47}}}
\newlabel{balance_school<1>}{{45}{47}{Closing remarks}{Doc-Start}{}}
\@writefile{snm}{\beamer@slide {balance_school<1>}{47}}
\newlabel{balance_school}{{45}{47}{Closing remarks}{Doc-Start}{}}
\@writefile{snm}{\beamer@slide {balance_school}{47}}
\@writefile{nav}{\headcommand {\slideentry {6}{0}{1}{47/47}{}{1}}}
\@writefile{nav}{\headcommand {\beamer@framepages {47}{47}}}
\newlabel{Balance_PU<1>}{{46}{48}{Closing remarks}{Doc-Start}{}}
\@writefile{snm}{\beamer@slide {Balance_PU<1>}{48}}
\newlabel{Balance_PU}{{46}{48}{Closing remarks}{Doc-Start}{}}
\@writefile{snm}{\beamer@slide {Balance_PU}{48}}
\@writefile{nav}{\headcommand {\slideentry {6}{0}{2}{48/48}{}{1}}}
\@writefile{nav}{\headcommand {\beamer@framepages {48}{48}}}
\newlabel{Balance_C1<1>}{{47}{49}{Closing remarks}{Doc-Start}{}}
\@writefile{snm}{\beamer@slide {Balance_C1<1>}{49}}
\newlabel{Balance_C1}{{47}{49}{Closing remarks}{Doc-Start}{}}
\@writefile{snm}{\beamer@slide {Balance_C1}{49}}
\@writefile{nav}{\headcommand {\slideentry {6}{0}{3}{49/49}{}{1}}}
\@writefile{nav}{\headcommand {\beamer@framepages {49}{49}}}
\newlabel{Balance_C2<1>}{{48}{50}{Closing remarks}{Doc-Start}{}}
\@writefile{snm}{\beamer@slide {Balance_C2<1>}{50}}
\newlabel{Balance_C2}{{48}{50}{Closing remarks}{Doc-Start}{}}
\@writefile{snm}{\beamer@slide {Balance_C2}{50}}
\@writefile{nav}{\headcommand {\slideentry {6}{0}{4}{50/50}{}{1}}}
\@writefile{nav}{\headcommand {\beamer@framepages {50}{50}}}
\newlabel{Balance_C3<1>}{{49}{51}{Closing remarks}{Doc-Start}{}}
\@writefile{snm}{\beamer@slide {Balance_C3<1>}{51}}
\newlabel{Balance_C3}{{49}{51}{Closing remarks}{Doc-Start}{}}
\@writefile{snm}{\beamer@slide {Balance_C3}{51}}
\@writefile{nav}{\headcommand {\slideentry {6}{0}{5}{51/51}{}{1}}}
\@writefile{nav}{\headcommand {\beamer@framepages {51}{51}}}
\newlabel{Balance_C4<1>}{{50}{52}{Closing remarks}{Doc-Start}{}}
\@writefile{snm}{\beamer@slide {Balance_C4<1>}{52}}
\newlabel{Balance_C4}{{50}{52}{Closing remarks}{Doc-Start}{}}
\@writefile{snm}{\beamer@slide {Balance_C4}{52}}
\@writefile{nav}{\headcommand {\slideentry {6}{0}{6}{52/52}{}{1}}}
\@writefile{nav}{\headcommand {\beamer@framepages {52}{52}}}
\newlabel{Balance_C5<1>}{{51}{53}{Closing remarks}{Doc-Start}{}}
\@writefile{snm}{\beamer@slide {Balance_C5<1>}{53}}
\newlabel{Balance_C5}{{51}{53}{Closing remarks}{Doc-Start}{}}
\@writefile{snm}{\beamer@slide {Balance_C5}{53}}
\@writefile{nav}{\headcommand {\slideentry {6}{0}{7}{53/53}{}{1}}}
\@writefile{nav}{\headcommand {\beamer@framepages {53}{53}}}
\newlabel{Balance_C6<1>}{{52}{54}{Closing remarks}{Doc-Start}{}}
\@writefile{snm}{\beamer@slide {Balance_C6<1>}{54}}
\newlabel{Balance_C6}{{52}{54}{Closing remarks}{Doc-Start}{}}
\@writefile{snm}{\beamer@slide {Balance_C6}{54}}
\@writefile{nav}{\headcommand {\slideentry {6}{0}{8}{54/54}{}{1}}}
\@writefile{nav}{\headcommand {\beamer@framepages {54}{54}}}
\newlabel{Balance_C7<1>}{{53}{55}{Closing remarks}{Doc-Start}{}}
\@writefile{snm}{\beamer@slide {Balance_C7<1>}{55}}
\newlabel{Balance_C7}{{53}{55}{Closing remarks}{Doc-Start}{}}
\@writefile{snm}{\beamer@slide {Balance_C7}{55}}
\@writefile{nav}{\headcommand {\slideentry {6}{0}{9}{55/55}{}{1}}}
\@writefile{nav}{\headcommand {\beamer@framepages {55}{55}}}
\newlabel{Balance_C8<1>}{{54}{56}{Closing remarks}{Doc-Start}{}}
\@writefile{snm}{\beamer@slide {Balance_C8<1>}{56}}
\newlabel{Balance_C8}{{54}{56}{Closing remarks}{Doc-Start}{}}
\@writefile{snm}{\beamer@slide {Balance_C8}{56}}
\@writefile{nav}{\headcommand {\slideentry {6}{0}{10}{56/56}{}{1}}}
\@writefile{nav}{\headcommand {\beamer@framepages {56}{56}}}
\@writefile{nav}{\headcommand {\beamer@partpages {47}{56}}}
\@writefile{nav}{\headcommand {\beamer@subsectionpages {47}{56}}}
\@writefile{nav}{\headcommand {\beamer@sectionpages {47}{56}}}
\@writefile{nav}{\headcommand {\beamer@documentpages {56}}}
\@writefile{nav}{\headcommand {\def \inserttotalframenumber {54}}}
\zref@newlabel{LastPage}{\default{1}\page{56}\abspage{56}}
