academyid,FullyTreated,PartiallyTreated,Controls
Ahero-KIS,1,,
Amagoro-BSA,1,,
Amalemba-KAK,1,,
Ambira-SYA,,,1
Archer's Post-SMB,1,,
Asembo Bay-SYA,1,,
Athiru Gaiti-MRU,1,,
Awasi-KIS,1,,
Awendo-MIG,1,,
Baba Dogo-NBO,1,,
Banana-KBU,1,,
Bandani-KIS,,1,
Bangal-TAN,1,,
Baricho-KIR,1,,
Bomet-BMT,1,,
Bomondo-NYI,1,,
Bondo-SYA,1,,
Bukembe-BGM,,1,
Bulla Iftin-GSA,1,,
Bulla Pesa-ISL,,,1
Bumala-BSA,1,,
Buoye-KIS,,,1
Bura Ndogo-TVT,,,1
Bura-TAN,1,,
Butere-KAK,1,,
Butula-BSA,1,,
Chabera-HMA,1,,
Chaka-NER,1,,
Chavakali-VHG,,,1
Chebilat-BMT,1,,
Checheles-ISL,1,,
Cheptais-BGM,1,,
Cheptulu-VHG,1,,
Chiga-KIS,1,,
Chogoria-TNT,1,,
Chuka-TNT,1,,
Chwele-BGM,1,,
Consolata-MBA,1,,
Daka Baricha-MAR,1,,
Dallas-EBU,1,,
Dandora 4-NBO,,1,
Dandora 5-NBO,1,,
Diamond-NBO,1,,
Dudi-KAK,1,,
Dundori-NKU,1,,
Ekerenyo-NYI,1,,
Elburgon-NKU,1,,
Eldama Ravine-BAR,1,,
Emali-MUE,,1,
Free Area-NKU,1,,
Funyula-BSA,1,,
Gachie-KBU,1,,
Gachororo-KBU,1,,
Garbatulla-ISL,1,,
Garsen-TAN,,,1
Gatina-NBO,1,,
Gatukuyu-KBU,,,1
Gatundu-KBU,1,,
Gede-KLF,,,1
Gesonso-KSI,1,,
Getare-KSI,1,,
Getembe-KSI,1,,
Gicagi-KAJ,,1,
Gicagi-NBO,1,,
Gikambura-KBU,1,,
Gikuni-KBU,,,1
Gilgil Teachers-NKU,,,1
Gilgil-NKU,1,,
Githiga-KBU,1,,
Gongoni-KLF,,,1
Gumba-NBO,1,,
Heshima-NKU,1,,
Hola-TAN,,,1
Hollywood-KIS,1,,
Huruma-USG,1,,
Ichuga-NER,1,,
Igoji-MRU,,,1
Ikonge-NYI,1,,
Il Bissil-KAJ,1,,
Illasit-KAJ,1,,
Isibania-MIG,1,,
Isinya-KAJ,1,,
Iten-EGM,1,,
Jasho Nyingi-NKU,1,,
Jogoo-KSI,1,,
Kabarnet-BAR,1,,
Kabati-NKU,,,1
Kabiria-NBO,,,1
Kadongo-HMA,1,,
Kadzandani-MBA,1,,
Kagio-KIR,1,,
Kajiado-KAJ,,,1
Kakoneni-KLF,,,1
Kakrao-MIG,1,,
Kakuyuni-MCS,1,,
Kaloleni-KLF,1,,
Kaloleni-TVT,,1,
Kamakwa-NER,,1,
Kambi Juu-ISL,1,,
Kamirithu-KBU,1,,
Kamiu-EBU,1,,
Kamukunji-USG,1,,
Kamukuywa-BGM,1,,
Kamuthi-NBO,1,,
Kanamai-KLF,1,,
Kanduyi-BGM,1,,
Kangema-MRA,1,,
Kangundo-MCS,1,,
Kapkateny-BGM,1,,
Kapkatet-KCO,1,,
Kapsabet-NDI,1,,
Kapsoit-KCO,1,,
Kapsokwony-BGM,1,,
Kaptembwo-NKU,1,,
Karagita-NKU,1,,
Karai-NKU,1,,
Karatina-NER,1,,
Karia-KBU,,1,
Kasarani-NKU,,,1
Kathiani-MCS,1,,
Katikoko-BSA,1,,
Katito-KIS,1,,
Kawaida-KBU,1,,
Kayole Corner-NBO,1,,
Kebirigo-NYI,1,,
Kefinco-KAK,1,,
Kegati-KSI,,,1
Kegogi-KSI,,,1
Kehancha-MIG,1,,
Kemere-KSI,1,,
Kendu Bay-HMA,,1,
Kenyenya-KSI,1,,
Keroka-NYI,1,,
Kerugoya-KIR,1,,
Keumbu-KSI,1,,
Khayega-KAK,1,,
Kiambiu-NBO,1,,
Kiamunyeki-NKU,1,,
Kiandutu-KBU,1,,
Kianjai-MRU,1,,
Kianjiru-KIR,,,1
Kibabii-BGM,1,,
Kibokoni-KLF,1,,
Kibos-KIS,1,,
Kibundani-KLE,1,,
Kibwezi-MUE,1,,
Kiembeni-MBA,1,,
Kiganjo Muthaiga-KBU,1,,
Kihoto-NKU,1,,
Kijabe-KBU,1,,
Kilgoris-NRK,1,,
Kimbo-NBO,1,,
Kimende-KBU,1,,
Kimilili-BGM,1,,
Kiminini-TRN,1,,
Kimumu-USG,1,,
Kinamba-LKP,1,,
Kinamba-NKU,1,,
Kinango-KLE,1,,
King'eero-KBU,1,,
Kingston-NBO,1,,
Kinna-ISL,1,,
Kinoo-KBU,,,1
Kipkaren-USG,,1,
Kipkarren River-NDI,1,,
Kirathimo-KBU,1,,
Kiserian-KAJ,1,,
Kisumu Ndogo-KLF,1,,
Kitui-KTU,1,,
Kiwandani-KLF,1,,
Kodiaga-SYA,1,,
Kombani-KLE,1,,
Kona Jara-MBA,1,,
Kona Mbaya-USG,1,,
Kooje-MRU,1,,
Korogocho-NBO,1,,
Koru-KIS,,,1
Kutus-KIR,,1,
Kwa Hola-MBA,1,,
Kwa Njenga Mosque-NBO,1,,
Kwa Njenga-NBO,,,1
Kwa Reuben-NBO,1,,
Kwale-KLE,1,,
Kware-NKU,1,,
Kyanguli-MCS,1,,
Kyumbi-MCS,1,,
Laare-MRU,,,1
Lamu-LAU,1,,
Leisure-MBA,1,,
Likii-LKP,1,,
Likoni-MBA,1,,
Litein-KCO,1,,
Loitokitok-KAJ,1,,
Londiani-KCO,,1,
Luanda-VHG,1,,
Lumakanda-KAK,1,,
Lumino-KAK,,,1
Lunga Lunga-KLE,1,,
Lunga Lunga-NBO,1,,
Lusigetti-KBU,1,,
Mabera-MIG,,,1
Machakos-MCS,,,1
Machine-NKU,1,,
Madogo-TAN,1,,
Magena-KSI,1,,
Magundu-MRU,1,,
Mahoo-TVT,1,,
Mai Mahiu-NKU,1,,
Maili Saba-NBO,1,,
Maina Village-NDR,1,,
Mairo Inya-NDR,1,,
Majengo Mapya-MBA,,1,
Majengo-VHG,1,,
Maji Mazuri-BAR,1,,
Maji Safi-MBA,1,,
Makindu-MUE,1,,
Makongeni-HMA,,,1
Makutano-PKT,1,,
Makuyu-MRA,1,,
Malaba-BSA,1,,
Malakisi-BGM,1,,
Malanga-SYA,1,,
Malava-KAK,1,,
Mambrui-KLF,1,,
Manguo-LKP,1,,
Manyatta-MAR,1,,
Marachi-BSA,1,,
Maragua-MRA,1,,
Maralal-SMB,1,,
Marani-KSI,1,,
Mariakani-KLF,1,,
Marmanet-LKP,1,,
Maromo-KSI,,,1
Masii-MCS,,,1
Masimba-KSI,1,,
Matinyani-KTU,1,,
Matopeni-NBO,1,,
Matunda-KAK,1,,
Matuu-MCS,1,,
Mau Narok-NKU,,,1
Maua-MRU,1,,
Mawanga-NKU,1,,
Maweni-KLF,1,,
Maweni-MBA,1,,
Mayanja-BGM,1,,
Mazeras-MBA,1,,
Mbale-VHG,,1,
Mbita-HMA,,1,
Miami-MBA,,1,
Mibuyu Saba-KLF,1,,
Mikinduri-MRU,1,,
Mishomoroni-MBA,,1,
Misikhu-BGM,1,,
Mitaboni-MCS,1,,
Mitume-TRN,,1,
Mjanaheri-KLF,1,,
Mjini-BGM,1,,
Mnarani-KLF,1,,
Mogonga-KSI,1,,
Mogotio-BAR,1,,
Moi's Bridge-USG,1,,
Molo-NKU,1,,
Mosocho-KSI,,,1
Msambweni-KLE,1,,
Mtangani-KLF,1,,
Mtomondoni-KLF,1,,
Mtongwe-MBA,1,,
Mtopanga-MBA,1,,
Muchatha-KBU,1,,
Mudete-VHG,,,1
Muguga-KBU,1,,
Muhoroni-KIS,1,,
Muhuru Bay-MIG,1,,
Munju-NKU,,,1
Munyaka-USG,1,,
Murang'a-MRA,1,,
Muriri-MRU,1,,
Muthua-NBO,1,,
Mutithi-KIR,,,1
Mutuini-NBO,1,,
Mwakingali-TVT,1,,
Mwala-MCS,1,,
Mwamambi-KLE,1,,
Mwatate-TVT,,1,
Mwembe-KSI,1,,
Mwimuto-KBU,1,,
Mwingi-KTU,,,1
Nakuru West-NKU,1,,
Namanga-KAJ,1,,
Nambale-BSA,1,,
Nangili-KAK,,,1
Naro Moru-NER,1,,
Narok-NRK,,,1
Ndhiwa-HMA,1,,
Ndori-SYA,1,,
Ndorome-KIR,1,,
Ndumberi-KBU,1,,
Ng'iya-SYA,1,,
Ng'ombeni-KLE,1,,
Ngangarithi-NER,1,,
Ngarariga-KBU,1,,
Njabini-NDR,1,,
Njoro-NKU,1,,
Nkubu-MRU,1,,
Nyabohanse-MIG,,,1
Nyabondo-KIS,1,,
Nyacheki-KSI,1,,
Nyagacho-KCO,,1,
Nyakoe-KSI,1,,
Nyamache-KSI,,1,
Nyamasaria-KIS,1,,
Nyamataro-KSI,1,,
Nyamira-NYI,1,,
Nyanchenge-KSI,1,,
Nyandiwa-HMA,,,1
Nyansiongo-NYI,1,,
Nyanturago-KSI,1,,
Nyaramba-NYI,1,,
Nyawita-KIS,,1,
Ogembo-KSI,1,,
Ojamii-BSA,1,,
Oruba-MIG,1,,
Othaya-NER,1,,
Owino Ouru-MBA,1,,
Oyugis-HMA,1,,
Panama-USG,1,,
Pap Onditi-KIS,,,1
Paw Akuche-KIS,1,,
Picadilly-KIS,1,,
Port Victoria-BSA,,,1
Rabuor-KIS,1,,
Ramula-SYA,1,,
Ranen-MIG,1,,
Rhonda-NKU,1,,
Ringa-HMA,1,,
Rironi-KBU,1,,
Road Block-USG,,1,
Rongai-KAJ,1,,
Rongo-MIG,1,,
Rugunga-BSA,1,,
Ruiru-KBU,1,,
Rumuruti-LKP,,1,
Ruthimitu-NBO,1,,
Saba Saba-MRA,,,1
Sagana-KIR,1,,
Salgaa-NKU,1,,
Satellite-NBO,1,,
Scheme-KAK,1,,
Sega-SYA,1,,
Serem-VHG,1,,
Shamakhokho-VHG,,1,
Shanzu-MBA,1,,
Shauri Yako-HMA,1,,
Shianda-KAK,,,1
Shibale-KAK,1,,
Siany-KIS,1,,
Siaya-SYA,1,,
Sichirai-KAK,1,,
Sigomre-SYA,1,,
Sikhendu-TRN,1,,
Sinai-NBO,,1,
Sindo-HMA,1,,
Sio Port-BSA,1,,
Sirisia-BGM,,,1
Skuta-NER,1,,
Sondu-KIS,1,,
Sori-MIG,1,,
Sotik-BMT,1,,
Soy-KAK,,,1
Subukia-NKU,1,,
Suna-MIG,1,,
Suneka-KSI,1,,
Tabaka-KSI,1,,
Takaye-KLF,1,,
Tala-MCS,1,,
Tassia-NBO,1,,
Thiba-KIR,1,,
Thogoto-KBU,1,,
Timau-MRU,1,,
Timboroa-BAR,1,,
Tiwi-KLE,1,,
Tombe-NYI,,,1
Township-BGM,1,,
Turbo-USG,1,,
Tuwani-TRN,1,,
Ugunja-SYA,,,1
Ujamaa-MBA,1,,
Ukwala-SYA,1,,
Umoja-KLE,1,,
Umoja-NKU,1,,
Uplands-KBU,1,,
Upper London-NRK,1,,
Usenge-SYA,1,,
Utange-MBA,1,,
Uthiru-KBU,1,,
Vanga-KLE,1,,
Waithaka-NBO,1,,
Wamba-SMB,,,1
Wang'uru-KIR,1,,
Wasweta-MIG,1,,
Watamu-KLF,1,,
Webuye-BGM,1,,
Witeithie-KBU,1,,
Wote-MUE,1,,
Yala-SYA,1,,
